GFORTRAN module version '6' created from errorMod.f95 on Wed Jul 31 09:29:52 2013
MD5:6be7959675a37ef16f0d223bf9e28be7 -- If you edit this, you'll get what you deserve.

(() () () () () () () () () () () () () () () () () () () () () () () ()
() () ())

()

()

()

()

()

(2 'error' 'errormod' 'error' 1 ((VARIABLE UNKNOWN-INTENT UNKNOWN-PROC
UNKNOWN IMPLICIT-SAVE 0 0) (INTEGER 4 0 0 INTEGER ()) 0 0 () () 0 () ()
() 0 0)
3 'errorf' 'errormod' 'errorf' 1 ((PROCEDURE UNKNOWN-INTENT MODULE-PROC
DECL UNKNOWN 0 0 SUBROUTINE) (UNKNOWN 0 0 0 UNKNOWN ()) 4 0 (5) () 0 ()
() () 0 0)
6 'errormod' 'errormod' 'errormod' 1 ((MODULE UNKNOWN-INTENT
UNKNOWN-PROC UNKNOWN UNKNOWN 0 0) (UNKNOWN 0 0 0 UNKNOWN ()) 0 0 () () 0
() () () 0 0)
5 'error' '' 'error' 4 ((VARIABLE IN UNKNOWN-PROC UNKNOWN UNKNOWN 0 0
DUMMY) (INTEGER 4 0 0 INTEGER ()) 0 0 () () 0 () () () 0 0)
)

('error' 0 2 'errorf' 0 3 'errormod' 0 6)
