GFORTRAN module version '6' created from fluxMod.f95 on Wed Jul 31 09:29:52 2013
MD5:e61506cb6e8b1fe9dac806ed04cceea9 -- If you edit this, you'll get what you deserve.

(() () () () () () () () () () () () () () () () () () () () () () ()
() () () ())

()

()

()

()

()

(2 'computenumericalflux' 'fluxmod' 'computenumericalflux' 1 ((
PROCEDURE UNKNOWN-INTENT MODULE-PROC DECL UNKNOWN 0 0 SUBROUTINE
IMPLICIT_PURE) (UNKNOWN 0 0 0 UNKNOWN ()) 3 0 (4 5 6 7 8) () 0 () () ()
0 0)
9 'counter' 'inputmod' 'counter' 1 ((VARIABLE UNKNOWN-INTENT
UNKNOWN-PROC UNKNOWN IMPLICIT-SAVE 0 0) (INTEGER 4 0 0 INTEGER ()) 0 0 ()
() 0 () () () 0 0)
10 'del' 'inputmod' 'del' 1 ((VARIABLE UNKNOWN-INTENT UNKNOWN-PROC
UNKNOWN IMPLICIT-SAVE 0 0) (REAL 8 0 0 REAL ()) 0 0 () () 0 () () () 0 0)
11 'dim' 'inputmod' 'dim' 1 ((VARIABLE UNKNOWN-INTENT UNKNOWN-PROC
UNKNOWN IMPLICIT-SAVE 0 0) (INTEGER 4 0 0 INTEGER ()) 0 0 () () 0 () ()
() 0 0)
12 'dir' 'inputmod' 'dir' 1 ((VARIABLE UNKNOWN-INTENT UNKNOWN-PROC
UNKNOWN IMPLICIT-SAVE 0 0) (INTEGER 4 0 0 INTEGER ()) 0 0 () () 0 () ()
() 0 0)
13 'dp' 'inputmod' 'dp' 1 ((PARAMETER UNKNOWN-INTENT UNKNOWN-PROC
UNKNOWN IMPLICIT-SAVE 0 0) (INTEGER 4 0 0 INTEGER ()) 0 0 () (CONSTANT (
INTEGER 4 0 0 INTEGER ()) 0 '8') () 0 () () () 0 0)
14 'dt' 'inputmod' 'dt' 1 ((VARIABLE UNKNOWN-INTENT UNKNOWN-PROC UNKNOWN
IMPLICIT-SAVE 0 0) (REAL 8 0 0 REAL ()) 0 0 () () 0 () () () 0 0)
15 'file_name' 'inputmod' 'file_name' 1 ((VARIABLE UNKNOWN-INTENT
UNKNOWN-PROC UNKNOWN IMPLICIT-SAVE 0 0) (CHARACTER 1 0 0 CHARACTER ((
CONSTANT (INTEGER 4 0 0 INTEGER ()) 0 '100'))) 0 0 () () 0 () () () 0 0)
16 'fluxmod' 'fluxmod' 'fluxmod' 1 ((MODULE UNKNOWN-INTENT UNKNOWN-PROC
UNKNOWN UNKNOWN 0 0) (UNKNOWN 0 0 0 UNKNOWN ()) 0 0 () () 0 () () () 0 0)
17 'gamma' 'inputmod' 'gamma' 1 ((VARIABLE UNKNOWN-INTENT UNKNOWN-PROC
UNKNOWN IMPLICIT-SAVE 0 0) (REAL 8 0 0 REAL ()) 0 0 () () 0 () () () 0 0)
18 'i' 'inputmod' 'i' 1 ((VARIABLE UNKNOWN-INTENT UNKNOWN-PROC UNKNOWN
IMPLICIT-SAVE 0 0) (INTEGER 4 0 0 INTEGER ()) 0 0 () () 0 () () () 0 0)
19 'imax' 'inputmod' 'imax' 1 ((VARIABLE UNKNOWN-INTENT UNKNOWN-PROC
UNKNOWN IMPLICIT-SAVE 0 0) (INTEGER 4 0 0 INTEGER ()) 0 0 () () 0 () ()
() 0 0)
20 'inputmod' 'inputmod' 'inputmod' 1 ((MODULE UNKNOWN-INTENT
UNKNOWN-PROC UNKNOWN UNKNOWN 0 0) (UNKNOWN 0 0 0 UNKNOWN ()) 0 0 () () 0
() () () 0 0)
21 'istep' 'inputmod' 'istep' 1 ((VARIABLE UNKNOWN-INTENT UNKNOWN-PROC
UNKNOWN IMPLICIT-SAVE 0 0) (INTEGER 4 0 0 INTEGER ()) 0 0 () () 0 () ()
() 0 0)
22 'j' 'inputmod' 'j' 1 ((VARIABLE UNKNOWN-INTENT UNKNOWN-PROC UNKNOWN
IMPLICIT-SAVE 0 0) (INTEGER 4 0 0 INTEGER ()) 0 0 () () 0 () () () 0 0)
23 'jmax' 'inputmod' 'jmax' 1 ((VARIABLE UNKNOWN-INTENT UNKNOWN-PROC
UNKNOWN IMPLICIT-SAVE 0 0) (INTEGER 4 0 0 INTEGER ()) 0 0 () () 0 () ()
() 0 0)
24 'jstep' 'inputmod' 'jstep' 1 ((VARIABLE UNKNOWN-INTENT UNKNOWN-PROC
UNKNOWN IMPLICIT-SAVE 0 0) (INTEGER 4 0 0 INTEGER ()) 0 0 () () 0 () ()
() 0 0)
25 'k' 'inputmod' 'k' 1 ((VARIABLE UNKNOWN-INTENT UNKNOWN-PROC UNKNOWN
IMPLICIT-SAVE 0 0) (INTEGER 4 0 0 INTEGER ()) 0 0 () () 0 () () () 0 0)
26 'maxiter' 'inputmod' 'maxiter' 1 ((VARIABLE UNKNOWN-INTENT
UNKNOWN-PROC UNKNOWN IMPLICIT-SAVE 0 0) (INTEGER 4 0 0 INTEGER ()) 0 0 ()
() 0 () () () 0 0)
27 'numf' 'inputmod' 'numf' 1 ((VARIABLE UNKNOWN-INTENT UNKNOWN-PROC
UNKNOWN IMPLICIT-SAVE 0 0) (INTEGER 4 0 0 INTEGER ()) 0 0 () () 0 () ()
() 0 0)
28 'numi' 'inputmod' 'numi' 1 ((VARIABLE UNKNOWN-INTENT UNKNOWN-PROC
UNKNOWN IMPLICIT-SAVE 0 0) (INTEGER 4 0 0 INTEGER ()) 0 0 () () 0 () ()
() 0 0)
29 'pi' 'inputmod' 'pi' 1 ((VARIABLE UNKNOWN-INTENT UNKNOWN-PROC UNKNOWN
IMPLICIT-SAVE 0 0) (REAL 8 0 0 REAL ()) 0 0 () () 0 () () () 0 0)
30 'prim' 'inputmod' 'prim' 1 ((VARIABLE UNKNOWN-INTENT UNKNOWN-PROC
UNKNOWN IMPLICIT-SAVE 0 0 DIMENSION) (REAL 8 0 0 REAL ()) 0 0 () (1 0
EXPLICIT (CONSTANT (INTEGER 4 0 0 INTEGER ()) 0 '1') (CONSTANT (INTEGER
4 0 0 INTEGER ()) 0 '8')) 0 () () () 0 0)
31 'rhoi' 'inputmod' 'rhoi' 1 ((VARIABLE UNKNOWN-INTENT UNKNOWN-PROC
UNKNOWN IMPLICIT-SAVE 0 0) (REAL 8 0 0 REAL ()) 0 0 () () 0 () () () 0 0)
32 'selected_real_kind' '(intrinsic)' 'selected_real_kind' 1 ((
PROCEDURE UNKNOWN-INTENT UNKNOWN-PROC UNKNOWN UNKNOWN 0 0 FUNCTION) (
UNKNOWN 0 0 0 UNKNOWN ()) 0 0 () () 32 () () () 0 0)
33 'superbee' 'fluxmod' 'superbee' 1 ((PROCEDURE UNKNOWN-INTENT
MODULE-PROC DECL UNKNOWN 0 0 SUBROUTINE IMPLICIT_PURE) (UNKNOWN 0 0 0
UNKNOWN ()) 34 0 (35 36 37) () 0 () () () 0 0)
38 't' 'inputmod' 't' 1 ((VARIABLE UNKNOWN-INTENT UNKNOWN-PROC UNKNOWN
IMPLICIT-SAVE 0 0) (REAL 8 0 0 REAL ()) 0 0 () () 0 () () () 0 0)
39 'tout' 'inputmod' 'tout' 1 ((VARIABLE UNKNOWN-INTENT UNKNOWN-PROC
UNKNOWN IMPLICIT-SAVE 0 0) (REAL 8 0 0 REAL ()) 0 0 () () 0 () () () 0 0)
40 'twrite' 'inputmod' 'twrite' 1 ((VARIABLE UNKNOWN-INTENT UNKNOWN-PROC
UNKNOWN IMPLICIT-SAVE 0 0) (REAL 8 0 0 REAL ()) 0 0 () () 0 () () () 0 0)
41 'u' 'inputmod' 'u' 1 ((VARIABLE UNKNOWN-INTENT UNKNOWN-PROC UNKNOWN
IMPLICIT-SAVE 0 0 ALLOCATABLE DIMENSION) (REAL 8 0 0 REAL ()) 0 0 () (3
0 DEFERRED () () () () () ()) 0 () () () 0 0)
42 'vanleer' 'fluxmod' 'vanleer' 1 ((PROCEDURE UNKNOWN-INTENT
MODULE-PROC DECL UNKNOWN 0 0 SUBROUTINE IMPLICIT_PURE) (UNKNOWN 0 0 0
UNKNOWN ()) 43 0 (44 45 46) () 0 () () () 0 0)
47 'veli' 'inputmod' 'veli' 1 ((VARIABLE UNKNOWN-INTENT UNKNOWN-PROC
UNKNOWN IMPLICIT-SAVE 0 0) (REAL 8 0 0 REAL ()) 0 0 () () 0 () () () 0 0)
48 'x' 'inputmod' 'x' 1 ((VARIABLE UNKNOWN-INTENT UNKNOWN-PROC UNKNOWN
IMPLICIT-SAVE 0 0 ALLOCATABLE DIMENSION) (REAL 8 0 0 REAL ()) 0 0 () (2
0 DEFERRED () () () ()) 0 () () () 0 0)
49 'y' 'inputmod' 'y' 1 ((VARIABLE UNKNOWN-INTENT UNKNOWN-PROC UNKNOWN
IMPLICIT-SAVE 0 0 ALLOCATABLE DIMENSION) (REAL 8 0 0 REAL ()) 0 0 () (2
0 DEFERRED () () () ()) 0 () () () 0 0)
4 'rho' '' 'rho' 3 ((VARIABLE IN UNKNOWN-PROC UNKNOWN UNKNOWN 0 0 DUMMY)
(REAL 8 0 0 REAL ()) 0 0 () () 0 () () () 0 0)
5 'v1' '' 'v1' 3 ((VARIABLE IN UNKNOWN-PROC UNKNOWN UNKNOWN 0 0 DUMMY) (
REAL 8 0 0 REAL ()) 0 0 () () 0 () () () 0 0)
6 'v2' '' 'v2' 3 ((VARIABLE IN UNKNOWN-PROC UNKNOWN UNKNOWN 0 0 DUMMY) (
REAL 8 0 0 REAL ()) 0 0 () () 0 () () () 0 0)
7 'p' '' 'p' 3 ((VARIABLE IN UNKNOWN-PROC UNKNOWN UNKNOWN 0 0 DUMMY) (
REAL 8 0 0 REAL ()) 0 0 () () 0 () () () 0 0)
8 'numericalflux' '' 'numericalflux' 3 ((VARIABLE OUT UNKNOWN-PROC
UNKNOWN UNKNOWN 0 0 DIMENSION DUMMY) (REAL 8 0 0 REAL ()) 0 0 () (1 0
EXPLICIT (CONSTANT (INTEGER 4 0 0 INTEGER ()) 0 '1') (CONSTANT (INTEGER
4 0 0 INTEGER ()) 0 '4')) 0 () () () 0 0)
44 'r' '' 'r' 43 ((VARIABLE IN UNKNOWN-PROC UNKNOWN UNKNOWN 0 0 DUMMY) (
REAL 8 0 0 REAL ()) 0 0 () () 0 () () () 0 0)
45 'omega' '' 'omega' 43 ((VARIABLE IN UNKNOWN-PROC UNKNOWN UNKNOWN 0 0
DUMMY) (REAL 8 0 0 REAL ()) 0 0 () () 0 () () () 0 0)
46 'deli' '' 'deli' 43 ((VARIABLE INOUT UNKNOWN-PROC UNKNOWN UNKNOWN 0 0
DUMMY) (REAL 8 0 0 REAL ()) 0 0 () () 0 () () () 0 0)
35 'r' '' 'r' 34 ((VARIABLE IN UNKNOWN-PROC UNKNOWN UNKNOWN 0 0 DUMMY) (
REAL 8 0 0 REAL ()) 0 0 () () 0 () () () 0 0)
36 'omega' '' 'omega' 34 ((VARIABLE IN UNKNOWN-PROC UNKNOWN UNKNOWN 0 0
DUMMY) (REAL 8 0 0 REAL ()) 0 0 () () 0 () () () 0 0)
37 'deli' '' 'deli' 34 ((VARIABLE INOUT UNKNOWN-PROC UNKNOWN UNKNOWN 0 0
DUMMY) (REAL 8 0 0 REAL ()) 0 0 () () 0 () () () 0 0)
)

('computenumericalflux' 0 2 'counter' 0 9 'del' 0 10 'dim' 0 11 'dir' 0
12 'dp' 0 13 'dt' 0 14 'file_name' 0 15 'fluxmod' 0 16 'gamma' 0 17 'i'
0 18 'imax' 0 19 'inputmod' 0 20 'istep' 0 21 'j' 0 22 'jmax' 0 23 'jstep'
0 24 'k' 0 25 'maxiter' 0 26 'numf' 0 27 'numi' 0 28 'pi' 0 29 'prim' 0
30 'rhoi' 0 31 'selected_real_kind' 0 32 'superbee' 0 33 't' 0 38 'tout'
0 39 'twrite' 0 40 'u' 0 41 'vanleer' 0 42 'veli' 0 47 'x' 0 48 'y' 0 49)
