\relax 
\@writefile{toc}{\contentsline {section}{Problem 1}{1}}
\@writefile{toc}{\contentsline {section}{Problem 2}{1}}
\@writefile{toc}{\contentsline {section}{Problem 3}{2}}
\newlabel{LastPage}{{}{4}}
