GFORTRAN module version '6' created from fluxMod.f95 on Sun Jul 14 16:27:35 2013
MD5:9ddd7200b90730e96ff75c5da7250d51 -- If you edit this, you'll get what you deserve.

(() () () () () () () () () () () () () () () () () () () () () () ()
() () () ())

()

()

()

()

()

(2 'cfl' 'inputmod' 'cfl' 1 ((VARIABLE UNKNOWN-INTENT UNKNOWN-PROC
UNKNOWN IMPLICIT-SAVE 0 0) (REAL 8 0 0 REAL ()) 0 0 () () 0 () () () 0 0)
3 'computenumericalflux' 'flux' 'computenumericalflux' 1 ((PROCEDURE
UNKNOWN-INTENT MODULE-PROC DECL UNKNOWN 0 0 SUBROUTINE IMPLICIT_PURE) (
UNKNOWN 0 0 0 UNKNOWN ()) 4 0 (5 6 7 8) () 0 () () () 0 0)
9 'discp' 'inputmod' 'discp' 1 ((VARIABLE UNKNOWN-INTENT UNKNOWN-PROC
UNKNOWN IMPLICIT-SAVE 0 0) (REAL 8 0 0 REAL ()) 0 0 () () 0 () () () 0 0)
10 'dp' 'inputmod' 'dp' 1 ((PARAMETER UNKNOWN-INTENT UNKNOWN-PROC
UNKNOWN IMPLICIT-SAVE 0 0) (INTEGER 4 0 0 INTEGER ()) 0 0 () (CONSTANT (
INTEGER 4 0 0 INTEGER ()) 0 '8') () 0 () () () 0 0)
11 'dx' 'inputmod' 'dx' 1 ((VARIABLE UNKNOWN-INTENT UNKNOWN-PROC UNKNOWN
IMPLICIT-SAVE 0 0) (REAL 8 0 0 REAL ()) 0 0 () () 0 () () () 0 0)
12 'file_name' 'inputmod' 'file_name' 1 ((VARIABLE UNKNOWN-INTENT
UNKNOWN-PROC UNKNOWN IMPLICIT-SAVE 0 0) (CHARACTER 1 0 0 CHARACTER ((
CONSTANT (INTEGER 4 0 0 INTEGER ()) 0 '100'))) 0 0 () () 0 () () () 0 0)
13 'flux' 'flux' 'flux' 1 ((MODULE UNKNOWN-INTENT UNKNOWN-PROC UNKNOWN
UNKNOWN 0 0) (UNKNOWN 0 0 0 UNKNOWN ()) 0 0 () () 0 () () () 0 0)
14 'gamma' 'inputmod' 'gamma' 1 ((VARIABLE UNKNOWN-INTENT UNKNOWN-PROC
UNKNOWN IMPLICIT-SAVE 0 0) (REAL 8 0 0 REAL ()) 0 0 () () 0 () () () 0 0)
15 'i' 'inputmod' 'i' 1 ((VARIABLE UNKNOWN-INTENT UNKNOWN-PROC UNKNOWN
IMPLICIT-SAVE 0 0) (INTEGER 4 0 0 INTEGER ()) 0 0 () () 0 () () () 0 0)
16 'imax' 'inputmod' 'imax' 1 ((VARIABLE UNKNOWN-INTENT UNKNOWN-PROC
UNKNOWN IMPLICIT-SAVE 0 0) (INTEGER 4 0 0 INTEGER ()) 0 0 () () 0 () ()
() 0 0)
17 'inputmod' 'inputmod' 'inputmod' 1 ((MODULE UNKNOWN-INTENT
UNKNOWN-PROC UNKNOWN UNKNOWN 0 0) (UNKNOWN 0 0 0 UNKNOWN ()) 0 0 () () 0
() () () 0 0)
18 'inputs' 'inputmod' 'inputs' 1 ((PROCEDURE UNKNOWN-INTENT MODULE-PROC
DECL UNKNOWN 0 0 SUBROUTINE) (UNKNOWN 0 0 0 UNKNOWN ()) 19 0 (20 21 22
23 24 25 26 27 28 29 30) () 0 () () () 0 0)
31 'iwl' 'inputmod' 'iwl' 1 ((VARIABLE UNKNOWN-INTENT UNKNOWN-PROC
UNKNOWN IMPLICIT-SAVE 0 0 DIMENSION) (REAL 8 0 0 REAL ()) 0 0 () (1 0
EXPLICIT (CONSTANT (INTEGER 4 0 0 INTEGER ()) 0 '1') (CONSTANT (INTEGER
4 0 0 INTEGER ()) 0 '3')) 0 () () () 0 0)
32 'iwr' 'inputmod' 'iwr' 1 ((VARIABLE UNKNOWN-INTENT UNKNOWN-PROC
UNKNOWN IMPLICIT-SAVE 0 0 DIMENSION) (REAL 8 0 0 REAL ()) 0 0 () (1 0
EXPLICIT (CONSTANT (INTEGER 4 0 0 INTEGER ()) 0 '1') (CONSTANT (INTEGER
4 0 0 INTEGER ()) 0 '3')) 0 () () () 0 0)
33 'j' 'inputmod' 'j' 1 ((VARIABLE UNKNOWN-INTENT UNKNOWN-PROC UNKNOWN
IMPLICIT-SAVE 0 0) (INTEGER 4 0 0 INTEGER ()) 0 0 () () 0 () () () 0 0)
34 'len' 'inputmod' 'len' 1 ((VARIABLE UNKNOWN-INTENT UNKNOWN-PROC
UNKNOWN IMPLICIT-SAVE 0 0) (REAL 8 0 0 REAL ()) 0 0 () () 0 () () () 0 0)
35 'm' 'inputmod' 'm' 1 ((VARIABLE UNKNOWN-INTENT UNKNOWN-PROC UNKNOWN
IMPLICIT-SAVE 0 0) (INTEGER 4 0 0 INTEGER ()) 0 0 () () 0 () () () 0 0)
36 'maxiter' 'inputmod' 'maxiter' 1 ((VARIABLE UNKNOWN-INTENT
UNKNOWN-PROC UNKNOWN IMPLICIT-SAVE 0 0) (INTEGER 4 0 0 INTEGER ()) 0 0 ()
() 0 () () () 0 0)
37 'selected_real_kind' '(intrinsic)' 'selected_real_kind' 1 ((
PROCEDURE UNKNOWN-INTENT UNKNOWN-PROC UNKNOWN UNKNOWN 0 0 FUNCTION) (
UNKNOWN 0 0 0 UNKNOWN ()) 0 0 () () 37 () () () 0 0)
38 't' 'inputmod' 't' 1 ((VARIABLE UNKNOWN-INTENT UNKNOWN-PROC UNKNOWN
IMPLICIT-SAVE 0 0) (REAL 8 0 0 REAL ()) 0 0 () () 0 () () () 0 0)
39 'tout' 'inputmod' 'tout' 1 ((VARIABLE UNKNOWN-INTENT UNKNOWN-PROC
UNKNOWN IMPLICIT-SAVE 0 0) (REAL 8 0 0 REAL ()) 0 0 () () 0 () () () 0 0)
40 'vanleer' 'flux' 'vanleer' 1 ((PROCEDURE UNKNOWN-INTENT MODULE-PROC
DECL UNKNOWN 0 0 SUBROUTINE) (UNKNOWN 0 0 0 UNKNOWN ()) 41 0 (42 43 44)
() 0 () () () 0 0)
5 'rho' '' 'rho' 4 ((VARIABLE IN UNKNOWN-PROC UNKNOWN UNKNOWN 0 0 DUMMY)
(REAL 8 0 0 REAL ()) 0 0 () () 0 () () () 0 0)
6 'vel' '' 'vel' 4 ((VARIABLE IN UNKNOWN-PROC UNKNOWN UNKNOWN 0 0 DUMMY)
(REAL 8 0 0 REAL ()) 0 0 () () 0 () () () 0 0)
7 'p' '' 'p' 4 ((VARIABLE IN UNKNOWN-PROC UNKNOWN UNKNOWN 0 0 DUMMY) (
REAL 8 0 0 REAL ()) 0 0 () () 0 () () () 0 0)
8 'numericalflux' '' 'numericalflux' 4 ((VARIABLE OUT UNKNOWN-PROC
UNKNOWN UNKNOWN 0 0 DIMENSION DUMMY) (REAL 8 0 0 REAL ()) 0 0 () (1 0
EXPLICIT (CONSTANT (INTEGER 4 0 0 INTEGER ()) 0 '1') (CONSTANT (INTEGER
4 0 0 INTEGER ()) 0 '3')) 0 () () () 0 0)
22 'gamma' '' 'gamma' 19 ((VARIABLE OUT UNKNOWN-PROC UNKNOWN UNKNOWN 0 0
DUMMY) (REAL 8 0 0 REAL ()) 0 0 () () 0 () () () 0 0)
24 'discp' '' 'discp' 19 ((VARIABLE OUT UNKNOWN-PROC UNKNOWN UNKNOWN 0 0
DUMMY) (REAL 8 0 0 REAL ()) 0 0 () () 0 () () () 0 0)
23 'len' '' 'len' 19 ((VARIABLE OUT UNKNOWN-PROC UNKNOWN UNKNOWN 0 0
DUMMY) (REAL 8 0 0 REAL ()) 0 0 () () 0 () () () 0 0)
26 'tout' '' 'tout' 19 ((VARIABLE OUT UNKNOWN-PROC UNKNOWN UNKNOWN 0 0
DUMMY) (REAL 8 0 0 REAL ()) 0 0 () () 0 () () () 0 0)
27 'cfl' '' 'cfl' 19 ((VARIABLE OUT UNKNOWN-PROC UNKNOWN UNKNOWN 0 0
DUMMY) (REAL 8 0 0 REAL ()) 0 0 () () 0 () () () 0 0)
25 'm' '' 'm' 19 ((VARIABLE OUT UNKNOWN-PROC UNKNOWN UNKNOWN 0 0 DUMMY)
(INTEGER 4 0 0 INTEGER ()) 0 0 () () 0 () () () 0 0)
21 'iwr' '' 'iwr' 19 ((VARIABLE OUT UNKNOWN-PROC UNKNOWN UNKNOWN 0 0
DIMENSION DUMMY) (REAL 8 0 0 REAL ()) 0 0 () (1 0 EXPLICIT (CONSTANT (
INTEGER 4 0 0 INTEGER ()) 0 '1') (CONSTANT (INTEGER 4 0 0 INTEGER ()) 0
'3')) 0 () () () 0 0)
20 'iwl' '' 'iwl' 19 ((VARIABLE OUT UNKNOWN-PROC UNKNOWN UNKNOWN 0 0
DIMENSION DUMMY) (REAL 8 0 0 REAL ()) 0 0 () (1 0 EXPLICIT (CONSTANT (
INTEGER 4 0 0 INTEGER ()) 0 '1') (CONSTANT (INTEGER 4 0 0 INTEGER ()) 0
'3')) 0 () () () 0 0)
29 'maxiter' '' 'maxiter' 19 ((VARIABLE OUT UNKNOWN-PROC UNKNOWN UNKNOWN
0 0 DUMMY) (INTEGER 4 0 0 INTEGER ()) 0 0 () () 0 () () () 0 0)
28 'dx' '' 'dx' 19 ((VARIABLE OUT UNKNOWN-PROC UNKNOWN UNKNOWN 0 0 DUMMY)
(REAL 8 0 0 REAL ()) 0 0 () () 0 () () () 0 0)
30 'imax' '' 'imax' 19 ((VARIABLE OUT UNKNOWN-PROC UNKNOWN UNKNOWN 0 0
DUMMY) (INTEGER 4 0 0 INTEGER ()) 0 0 () () 0 () () () 0 0)
42 'r' '' 'r' 41 ((VARIABLE UNKNOWN-INTENT UNKNOWN-PROC UNKNOWN UNKNOWN
0 0 DIMENSION DUMMY) (REAL 8 0 0 REAL ()) 0 0 () (1 0 EXPLICIT (
CONSTANT (INTEGER 4 0 0 INTEGER ()) 0 '1') (CONSTANT (INTEGER 4 0 0
INTEGER ()) 0 '3')) 0 () () () 0 0)
43 'omega' '' 'omega' 41 ((VARIABLE IN UNKNOWN-PROC UNKNOWN UNKNOWN 0 0
DUMMY) (REAL 8 0 0 REAL ()) 0 0 () () 0 () () () 0 0)
44 'deli' '' 'deli' 41 ((VARIABLE INOUT UNKNOWN-PROC UNKNOWN UNKNOWN 0 0
DIMENSION DUMMY) (REAL 8 0 0 REAL ()) 0 0 () (1 0 EXPLICIT (CONSTANT (
INTEGER 4 0 0 INTEGER ()) 0 '1') (CONSTANT (INTEGER 4 0 0 INTEGER ()) 0
'3')) 0 () () () 0 0)
)

('cfl' 0 2 'computenumericalflux' 0 3 'discp' 0 9 'dp' 0 10 'dx' 0 11
'file_name' 0 12 'flux' 0 13 'gamma' 0 14 'i' 0 15 'imax' 0 16 'inputmod'
0 17 'inputs' 0 18 'iwl' 0 31 'iwr' 0 32 'j' 0 33 'len' 0 34 'm' 0 35
'maxiter' 0 36 'selected_real_kind' 0 37 't' 0 38 'tout' 0 39 'vanleer'
0 40)
