GFORTRAN module version '6' created from HLLC.f95 on Sun Jul 14 15:47:44 2013
MD5:01e3240c07fd1de48289ebbeeec80848 -- If you edit this, you'll get what you deserve.

(() () () () () () () () () () () () () () () () () () () () () () ()
() () () ())

()

()

()

()

()

(2 'al' 'hllc' 'al' 1 ((VARIABLE UNKNOWN-INTENT UNKNOWN-PROC UNKNOWN
IMPLICIT-SAVE 0 0) (REAL 8 0 0 REAL ()) 0 0 () () 0 () () () 0 0)
3 'ar' 'hllc' 'ar' 1 ((VARIABLE UNKNOWN-INTENT UNKNOWN-PROC UNKNOWN
IMPLICIT-SAVE 0 0) (REAL 8 0 0 REAL ()) 0 0 () () 0 () () () 0 0)
4 'cfl' 'inputmod' 'cfl' 1 ((VARIABLE UNKNOWN-INTENT UNKNOWN-PROC
UNKNOWN IMPLICIT-SAVE 0 0) (REAL 8 0 0 REAL ()) 0 0 () () 0 () () () 0 0)
5 'computehllcflux' 'hllc' 'computehllcflux' 1 ((PROCEDURE
UNKNOWN-INTENT MODULE-PROC DECL UNKNOWN 0 0 SUBROUTINE) (UNKNOWN 0 0 0
UNKNOWN ()) 6 0 (7 8 9) () 0 () () () 0 0)
10 'computenumericalflux' 'hllc' 'computenumericalflux' 1 ((PROCEDURE
UNKNOWN-INTENT MODULE-PROC DECL UNKNOWN 0 0 SUBROUTINE IMPLICIT_PURE) (
UNKNOWN 0 0 0 UNKNOWN ()) 11 0 (12 13 14 15) () 0 () () () 0 0)
16 'computeu' 'hllc' 'computeu' 1 ((PROCEDURE UNKNOWN-INTENT MODULE-PROC
DECL UNKNOWN 0 0 SUBROUTINE IMPLICIT_PURE) (UNKNOWN 0 0 0 UNKNOWN ()) 17
0 (18 19 20 21) () 0 () () () 0 0)
22 'computeustar' 'hllc' 'computeustar' 1 ((PROCEDURE UNKNOWN-INTENT
MODULE-PROC DECL UNKNOWN 0 0 SUBROUTINE IMPLICIT_PURE) (UNKNOWN 0 0 0
UNKNOWN ()) 23 0 (24 25 26 27 28 29) () 0 () () () 0 0)
30 'discp' 'inputmod' 'discp' 1 ((VARIABLE UNKNOWN-INTENT UNKNOWN-PROC
UNKNOWN IMPLICIT-SAVE 0 0) (REAL 8 0 0 REAL ()) 0 0 () () 0 () () () 0 0)
31 'dp' 'inputmod' 'dp' 1 ((PARAMETER UNKNOWN-INTENT UNKNOWN-PROC
UNKNOWN IMPLICIT-SAVE 0 0) (INTEGER 4 0 0 INTEGER ()) 0 0 () (CONSTANT (
INTEGER 4 0 0 INTEGER ()) 0 '8') () 0 () () () 0 0)
32 'dx' 'inputmod' 'dx' 1 ((VARIABLE UNKNOWN-INTENT UNKNOWN-PROC UNKNOWN
IMPLICIT-SAVE 0 0) (REAL 8 0 0 REAL ()) 0 0 () () 0 () () () 0 0)
33 'estimatewavespeeds' 'hllc' 'estimatewavespeeds' 1 ((PROCEDURE
UNKNOWN-INTENT MODULE-PROC DECL UNKNOWN 0 0 SUBROUTINE IMPLICIT_PURE) (
UNKNOWN 0 0 0 UNKNOWN ()) 34 0 (35 36 37) () 0 () () () 0 0)
38 'file_name' 'inputmod' 'file_name' 1 ((VARIABLE UNKNOWN-INTENT
UNKNOWN-PROC UNKNOWN IMPLICIT-SAVE 0 0) (CHARACTER 1 0 0 CHARACTER ((
CONSTANT (INTEGER 4 0 0 INTEGER ()) 0 '100'))) 0 0 () () 0 () () () 0 0)
39 'gamma' 'inputmod' 'gamma' 1 ((VARIABLE UNKNOWN-INTENT UNKNOWN-PROC
UNKNOWN IMPLICIT-SAVE 0 0) (REAL 8 0 0 REAL ()) 0 0 () () 0 () () () 0 0)
40 'hllc' 'hllc' 'hllc' 1 ((MODULE UNKNOWN-INTENT UNKNOWN-PROC UNKNOWN
UNKNOWN 0 0) (UNKNOWN 0 0 0 UNKNOWN ()) 0 0 () () 0 () () () 0 0)
41 'i' 'inputmod' 'i' 1 ((VARIABLE UNKNOWN-INTENT UNKNOWN-PROC UNKNOWN
IMPLICIT-SAVE 0 0) (INTEGER 4 0 0 INTEGER ()) 0 0 () () 0 () () () 0 0)
42 'imax' 'inputmod' 'imax' 1 ((VARIABLE UNKNOWN-INTENT UNKNOWN-PROC
UNKNOWN IMPLICIT-SAVE 0 0) (INTEGER 4 0 0 INTEGER ()) 0 0 () () 0 () ()
() 0 0)
43 'inputmod' 'inputmod' 'inputmod' 1 ((MODULE UNKNOWN-INTENT
UNKNOWN-PROC UNKNOWN UNKNOWN 0 0) (UNKNOWN 0 0 0 UNKNOWN ()) 0 0 () () 0
() () () 0 0)
44 'inputs' 'inputmod' 'inputs' 1 ((PROCEDURE UNKNOWN-INTENT MODULE-PROC
DECL UNKNOWN 0 0 SUBROUTINE) (UNKNOWN 0 0 0 UNKNOWN ()) 45 0 (46 47 48
49 50 51 52 53 54 55 56) () 0 () () () 0 0)
57 'iwl' 'inputmod' 'iwl' 1 ((VARIABLE UNKNOWN-INTENT UNKNOWN-PROC
UNKNOWN IMPLICIT-SAVE 0 0 DIMENSION) (REAL 8 0 0 REAL ()) 0 0 () (1 0
EXPLICIT (CONSTANT (INTEGER 4 0 0 INTEGER ()) 0 '1') (CONSTANT (INTEGER
4 0 0 INTEGER ()) 0 '3')) 0 () () () 0 0)
58 'iwr' 'inputmod' 'iwr' 1 ((VARIABLE UNKNOWN-INTENT UNKNOWN-PROC
UNKNOWN IMPLICIT-SAVE 0 0 DIMENSION) (REAL 8 0 0 REAL ()) 0 0 () (1 0
EXPLICIT (CONSTANT (INTEGER 4 0 0 INTEGER ()) 0 '1') (CONSTANT (INTEGER
4 0 0 INTEGER ()) 0 '3')) 0 () () () 0 0)
59 'j' 'inputmod' 'j' 1 ((VARIABLE UNKNOWN-INTENT UNKNOWN-PROC UNKNOWN
IMPLICIT-SAVE 0 0) (INTEGER 4 0 0 INTEGER ()) 0 0 () () 0 () () () 0 0)
60 'len' 'inputmod' 'len' 1 ((VARIABLE UNKNOWN-INTENT UNKNOWN-PROC
UNKNOWN IMPLICIT-SAVE 0 0) (REAL 8 0 0 REAL ()) 0 0 () () 0 () () () 0 0)
61 'm' 'inputmod' 'm' 1 ((VARIABLE UNKNOWN-INTENT UNKNOWN-PROC UNKNOWN
IMPLICIT-SAVE 0 0) (INTEGER 4 0 0 INTEGER ()) 0 0 () () 0 () () () 0 0)
62 'maxiter' 'inputmod' 'maxiter' 1 ((VARIABLE UNKNOWN-INTENT
UNKNOWN-PROC UNKNOWN IMPLICIT-SAVE 0 0) (INTEGER 4 0 0 INTEGER ()) 0 0 ()
() 0 () () () 0 0)
63 'pl' 'hllc' 'pl' 1 ((VARIABLE UNKNOWN-INTENT UNKNOWN-PROC UNKNOWN
IMPLICIT-SAVE 0 0) (REAL 8 0 0 REAL ()) 0 0 () () 0 () () () 0 0)
64 'pr' 'hllc' 'pr' 1 ((VARIABLE UNKNOWN-INTENT UNKNOWN-PROC UNKNOWN
IMPLICIT-SAVE 0 0) (REAL 8 0 0 REAL ()) 0 0 () () 0 () () () 0 0)
65 'rhol' 'hllc' 'rhol' 1 ((VARIABLE UNKNOWN-INTENT UNKNOWN-PROC UNKNOWN
IMPLICIT-SAVE 0 0) (REAL 8 0 0 REAL ()) 0 0 () () 0 () () () 0 0)
66 'rhor' 'hllc' 'rhor' 1 ((VARIABLE UNKNOWN-INTENT UNKNOWN-PROC UNKNOWN
IMPLICIT-SAVE 0 0) (REAL 8 0 0 REAL ()) 0 0 () () 0 () () () 0 0)
67 'selected_real_kind' '(intrinsic)' 'selected_real_kind' 1 ((
PROCEDURE UNKNOWN-INTENT UNKNOWN-PROC UNKNOWN UNKNOWN 0 0 FUNCTION) (
UNKNOWN 0 0 0 UNKNOWN ()) 0 0 () () 67 () () () 0 0)
68 't' 'inputmod' 't' 1 ((VARIABLE UNKNOWN-INTENT UNKNOWN-PROC UNKNOWN
IMPLICIT-SAVE 0 0) (REAL 8 0 0 REAL ()) 0 0 () () 0 () () () 0 0)
69 'tout' 'inputmod' 'tout' 1 ((VARIABLE UNKNOWN-INTENT UNKNOWN-PROC
UNKNOWN IMPLICIT-SAVE 0 0) (REAL 8 0 0 REAL ()) 0 0 () () 0 () () () 0 0)
70 'vell' 'hllc' 'vell' 1 ((VARIABLE UNKNOWN-INTENT UNKNOWN-PROC UNKNOWN
IMPLICIT-SAVE 0 0) (REAL 8 0 0 REAL ()) 0 0 () () 0 () () () 0 0)
71 'velr' 'hllc' 'velr' 1 ((VARIABLE UNKNOWN-INTENT UNKNOWN-PROC UNKNOWN
IMPLICIT-SAVE 0 0) (REAL 8 0 0 REAL ()) 0 0 () () 0 () () () 0 0)
7 'wl' '' 'wl' 6 ((VARIABLE IN UNKNOWN-PROC UNKNOWN UNKNOWN 0 0
DIMENSION DUMMY) (REAL 8 0 0 REAL ()) 0 0 () (1 0 EXPLICIT (CONSTANT (
INTEGER 4 0 0 INTEGER ()) 0 '1') (CONSTANT (INTEGER 4 0 0 INTEGER ()) 0
'3')) 0 () () () 0 0)
8 'wr' '' 'wr' 6 ((VARIABLE IN UNKNOWN-PROC UNKNOWN UNKNOWN 0 0
DIMENSION DUMMY) (REAL 8 0 0 REAL ()) 0 0 () (1 0 EXPLICIT (CONSTANT (
INTEGER 4 0 0 INTEGER ()) 0 '1') (CONSTANT (INTEGER 4 0 0 INTEGER ()) 0
'3')) 0 () () () 0 0)
9 'flux' '' 'flux' 6 ((VARIABLE OUT UNKNOWN-PROC UNKNOWN UNKNOWN 0 0
DIMENSION DUMMY) (REAL 8 0 0 REAL ()) 0 0 () (1 0 EXPLICIT (CONSTANT (
INTEGER 4 0 0 INTEGER ()) 0 '1') (CONSTANT (INTEGER 4 0 0 INTEGER ()) 0
'3')) 0 () () () 0 0)
48 'gamma' '' 'gamma' 45 ((VARIABLE OUT UNKNOWN-PROC UNKNOWN UNKNOWN 0 0
DUMMY) (REAL 8 0 0 REAL ()) 0 0 () () 0 () () () 0 0)
50 'discp' '' 'discp' 45 ((VARIABLE OUT UNKNOWN-PROC UNKNOWN UNKNOWN 0 0
DUMMY) (REAL 8 0 0 REAL ()) 0 0 () () 0 () () () 0 0)
49 'len' '' 'len' 45 ((VARIABLE OUT UNKNOWN-PROC UNKNOWN UNKNOWN 0 0
DUMMY) (REAL 8 0 0 REAL ()) 0 0 () () 0 () () () 0 0)
52 'tout' '' 'tout' 45 ((VARIABLE OUT UNKNOWN-PROC UNKNOWN UNKNOWN 0 0
DUMMY) (REAL 8 0 0 REAL ()) 0 0 () () 0 () () () 0 0)
53 'cfl' '' 'cfl' 45 ((VARIABLE OUT UNKNOWN-PROC UNKNOWN UNKNOWN 0 0
DUMMY) (REAL 8 0 0 REAL ()) 0 0 () () 0 () () () 0 0)
51 'm' '' 'm' 45 ((VARIABLE OUT UNKNOWN-PROC UNKNOWN UNKNOWN 0 0 DUMMY)
(INTEGER 4 0 0 INTEGER ()) 0 0 () () 0 () () () 0 0)
47 'iwr' '' 'iwr' 45 ((VARIABLE OUT UNKNOWN-PROC UNKNOWN UNKNOWN 0 0
DIMENSION DUMMY) (REAL 8 0 0 REAL ()) 0 0 () (1 0 EXPLICIT (CONSTANT (
INTEGER 4 0 0 INTEGER ()) 0 '1') (CONSTANT (INTEGER 4 0 0 INTEGER ()) 0
'3')) 0 () () () 0 0)
46 'iwl' '' 'iwl' 45 ((VARIABLE OUT UNKNOWN-PROC UNKNOWN UNKNOWN 0 0
DIMENSION DUMMY) (REAL 8 0 0 REAL ()) 0 0 () (1 0 EXPLICIT (CONSTANT (
INTEGER 4 0 0 INTEGER ()) 0 '1') (CONSTANT (INTEGER 4 0 0 INTEGER ()) 0
'3')) 0 () () () 0 0)
55 'maxiter' '' 'maxiter' 45 ((VARIABLE OUT UNKNOWN-PROC UNKNOWN UNKNOWN
0 0 DUMMY) (INTEGER 4 0 0 INTEGER ()) 0 0 () () 0 () () () 0 0)
54 'dx' '' 'dx' 45 ((VARIABLE OUT UNKNOWN-PROC UNKNOWN UNKNOWN 0 0 DUMMY)
(REAL 8 0 0 REAL ()) 0 0 () () 0 () () () 0 0)
56 'imax' '' 'imax' 45 ((VARIABLE OUT UNKNOWN-PROC UNKNOWN UNKNOWN 0 0
DUMMY) (INTEGER 4 0 0 INTEGER ()) 0 0 () () 0 () () () 0 0)
25 'sk' '' 'sk' 23 ((VARIABLE IN UNKNOWN-PROC UNKNOWN UNKNOWN 0 0 DUMMY)
(REAL 8 0 0 REAL ()) 0 0 () () 0 () () () 0 0)
19 'vel' '' 'vel' 17 ((VARIABLE IN UNKNOWN-PROC UNKNOWN UNKNOWN 0 0
DUMMY) (REAL 8 0 0 REAL ()) 0 0 () () 0 () () () 0 0)
35 'sl' '' 'sl' 34 ((VARIABLE OUT UNKNOWN-PROC UNKNOWN UNKNOWN 0 0 DUMMY)
(REAL 8 0 0 REAL ()) 0 0 () () 0 () () () 0 0)
36 'sstar' '' 'sstar' 34 ((VARIABLE OUT UNKNOWN-PROC UNKNOWN UNKNOWN 0 0
DUMMY) (REAL 8 0 0 REAL ()) 0 0 () () 0 () () () 0 0)
37 'sr' '' 'sr' 34 ((VARIABLE OUT UNKNOWN-PROC UNKNOWN UNKNOWN 0 0 DUMMY)
(REAL 8 0 0 REAL ()) 0 0 () () 0 () () () 0 0)
14 'p' '' 'p' 11 ((VARIABLE IN UNKNOWN-PROC UNKNOWN UNKNOWN 0 0 DUMMY) (
REAL 8 0 0 REAL ()) 0 0 () () 0 () () () 0 0)
13 'vel' '' 'vel' 11 ((VARIABLE IN UNKNOWN-PROC UNKNOWN UNKNOWN 0 0
DUMMY) (REAL 8 0 0 REAL ()) 0 0 () () 0 () () () 0 0)
12 'rho' '' 'rho' 11 ((VARIABLE IN UNKNOWN-PROC UNKNOWN UNKNOWN 0 0
DUMMY) (REAL 8 0 0 REAL ()) 0 0 () () 0 () () () 0 0)
15 'numericalflux' '' 'numericalflux' 11 ((VARIABLE OUT UNKNOWN-PROC
UNKNOWN UNKNOWN 0 0 DIMENSION DUMMY) (REAL 8 0 0 REAL ()) 0 0 () (1 0
EXPLICIT (CONSTANT (INTEGER 4 0 0 INTEGER ()) 0 '1') (CONSTANT (INTEGER
4 0 0 INTEGER ()) 0 '3')) 0 () () () 0 0)
24 'sstar' '' 'sstar' 23 ((VARIABLE IN UNKNOWN-PROC UNKNOWN UNKNOWN 0 0
DUMMY) (REAL 8 0 0 REAL ()) 0 0 () () 0 () () () 0 0)
26 'rho' '' 'rho' 23 ((VARIABLE IN UNKNOWN-PROC UNKNOWN UNKNOWN 0 0
DUMMY) (REAL 8 0 0 REAL ()) 0 0 () () 0 () () () 0 0)
27 'vel' '' 'vel' 23 ((VARIABLE IN UNKNOWN-PROC UNKNOWN UNKNOWN 0 0
DUMMY) (REAL 8 0 0 REAL ()) 0 0 () () 0 () () () 0 0)
28 'p' '' 'p' 23 ((VARIABLE IN UNKNOWN-PROC UNKNOWN UNKNOWN 0 0 DUMMY) (
REAL 8 0 0 REAL ()) 0 0 () () 0 () () () 0 0)
29 'ustar' '' 'ustar' 23 ((VARIABLE OUT UNKNOWN-PROC UNKNOWN UNKNOWN 0 0
DIMENSION DUMMY) (REAL 8 0 0 REAL ()) 0 0 () (1 0 EXPLICIT (CONSTANT (
INTEGER 4 0 0 INTEGER ()) 0 '1') (CONSTANT (INTEGER 4 0 0 INTEGER ()) 0
'3')) 0 () () () 0 0)
18 'rho' '' 'rho' 17 ((VARIABLE IN UNKNOWN-PROC UNKNOWN UNKNOWN 0 0
DUMMY) (REAL 8 0 0 REAL ()) 0 0 () () 0 () () () 0 0)
20 'p' '' 'p' 17 ((VARIABLE IN UNKNOWN-PROC UNKNOWN UNKNOWN 0 0 DUMMY) (
REAL 8 0 0 REAL ()) 0 0 () () 0 () () () 0 0)
21 'u' '' 'u' 17 ((VARIABLE OUT UNKNOWN-PROC UNKNOWN UNKNOWN 0 0
DIMENSION DUMMY) (REAL 8 0 0 REAL ()) 0 0 () (1 0 EXPLICIT (CONSTANT (
INTEGER 4 0 0 INTEGER ()) 0 '1') (CONSTANT (INTEGER 4 0 0 INTEGER ()) 0
'3')) 0 () () () 0 0)
)

('al' 0 2 'ar' 0 3 'cfl' 0 4 'computehllcflux' 0 5 'computenumericalflux'
0 10 'computeu' 0 16 'computeustar' 0 22 'discp' 0 30 'dp' 0 31 'dx' 0
32 'estimatewavespeeds' 0 33 'file_name' 0 38 'gamma' 0 39 'hllc' 0 40 'i'
0 41 'imax' 0 42 'inputmod' 0 43 'inputs' 0 44 'iwl' 0 57 'iwr' 0 58 'j'
0 59 'len' 0 60 'm' 0 61 'maxiter' 0 62 'pl' 0 63 'pr' 0 64 'rhol' 0 65
'rhor' 0 66 'selected_real_kind' 0 67 't' 0 68 'tout' 0 69 'vell' 0 70
'velr' 0 71)
