GFORTRAN module version '6' created from MUSCLHLLC.f95 on Sat Jul 13 20:54:25 2013
MD5:6f964876ec9db66128353640d0ea2f25 -- If you edit this, you'll get what you deserve.

(() () () () () () () () () () () () () () () () () () () () () () ()
() () () ())

()

()

()

()

()

(2 'computenumericalflux' 'musclhllc' 'computenumericalflux' 1 ((
PROCEDURE UNKNOWN-INTENT MODULE-PROC DECL UNKNOWN 0 0 SUBROUTINE
IMPLICIT_PURE) (UNKNOWN 0 0 0 UNKNOWN ()) 3 0 (4 5 6 7) () 0 () () () 0
0)
8 'musclhllc' 'musclhllc' 'musclhllc' 1 ((MODULE UNKNOWN-INTENT
UNKNOWN-PROC UNKNOWN UNKNOWN 0 0) (UNKNOWN 0 0 0 UNKNOWN ()) 0 0 () () 0
() () () 0 0)
9 'musclhllcflux' 'musclhllc' 'musclhllcflux' 1 ((PROCEDURE
UNKNOWN-INTENT MODULE-PROC DECL UNKNOWN 0 0 SUBROUTINE) (UNKNOWN 0 0 0
UNKNOWN ()) 10 0 (11 12 13) () 0 () () () 0 0)
14 'vanleer' 'musclhllc' 'vanleer' 1 ((PROCEDURE UNKNOWN-INTENT
MODULE-PROC DECL UNKNOWN 0 0 SUBROUTINE) (UNKNOWN 0 0 0 UNKNOWN ()) 15 0
(16 17 18) () 0 () () () 0 0)
11 'u' '' 'u' 10 ((VARIABLE IN UNKNOWN-PROC UNKNOWN UNKNOWN 0 0
DIMENSION DUMMY) (REAL 8 0 0 REAL ()) 0 0 () (2 0 EXPLICIT (CONSTANT (
INTEGER 4 0 0 INTEGER ()) 0 '1') (VARIABLE (INTEGER 4 0 0 INTEGER ()) 0
19 ()) (CONSTANT (INTEGER 4 0 0 INTEGER ()) 0 '1') (CONSTANT (INTEGER 4
0 0 INTEGER ()) 0 '3')) 0 () () () 0 0)
12 'flux' '' 'flux' 10 ((VARIABLE OUT UNKNOWN-PROC UNKNOWN UNKNOWN 0 0
DIMENSION DUMMY) (REAL 8 0 0 REAL ()) 0 0 () (2 0 EXPLICIT (CONSTANT (
INTEGER 4 0 0 INTEGER ()) 0 '1') (VARIABLE (INTEGER 4 0 0 INTEGER ()) 0
19 ()) (CONSTANT (INTEGER 4 0 0 INTEGER ()) 0 '1') (CONSTANT (INTEGER 4
0 0 INTEGER ()) 0 '3')) 0 () () () 0 0)
13 'dt' '' 'dt' 10 ((VARIABLE IN UNKNOWN-PROC UNKNOWN UNKNOWN 0 0 DUMMY)
(REAL 8 0 0 REAL ()) 0 0 () () 0 () () () 0 0)
19 'imax' 'inputmod' 'imax' 10 ((VARIABLE UNKNOWN-INTENT UNKNOWN-PROC
UNKNOWN IMPLICIT-SAVE 0 0) (INTEGER 4 0 0 INTEGER ()) 0 0 () () 0 () ()
() 0 0)
4 'rho' '' 'rho' 3 ((VARIABLE IN UNKNOWN-PROC UNKNOWN UNKNOWN 0 0 DUMMY)
(REAL 8 0 0 REAL ()) 0 0 () () 0 () () () 0 0)
5 'vel' '' 'vel' 3 ((VARIABLE IN UNKNOWN-PROC UNKNOWN UNKNOWN 0 0 DUMMY)
(REAL 8 0 0 REAL ()) 0 0 () () 0 () () () 0 0)
6 'p' '' 'p' 3 ((VARIABLE IN UNKNOWN-PROC UNKNOWN UNKNOWN 0 0 DUMMY) (
REAL 8 0 0 REAL ()) 0 0 () () 0 () () () 0 0)
7 'numericalflux' '' 'numericalflux' 3 ((VARIABLE OUT UNKNOWN-PROC
UNKNOWN UNKNOWN 0 0 DIMENSION DUMMY) (REAL 8 0 0 REAL ()) 0 0 () (1 0
EXPLICIT (CONSTANT (INTEGER 4 0 0 INTEGER ()) 0 '1') (CONSTANT (INTEGER
4 0 0 INTEGER ()) 0 '3')) 0 () () () 0 0)
16 'r' '' 'r' 15 ((VARIABLE UNKNOWN-INTENT UNKNOWN-PROC UNKNOWN UNKNOWN
0 0 DIMENSION DUMMY) (REAL 8 0 0 REAL ()) 0 0 () (1 0 EXPLICIT (
CONSTANT (INTEGER 4 0 0 INTEGER ()) 0 '1') (CONSTANT (INTEGER 4 0 0
INTEGER ()) 0 '3')) 0 () () () 0 0)
17 'omega' '' 'omega' 15 ((VARIABLE IN UNKNOWN-PROC UNKNOWN UNKNOWN 0 0
DUMMY) (REAL 8 0 0 REAL ()) 0 0 () () 0 () () () 0 0)
18 'deli' '' 'deli' 15 ((VARIABLE INOUT UNKNOWN-PROC UNKNOWN UNKNOWN 0 0
DIMENSION DUMMY) (REAL 8 0 0 REAL ()) 0 0 () (1 0 EXPLICIT (CONSTANT (
INTEGER 4 0 0 INTEGER ()) 0 '1') (CONSTANT (INTEGER 4 0 0 INTEGER ()) 0
'3')) 0 () () () 0 0)
)

('computenumericalflux' 0 2 'musclhllc' 0 8 'musclhllcflux' 0 9 'vanleer'
0 14)
