GFORTRAN module version '6' created from HLLC.f95 on Mon Jul  1 20:25:23 2013
MD5:ec25405838e2b26c5eaa93e0ba1d2439 -- If you edit this, you'll get what you deserve.

(() () () () () () () () () () () () () () () () () () () () () () ()
() () () ())

()

()

()

()

()

(2 'al' 'hllc' 'al' 1 ((VARIABLE UNKNOWN-INTENT UNKNOWN-PROC UNKNOWN
IMPLICIT-SAVE 0 0) (REAL 4 0 0 REAL ()) 0 0 () () 0 () () () 0 0)
3 'ar' 'hllc' 'ar' 1 ((VARIABLE UNKNOWN-INTENT UNKNOWN-PROC UNKNOWN
IMPLICIT-SAVE 0 0) (REAL 4 0 0 REAL ()) 0 0 () () 0 () () () 0 0)
4 'computehllcflux' 'hllc' 'computehllcflux' 1 ((PROCEDURE
UNKNOWN-INTENT MODULE-PROC DECL UNKNOWN 0 0 SUBROUTINE) (UNKNOWN 0 0 0
UNKNOWN ()) 5 0 (6 7 8) () 0 () () () 0 0)
9 'computenumericalflux' 'hllc' 'computenumericalflux' 1 ((PROCEDURE
UNKNOWN-INTENT MODULE-PROC DECL UNKNOWN 0 0 SUBROUTINE IMPLICIT_PURE) (
UNKNOWN 0 0 0 UNKNOWN ()) 10 0 (11 12 13 14) () 0 () () () 0 0)
15 'computeu' 'hllc' 'computeu' 1 ((PROCEDURE UNKNOWN-INTENT MODULE-PROC
DECL UNKNOWN 0 0 SUBROUTINE IMPLICIT_PURE) (UNKNOWN 0 0 0 UNKNOWN ()) 16
0 (17 18 19 20) () 0 () () () 0 0)
21 'computeustar' 'hllc' 'computeustar' 1 ((PROCEDURE UNKNOWN-INTENT
MODULE-PROC DECL UNKNOWN 0 0 SUBROUTINE IMPLICIT_PURE) (UNKNOWN 0 0 0
UNKNOWN ()) 22 0 (23 24 25 26 27 28) () 0 () () () 0 0)
29 'estimatewavespeeds' 'hllc' 'estimatewavespeeds' 1 ((PROCEDURE
UNKNOWN-INTENT MODULE-PROC DECL UNKNOWN 0 0 SUBROUTINE IMPLICIT_PURE) (
UNKNOWN 0 0 0 UNKNOWN ()) 30 0 (31 32 33) () 0 () () () 0 0)
34 'hllc' 'hllc' 'hllc' 1 ((MODULE UNKNOWN-INTENT UNKNOWN-PROC UNKNOWN
UNKNOWN 0 0) (UNKNOWN 0 0 0 UNKNOWN ()) 0 0 () () 0 () () () 0 0)
35 'pl' 'hllc' 'pl' 1 ((VARIABLE UNKNOWN-INTENT UNKNOWN-PROC UNKNOWN
IMPLICIT-SAVE 0 0) (REAL 4 0 0 REAL ()) 0 0 () () 0 () () () 0 0)
36 'pr' 'hllc' 'pr' 1 ((VARIABLE UNKNOWN-INTENT UNKNOWN-PROC UNKNOWN
IMPLICIT-SAVE 0 0) (REAL 4 0 0 REAL ()) 0 0 () () 0 () () () 0 0)
37 'rhol' 'hllc' 'rhol' 1 ((VARIABLE UNKNOWN-INTENT UNKNOWN-PROC UNKNOWN
IMPLICIT-SAVE 0 0) (REAL 4 0 0 REAL ()) 0 0 () () 0 () () () 0 0)
38 'rhor' 'hllc' 'rhor' 1 ((VARIABLE UNKNOWN-INTENT UNKNOWN-PROC UNKNOWN
IMPLICIT-SAVE 0 0) (REAL 4 0 0 REAL ()) 0 0 () () 0 () () () 0 0)
39 'vell' 'hllc' 'vell' 1 ((VARIABLE UNKNOWN-INTENT UNKNOWN-PROC UNKNOWN
IMPLICIT-SAVE 0 0) (REAL 4 0 0 REAL ()) 0 0 () () 0 () () () 0 0)
40 'velr' 'hllc' 'velr' 1 ((VARIABLE UNKNOWN-INTENT UNKNOWN-PROC UNKNOWN
IMPLICIT-SAVE 0 0) (REAL 4 0 0 REAL ()) 0 0 () () 0 () () () 0 0)
6 'wl' '' 'wl' 5 ((VARIABLE IN UNKNOWN-PROC UNKNOWN UNKNOWN 0 0
DIMENSION DUMMY) (REAL 4 0 0 REAL ()) 0 0 () (1 0 EXPLICIT (CONSTANT (
INTEGER 4 0 0 INTEGER ()) 0 '1') (CONSTANT (INTEGER 4 0 0 INTEGER ()) 0
'3')) 0 () () () 0 0)
7 'wr' '' 'wr' 5 ((VARIABLE IN UNKNOWN-PROC UNKNOWN UNKNOWN 0 0
DIMENSION DUMMY) (REAL 4 0 0 REAL ()) 0 0 () (1 0 EXPLICIT (CONSTANT (
INTEGER 4 0 0 INTEGER ()) 0 '1') (CONSTANT (INTEGER 4 0 0 INTEGER ()) 0
'3')) 0 () () () 0 0)
8 'flux' '' 'flux' 5 ((VARIABLE OUT UNKNOWN-PROC UNKNOWN UNKNOWN 0 0
DIMENSION DUMMY) (REAL 4 0 0 REAL ()) 0 0 () (1 0 EXPLICIT (CONSTANT (
INTEGER 4 0 0 INTEGER ()) 0 '1') (CONSTANT (INTEGER 4 0 0 INTEGER ()) 0
'3')) 0 () () () 0 0)
31 'sl' '' 'sl' 30 ((VARIABLE OUT UNKNOWN-PROC UNKNOWN UNKNOWN 0 0 DUMMY)
(REAL 4 0 0 REAL ()) 0 0 () () 0 () () () 0 0)
32 'sstar' '' 'sstar' 30 ((VARIABLE OUT UNKNOWN-PROC UNKNOWN UNKNOWN 0 0
DUMMY) (REAL 4 0 0 REAL ()) 0 0 () () 0 () () () 0 0)
33 'sr' '' 'sr' 30 ((VARIABLE OUT UNKNOWN-PROC UNKNOWN UNKNOWN 0 0 DUMMY)
(REAL 4 0 0 REAL ()) 0 0 () () 0 () () () 0 0)
11 'rho' '' 'rho' 10 ((VARIABLE IN UNKNOWN-PROC UNKNOWN UNKNOWN 0 0
DUMMY) (REAL 4 0 0 REAL ()) 0 0 () () 0 () () () 0 0)
12 'vel' '' 'vel' 10 ((VARIABLE IN UNKNOWN-PROC UNKNOWN UNKNOWN 0 0
DUMMY) (REAL 4 0 0 REAL ()) 0 0 () () 0 () () () 0 0)
13 'p' '' 'p' 10 ((VARIABLE IN UNKNOWN-PROC UNKNOWN UNKNOWN 0 0 DUMMY) (
REAL 4 0 0 REAL ()) 0 0 () () 0 () () () 0 0)
14 'numericalflux' '' 'numericalflux' 10 ((VARIABLE OUT UNKNOWN-PROC
UNKNOWN UNKNOWN 0 0 DIMENSION DUMMY) (REAL 4 0 0 REAL ()) 0 0 () (1 0
EXPLICIT (CONSTANT (INTEGER 4 0 0 INTEGER ()) 0 '1') (CONSTANT (INTEGER
4 0 0 INTEGER ()) 0 '3')) 0 () () () 0 0)
23 'sstar' '' 'sstar' 22 ((VARIABLE IN UNKNOWN-PROC UNKNOWN UNKNOWN 0 0
DUMMY) (REAL 4 0 0 REAL ()) 0 0 () () 0 () () () 0 0)
24 'sk' '' 'sk' 22 ((VARIABLE IN UNKNOWN-PROC UNKNOWN UNKNOWN 0 0 DUMMY)
(REAL 4 0 0 REAL ()) 0 0 () () 0 () () () 0 0)
25 'rho' '' 'rho' 22 ((VARIABLE IN UNKNOWN-PROC UNKNOWN UNKNOWN 0 0
DUMMY) (REAL 4 0 0 REAL ()) 0 0 () () 0 () () () 0 0)
26 'vel' '' 'vel' 22 ((VARIABLE IN UNKNOWN-PROC UNKNOWN UNKNOWN 0 0
DUMMY) (REAL 4 0 0 REAL ()) 0 0 () () 0 () () () 0 0)
27 'p' '' 'p' 22 ((VARIABLE IN UNKNOWN-PROC UNKNOWN UNKNOWN 0 0 DUMMY) (
REAL 4 0 0 REAL ()) 0 0 () () 0 () () () 0 0)
28 'ustar' '' 'ustar' 22 ((VARIABLE OUT UNKNOWN-PROC UNKNOWN UNKNOWN 0 0
DIMENSION DUMMY) (REAL 4 0 0 REAL ()) 0 0 () (1 0 EXPLICIT (CONSTANT (
INTEGER 4 0 0 INTEGER ()) 0 '1') (CONSTANT (INTEGER 4 0 0 INTEGER ()) 0
'3')) 0 () () () 0 0)
17 'rho' '' 'rho' 16 ((VARIABLE IN UNKNOWN-PROC UNKNOWN UNKNOWN 0 0
DUMMY) (REAL 4 0 0 REAL ()) 0 0 () () 0 () () () 0 0)
18 'vel' '' 'vel' 16 ((VARIABLE IN UNKNOWN-PROC UNKNOWN UNKNOWN 0 0
DUMMY) (REAL 4 0 0 REAL ()) 0 0 () () 0 () () () 0 0)
19 'p' '' 'p' 16 ((VARIABLE IN UNKNOWN-PROC UNKNOWN UNKNOWN 0 0 DUMMY) (
REAL 4 0 0 REAL ()) 0 0 () () 0 () () () 0 0)
20 'u' '' 'u' 16 ((VARIABLE OUT UNKNOWN-PROC UNKNOWN UNKNOWN 0 0
DIMENSION DUMMY) (REAL 4 0 0 REAL ()) 0 0 () (1 0 EXPLICIT (CONSTANT (
INTEGER 4 0 0 INTEGER ()) 0 '1') (CONSTANT (INTEGER 4 0 0 INTEGER ()) 0
'3')) 0 () () () 0 0)
)

('al' 0 2 'ar' 0 3 'computehllcflux' 0 4 'computenumericalflux' 0 9
'computeu' 0 15 'computeustar' 0 21 'estimatewavespeeds' 0 29 'hllc' 0
34 'pl' 0 35 'pr' 0 36 'rhol' 0 37 'rhor' 0 38 'vell' 0 39 'velr' 0 40)
