\relax 
\@writefile{lof}{\contentsline {figure}{\numberline {1}{\ignorespaces Staggered Grid Arrangement\relax }}{1}}
\@writefile{lof}{\contentsline {figure}{\numberline {2}{\ignorespaces Cavity Driven Flow, Grid\relax }}{2}}
\newlabel{LastPage}{{}{4}}
