
# Surface 0 of 1 surfaces

# Curve title: ""output_t1.0_A.dat""
# Contour 0, label:      5.7
 0.357227  0.168  5.7 
 0.356  0.1676  5.7 
 0.355951  0.168  5.7 
 0.356  0.16839  5.7 
 0.357227  0.168  5.7 

 0.432  0.0712747  5.7 
 0.430726  0.068  5.7 
 0.428182  0.064  5.7 
 0.428  0.0638018  5.7 
 0.424  0.0634135  5.7 
 0.422955  0.064  5.7 
 0.42  0.0659042  5.7 
 0.416352  0.068  5.7 
 0.416  0.0681702  5.7 
 0.412  0.0686787  5.7 
 0.411232  0.068  5.7 
 0.409477  0.064  5.7 
 0.409333  0.06  5.7 
 0.409638  0.056  5.7 
 0.409945  0.052  5.7 
 0.410274  0.048  5.7 
 0.410632  0.044  5.7 
 0.410968  0.04  5.7 
 0.411244  0.036  5.7 
 0.411542  0.032  5.7 
 0.411803  0.028  5.7 
 0.411612  0.024  5.7 
 0.410735  0.02  5.7 
 0.412  0.0183647  5.7 
 0.416  0.0162034  5.7 
 0.41667  0.016  5.7 
 0.416  0.0159215  5.7 
 0.412  0.0151746  5.7 
 0.408  0.013548  5.7 
 0.404492  0.012  5.7 
 0.408  0.0107678  5.7 
 0.412  0.00954093  5.7 
 0.416  0.0090092  5.7 
 0.42  0.00883357  5.7 
 0.424  0.00870476  5.7 
 0.428  0.00846372  5.7 
 0.431461  0.008  5.7 
 0.428  0.00494531  5.7 
 0.426215  0.004  5.7 
 0.424  0.00382961  5.7 
 0.42  0.00362507  5.7 
 0.416  0.00344755  5.7 
 0.412  0.00299444  5.7 
 0.408  0.00174844  5.7 
 0.404  0.000147613  5.7 
 0.403525  0  5.7 

 0.579468  0  5.7 
 0.576  0.00138275  5.7 
 0.572  0.00255878  5.7 
 0.568  0.00344811  5.7 
 0.564682  0.004  5.7 
 0.564935  0.008  5.7 
 0.568  0.00853403  5.7 
 0.572  0.00947186  5.7 
 0.576  0.0107046  5.7 
 0.57908  0.012  5.7 
 0.579438  0.016  5.7 
 0.579078  0.02  5.7 
 0.578662  0.024  5.7 
 0.578258  0.028  5.7 
 0.577789  0.032  5.7 
 0.577229  0.036  5.7 
 0.576698  0.04  5.7 
 0.57634  0.044  5.7 
 0.576094  0.048  5.7 
 0.576  0.0498735  5.7 
 0.575803  0.052  5.7 
 0.575497  0.056  5.7 
 0.575229  0.06  5.7 
 0.57499  0.064  5.7 
 0.574771  0.068  5.7 
 0.574569  0.072  5.7 
 0.574374  0.076  5.7 
 0.574179  0.08  5.7 
 0.573974  0.084  5.7 
 0.57375  0.088  5.7 
 0.573492  0.092  5.7 
 0.573183  0.096  5.7 
 0.572802  0.1  5.7 
 0.572337  0.104  5.7 
 0.572  0.106463  5.7 
 0.571639  0.108  5.7 
 0.570555  0.112  5.7 
 0.569313  0.116  5.7 
 0.568  0.11973  5.7 
 0.567829  0.12  5.7 
 0.565027  0.124  5.7 
 0.564  0.12533  5.7 
 0.56  0.12786  5.7 
 0.559611  0.128  5.7 
 0.556  0.129192  5.7 
 0.552  0.129935  5.7 
 0.548  0.130297  5.7 
 0.544  0.130484  5.7 
 0.54  0.130453  5.7 
 0.536  0.130314  5.7 
 0.532  0.130353  5.7 
 0.528  0.130644  5.7 
 0.524  0.131129  5.7 
 0.52  0.131794  5.7 
 0.518831  0.132  5.7 
 0.516  0.132471  5.7 
 0.512  0.132789  5.7 
 0.508  0.132855  5.7 
 0.504  0.132688  5.7 
 0.5  0.132294  5.7 
 0.497449  0.132  5.7 
 0.496  0.131822  5.7 
 0.492  0.131121  5.7 
 0.488  0.129153  5.7 
 0.486665  0.128  5.7 
 0.484  0.125554  5.7 
 0.481528  0.124  5.7 
 0.48  0.123045  5.7 
 0.476  0.122039  5.7 
 0.472  0.122076  5.7 
 0.468  0.123061  5.7 
 0.464  0.123098  5.7 
 0.461579  0.12  5.7 
 0.460245  0.116  5.7 
 0.46  0.114985  5.7 
 0.459439  0.112  5.7 
 0.458291  0.108  5.7 
 0.456559  0.104  5.7 
 0.456  0.103065  5.7 
 0.452  0.103086  5.7 
 0.450664  0.104  5.7 
 0.448  0.105426  5.7 
 0.444  0.10793  5.7 
 0.443699  0.108  5.7 
 0.44  0.108699  5.7 
 0.436  0.108589  5.7 
 0.43511  0.108  5.7 
 0.432456  0.104  5.7 
 0.432  0.100526  5.7 
 0.431973  0.1  5.7 
 0.432  0.0988845  5.7 
 0.432096  0.096  5.7 
 0.432335  0.092  5.7 
 0.432542  0.088  5.7 
 0.432637  0.084  5.7 
 0.432598  0.08  5.7 
 0.432464  0.076  5.7 
 0.432116  0.072  5.7 
 0.432  0.0712747  5.7 


# Contour 1, label:      5.2
 0.411781  0.344  5.2 
 0.408  0.342189  5.2 
 0.404  0.342415  5.2 
 0.403878  0.344  5.2 
 0.404  0.34451  5.2 
 0.408  0.346321  5.2 
 0.411781  0.344  5.2 

 0.413398  0.336  5.2 
 0.412  0.334036  5.2 
 0.410633  0.332  5.2 
 0.408  0.329475  5.2 
 0.404  0.329525  5.2 
 0.4  0.33019  5.2 
 0.399921  0.332  5.2 
 0.4  0.332657  5.2 
 0.402763  0.336  5.2 
 0.404  0.337789  5.2 
 0.408  0.337655  5.2 
 0.412  0.336665  5.2 
 0.413398  0.336  5.2 

 0.418035  0.364  5.2 
 0.416  0.362914  5.2 
 0.412  0.362963  5.2 
 0.411929  0.364  5.2 
 0.412  0.364293  5.2 
 0.416  0.365629  5.2 
 0.418035  0.364  5.2 

 0.417132  0.356  5.2 
 0.416  0.355373  5.2 
 0.412  0.354257  5.2 
 0.410996  0.356  5.2 
 0.412  0.357315  5.2 
 0.416  0.356411  5.2 
 0.417132  0.356  5.2 

 0.420949  0.376  5.2 
 0.42  0.375472  5.2 
 0.419801  0.376  5.2 
 0.42  0.376334  5.2 
 0.420949  0.376  5.2 

 0.359703  0.192  5.2 
 0.359466  0.188  5.2 
 0.359995  0.184  5.2 
 0.359679  0.18  5.2 
 0.359044  0.176  5.2 
 0.356  0.172374  5.2 
 0.35594  0.172  5.2 
 0.355438  0.168  5.2 
 0.355887  0.164  5.2 
 0.355661  0.16  5.2 
 0.355554  0.156  5.2 
 0.354963  0.152  5.2 
 0.352457  0.148  5.2 
 0.352  0.147726  5.2 
 0.351582  0.144  5.2 
 0.352  0.140395  5.2 
 0.35351  0.14  5.2 
 0.352  0.139545  5.2 
 0.351493  0.136  5.2 
 0.35179  0.132  5.2 
 0.351472  0.128  5.2 
 0.35115  0.124  5.2 
 0.350459  0.12  5.2 
 0.348  0.116218  5.2 
 0.347977  0.116  5.2 
 0.347619  0.112  5.2 
 0.347586  0.108  5.2 
 0.348  0.104027  5.2 
 0.348074  0.104  5.2 
 0.348  0.10384  5.2 
 0.347893  0.1  5.2 
 0.347434  0.096  5.2 
 0.347603  0.092  5.2 
 0.347359  0.088  5.2 
 0.34718  0.084  5.2 
 0.3468  0.08  5.2 
 0.346275  0.076  5.2 
 0.345234  0.072  5.2 
 0.344  0.0697718  5.2 
 0.343877  0.068  5.2 
 0.343667  0.064  5.2 
 0.343688  0.06  5.2 
 0.343802  0.056  5.2 
 0.34388  0.052  5.2 
 0.343834  0.048  5.2 
 0.343734  0.044  5.2 
 0.34363  0.04  5.2 
 0.34356  0.036  5.2 
 0.34353  0.032  5.2 
 0.343414  0.028  5.2 
 0.34361  0.024  5.2 
 0.343321  0.02  5.2 
 0.34372  0.016  5.2 
 0.34329  0.012  5.2 
 0.343537  0.008  5.2 
 0.343473  0.004  5.2 
 0.343348  0  5.2 

 0.468  0.264848  5.2 
 0.464139  0.268  5.2 
 0.464  0.268118  5.2 
 0.46  0.271054  5.2 
 0.458433  0.272  5.2 
 0.456  0.273614  5.2 
 0.452479  0.276  5.2 
 0.452  0.276355  5.2 
 0.448  0.279948  5.2 
 0.447956  0.28  5.2 
 0.445158  0.284  5.2 
 0.444  0.285907  5.2 
 0.442787  0.288  5.2 
 0.440443  0.292  5.2 
 0.44  0.292724  5.2 
 0.437796  0.296  5.2 
 0.436  0.298598  5.2 
 0.434942  0.3  5.2 
 0.43223  0.304  5.2 
 0.432  0.30439  5.2 
 0.42956  0.308  5.2 
 0.428  0.310171  5.2 
 0.426323  0.312  5.2 
 0.424  0.314692  5.2 
 0.422397  0.316  5.2 
 0.42  0.318398  5.2 
 0.418074  0.32  5.2 
 0.418333  0.324  5.2 
 0.416  0.32538  5.2 
 0.412  0.326666  5.2 
 0.408  0.327291  5.2 
 0.404  0.327029  5.2 
 0.4  0.326865  5.2 
 0.397559  0.324  5.2 
 0.4  0.320333  5.2 
 0.40188  0.32  5.2 
 0.4  0.317232  5.2 
 0.399229  0.316  5.2 
 0.396  0.31545  5.2 
 0.392  0.312073  5.2 
 0.39198  0.312  5.2 
 0.392  0.311388  5.2 
 0.396  0.308131  5.2 
 0.396824  0.308  5.2 
 0.396  0.307393  5.2 
 0.39274  0.304  5.2 
 0.392  0.303844  5.2 
 0.388  0.300217  5.2 
 0.387944  0.3  5.2 
 0.388  0.2986  5.2 
 0.392  0.296103  5.2 
 0.392559  0.296  5.2 
 0.392  0.295567  5.2 
 0.388204  0.292  5.2 
 0.388  0.291965  5.2 
 0.384  0.288072  5.2 
 0.38398  0.288  5.2 
 0.384  0.286952  5.2 
 0.386114  0.284  5.2 
 0.387044  0.28  5.2 
 0.384  0.279108  5.2 
 0.382063  0.276  5.2 
 0.38  0.274466  5.2 
 0.379663  0.272  5.2 
 0.38  0.268537  5.2 
 0.382566  0.268  5.2 
 0.38  0.266865  5.2 
 0.379476  0.264  5.2 
 0.376  0.260673  5.2 
 0.375842  0.26  5.2 
 0.376  0.257087  5.2 
 0.378057  0.256  5.2 
 0.376795  0.252  5.2 
 0.376  0.251678  5.2 
 0.374834  0.248  5.2 
 0.372  0.245758  5.2 
 0.371665  0.244  5.2 
 0.372  0.240576  5.2 
 0.374027  0.24  5.2 
 0.372  0.236709  5.2 
 0.371965  0.236  5.2 
 0.370658  0.232  5.2 
 0.368  0.229657  5.2 
 0.367707  0.228  5.2 
 0.368  0.224478  5.2 
 0.369297  0.224  5.2 
 0.368074  0.22  5.2 
 0.368  0.219961  5.2 
 0.367288  0.216  5.2 
 0.364  0.212846  5.2 
 0.36383  0.212  5.2 
 0.363545  0.208  5.2 
 0.364  0.204156  5.2 
 0.364863  0.204  5.2 
 0.364  0.203419  5.2 
 0.363705  0.2  5.2 
 0.362833  0.196  5.2 
 0.36  0.19373  5.2 
 0.359703  0.192  5.2 

 0.587217  0  5.2 
 0.584  0.00298233  5.2 
 0.582505  0.004  5.2 
 0.58251  0.008  5.2 
 0.584  0.00905886  5.2 
 0.587024  0.012  5.2 
 0.586897  0.016  5.2 
 0.586594  0.02  5.2 
 0.586372  0.024  5.2 
 0.586232  0.028  5.2 
 0.586088  0.032  5.2 
 0.585914  0.036  5.2 
 0.585742  0.04  5.2 
 0.585645  0.044  5.2 
 0.585603  0.048  5.2 
 0.585588  0.052  5.2 
 0.585589  0.056  5.2 
 0.585602  0.06  5.2 
 0.585628  0.064  5.2 
 0.585661  0.068  5.2 
 0.585699  0.072  5.2 
 0.585738  0.076  5.2 
 0.585777  0.08  5.2 
 0.585811  0.084  5.2 
 0.585839  0.088  5.2 
 0.585857  0.092  5.2 
 0.585865  0.096  5.2 
 0.585863  0.1  5.2 
 0.585852  0.104  5.2 
 0.585832  0.108  5.2 
 0.585801  0.112  5.2 
 0.585759  0.116  5.2 
 0.585704  0.12  5.2 
 0.585636  0.124  5.2 
 0.585555  0.128  5.2 
 0.58546  0.132  5.2 
 0.585348  0.136  5.2 
 0.585218  0.14  5.2 
 0.585065  0.144  5.2 
 0.584886  0.148  5.2 
 0.584676  0.152  5.2 
 0.584431  0.156  5.2 
 0.584143  0.16  5.2 
 0.584  0.161686  5.2 
 0.583606  0.164  5.2 
 0.582782  0.168  5.2 
 0.581772  0.172  5.2 
 0.580525  0.176  5.2 
 0.58  0.177368  5.2 
 0.578077  0.18  5.2 
 0.576  0.182432  5.2 
 0.573996  0.184  5.2 
 0.572  0.18547  5.2 
 0.568  0.187992  5.2 
 0.567986  0.188  5.2 
 0.564  0.19023  5.2 
 0.560842  0.192  5.2 
 0.56  0.19248  5.2 
 0.556  0.194731  5.2 
 0.553892  0.196  5.2 
 0.552  0.197203  5.2 
 0.548  0.199918  5.2 
 0.54788  0.2  5.2 
 0.544  0.202804  5.2 
 0.542325  0.204  5.2 
 0.54  0.205742  5.2 
 0.53678  0.208  5.2 
 0.536  0.208555  5.2 
 0.532  0.211152  5.2 
 0.530626  0.212  5.2 
 0.528  0.213713  5.2 
 0.524745  0.216  5.2 
 0.524  0.216576  5.2 
 0.52  0.219889  5.2 
 0.519871  0.22  5.2 
 0.516  0.22334  5.2 
 0.515217  0.224  5.2 
 0.512  0.226553  5.2 
 0.51003  0.228  5.2 
 0.508  0.229429  5.2 
 0.504  0.231943  5.2 
 0.503905  0.232  5.2 
 0.5  0.234697  5.2 
 0.498237  0.236  5.2 
 0.496  0.237932  5.2 
 0.493669  0.24  5.2 
 0.492  0.241687  5.2 
 0.489603  0.244  5.2 
 0.488  0.245781  5.2 
 0.485753  0.248  5.2 
 0.484  0.25001  5.2 
 0.482086  0.252  5.2 
 0.48  0.254111  5.2 
 0.478064  0.256  5.2 
 0.476  0.257923  5.2 
 0.473716  0.26  5.2 
 0.472  0.261496  5.2 
 0.468968  0.264  5.2 
 0.468  0.264848  5.2 


# Contour 2, label:      4.7
 0.521654  0.552  4.7 
 0.52  0.550485  4.7 
 0.516  0.549138  4.7 
 0.515743  0.552  4.7 
 0.516  0.552779  4.7 
 0.519517  0.556  4.7 
 0.52  0.556732  4.7 
 0.522276  0.556  4.7 
 0.521654  0.552  4.7 

 0.347855  0.12  4.7 
 0.347454  0.116  4.7 
 0.347132  0.112  4.7 
 0.347016  0.108  4.7 
 0.347204  0.104  4.7 
 0.346979  0.1  4.7 
 0.346561  0.096  4.7 
 0.34648  0.092  4.7 
 0.346055  0.088  4.7 
 0.345502  0.084  4.7 
 0.34477  0.08  4.7 
 0.344  0.077198  4.7 
 0.343904  0.076  4.7 
 0.343618  0.072  4.7 
 0.343366  0.068  4.7 
 0.343171  0.064  4.7 
 0.343133  0.06  4.7 
 0.34315  0.056  4.7 
 0.343132  0.052  4.7 
 0.34303  0.048  4.7 
 0.342898  0.044  4.7 
 0.342773  0.04  4.7 
 0.342679  0.036  4.7 
 0.342611  0.032  4.7 
 0.342497  0.028  4.7 
 0.342561  0.024  4.7 
 0.342376  0.02  4.7 
 0.342533  0.016  4.7 
 0.342322  0.012  4.7 
 0.342396  0.008  4.7 
 0.342316  0.004  4.7 
 0.342411  0  4.7 

 0.439377  0.424  4.7 
 0.436  0.420009  4.7 
 0.435385  0.416  4.7 
 0.432191  0.412  4.7 
 0.432  0.4117  4.7 
 0.431378  0.408  4.7 
 0.428727  0.404  4.7 
 0.428  0.40309  4.7 
 0.427372  0.4  4.7 
 0.425716  0.396  4.7 
 0.424  0.394371  4.7 
 0.423354  0.392  4.7 
 0.422676  0.388  4.7 
 0.42  0.385353  4.7 
 0.419528  0.384  4.7 
 0.419118  0.38  4.7 
 0.416  0.376512  4.7 
 0.415792  0.376  4.7 
 0.415352  0.372  4.7 
 0.412946  0.368  4.7 
 0.412  0.367186  4.7 
 0.411228  0.364  4.7 
 0.410821  0.36  4.7 
 0.408  0.357013  4.7 
 0.407626  0.356  4.7 
 0.407308  0.352  4.7 
 0.404851  0.348  4.7 
 0.404  0.347305  4.7 
 0.403213  0.344  4.7 
 0.402973  0.34  4.7 
 0.4  0.336769  4.7 
 0.3997  0.336  4.7 
 0.399122  0.332  4.7 
 0.398421  0.328  4.7 
 0.396  0.325497  4.7 
 0.395506  0.324  4.7 
 0.395204  0.32  4.7 
 0.393777  0.316  4.7 
 0.392  0.314306  4.7 
 0.391369  0.312  4.7 
 0.391157  0.308  4.7 
 0.389553  0.304  4.7 
 0.388  0.302544  4.7 
 0.387344  0.3  4.7 
 0.387181  0.296  4.7 
 0.385835  0.292  4.7 
 0.384  0.290202  4.7 
 0.383402  0.288  4.7 
 0.383202  0.284  4.7 
 0.382417  0.28  4.7 
 0.38  0.277302  4.7 
 0.37962  0.276  4.7 
 0.379026  0.272  4.7 
 0.37892  0.268  4.7 
 0.376945  0.264  4.7 
 0.376  0.263096  4.7 
 0.375272  0.26  4.7 
 0.375204  0.256  4.7 
 0.374473  0.252  4.7 
 0.372  0.248546  4.7 
 0.371854  0.248  4.7 
 0.371096  0.244  4.7 
 0.371148  0.24  4.7 
 0.370341  0.236  4.7 
 0.368  0.232608  4.7 
 0.367849  0.232  4.7 
 0.367149  0.228  4.7 
 0.367183  0.224  4.7 
 0.366577  0.22  4.7 
 0.364615  0.216  4.7 
 0.364  0.21541  4.7 
 0.363314  0.212  4.7 
 0.362946  0.208  4.7 
 0.363009  0.204  4.7 
 0.362075  0.2  4.7 
 0.36  0.196583  4.7 
 0.359873  0.196  4.7 
 0.359205  0.192  4.7 
 0.358883  0.188  4.7 
 0.358999  0.184  4.7 
 0.358192  0.18  4.7 
 0.356354  0.176  4.7 
 0.356  0.175578  4.7 
 0.355424  0.172  4.7 
 0.354925  0.168  4.7 
 0.355093  0.164  4.7 
 0.354637  0.16  4.7 
 0.353946  0.156  4.7 
 0.352308  0.152  4.7 
 0.352  0.151561  4.7 
 0.351503  0.148  4.7 
 0.351065  0.144  4.7 
 0.351323  0.14  4.7 
 0.350758  0.136  4.7 
 0.350735  0.132  4.7 
 0.350099  0.128  4.7 
 0.349203  0.124  4.7 
 0.348  0.121146  4.7 
 0.347855  0.12  4.7 

 0.495154  0.396  4.7 
 0.494956  0.4  4.7 
 0.494735  0.404  4.7 
 0.494419  0.408  4.7 
 0.494067  0.412  4.7 
 0.49382  0.416  4.7 
 0.493692  0.42  4.7 
 0.493687  0.424  4.7 
 0.493617  0.428  4.7 
 0.493686  0.432  4.7 
 0.493708  0.436  4.7 
 0.493896  0.44  4.7 
 0.494117  0.444  4.7 
 0.494514  0.448  4.7 
 0.495019  0.452  4.7 
 0.495721  0.456  4.7 
 0.496  0.4574  4.7 
 0.496512  0.46  4.7 
 0.497287  0.464  4.7 
 0.497985  0.468  4.7 
 0.498799  0.472  4.7 
 0.49943  0.476  4.7 
 0.5  0.479023  4.7 
 0.500183  0.48  4.7 
 0.500893  0.484  4.7 
 0.501525  0.488  4.7 
 0.502158  0.492  4.7 
 0.502712  0.496  4.7 
 0.503575  0.5  4.7 
 0.504  0.501621  4.7 
 0.504679  0.504  4.7 
 0.507222  0.508  4.7 
 0.508  0.511924  4.7 
 0.508014  0.512  4.7 
 0.508  0.514798  4.7 
 0.507993  0.516  4.7 
 0.508  0.516022  4.7 
 0.509107  0.52  4.7 
 0.508778  0.524  4.7 
 0.512  0.527963  4.7 
 0.512027  0.528  4.7 
 0.513092  0.532  4.7 
 0.512  0.535695  4.7 
 0.511763  0.536  4.7 
 0.512  0.536063  4.7 
 0.516  0.539274  4.7 
 0.516646  0.54  4.7 
 0.517507  0.544  4.7 
 0.516  0.545916  4.7 
 0.512  0.546089  4.7 
 0.510627  0.544  4.7 
 0.508  0.541697  4.7 
 0.507472  0.54  4.7 
 0.506812  0.536  4.7 
 0.504  0.535024  4.7 
 0.502262  0.532  4.7 
 0.5  0.52997  4.7 
 0.499344  0.528  4.7 
 0.496  0.524121  4.7 
 0.495951  0.524  4.7 
 0.494507  0.52  4.7 
 0.492  0.517315  4.7 
 0.491517  0.516  4.7 
 0.488  0.512298  4.7 
 0.487871  0.512  4.7 
 0.486634  0.508  4.7 
 0.484  0.504653  4.7 
 0.483775  0.504  4.7 
 0.481175  0.5  4.7 
 0.48  0.498696  4.7 
 0.47922  0.496  4.7 
 0.476  0.49269  4.7 
 0.475723  0.492  4.7 
 0.474211  0.488  4.7 
 0.472  0.485217  4.7 
 0.471615  0.484  4.7 
 0.469268  0.48  4.7 
 0.468  0.478165  4.7 
 0.467444  0.476  4.7 
 0.464  0.472327  4.7 
 0.463863  0.472  4.7 
 0.462904  0.468  4.7 
 0.46  0.465028  4.7 
 0.459636  0.464  4.7 
 0.458212  0.46  4.7 
 0.456  0.457622  4.7 
 0.455504  0.456  4.7 
 0.453561  0.452  4.7 
 0.452  0.450027  4.7 
 0.451462  0.448  4.7 
 0.448958  0.444  4.7 
 0.448  0.442571  4.7 
 0.447435  0.44  4.7 
 0.444366  0.436  4.7 
 0.444  0.435383  4.7 
 0.443394  0.432  4.7 
 0.440008  0.428  4.7 
 0.44  0.427986  4.7 
 0.439377  0.424  4.7 

 0.6  0.183075  4.7 
 0.599421  0.18  4.7 
 0.598806  0.176  4.7 
 0.598277  0.172  4.7 
 0.59781  0.168  4.7 
 0.597389  0.164  4.7 
 0.597005  0.16  4.7 
 0.596653  0.156  4.7 
 0.596327  0.152  4.7 
 0.596025  0.148  4.7 
 0.596  0.147635  4.7 
 0.595325  0.148  4.7 
 0.592  0.149644  4.7 
 0.591826  0.152  4.7 
 0.591504  0.156  4.7 
 0.591156  0.16  4.7 
 0.590777  0.164  4.7 
 0.590364  0.168  4.7 
 0.589906  0.172  4.7 
 0.58939  0.176  4.7 
 0.588791  0.18  4.7 
 0.588062  0.184  4.7 
 0.588  0.184259  4.7 
 0.586897  0.188  4.7 
 0.58529  0.192  4.7 
 0.584  0.194658  4.7 
 0.58295  0.196  4.7 
 0.58  0.199819  4.7 
 0.579818  0.2  4.7 
 0.576123  0.204  4.7 
 0.576  0.20416  4.7 
 0.572466  0.208  4.7 
 0.572  0.208595  4.7 
 0.568957  0.212  4.7 
 0.568  0.213282  4.7 
 0.565728  0.216  4.7 
 0.564  0.218509  4.7 
 0.562846  0.22  4.7 
 0.560169  0.224  4.7 
 0.56  0.22428  4.7 
 0.557459  0.228  4.7 
 0.556  0.230381  4.7 
 0.554904  0.232  4.7 
 0.552497  0.236  4.7 
 0.552  0.23692  4.7 
 0.550199  0.24  4.7 
 0.548103  0.244  4.7 
 0.548  0.244212  4.7 
 0.545972  0.248  4.7 
 0.544  0.251876  4.7 
 0.54393  0.252  4.7 
 0.54174  0.256  4.7 
 0.54  0.259227  4.7 
 0.539533  0.26  4.7 
 0.537217  0.264  4.7 
 0.536  0.266226  4.7 
 0.534936  0.268  4.7 
 0.532731  0.272  4.7 
 0.532  0.273444  4.7 
 0.530575  0.276  4.7 
 0.528533  0.28  4.7 
 0.528  0.281146  4.7 
 0.526589  0.284  4.7 
 0.524805  0.288  4.7 
 0.524  0.290041  4.7 
 0.523193  0.292  4.7 
 0.521645  0.296  4.7 
 0.520162  0.3  4.7 
 0.52  0.30044  4.7 
 0.518575  0.304  4.7 
 0.517042  0.308  4.7 
 0.516  0.310806  4.7 
 0.515502  0.312  4.7 
 0.513891  0.316  4.7 
 0.512405  0.32  4.7 
 0.512  0.32122  4.7 
 0.511024  0.324  4.7 
 0.50977  0.328  4.7 
 0.508551  0.332  4.7 
 0.508  0.333765  4.7 
 0.507263  0.336  4.7 
 0.505886  0.34  4.7 
 0.504465  0.344  4.7 
 0.504  0.34536  4.7 
 0.503055  0.348  4.7 
 0.501741  0.352  4.7 
 0.500592  0.356  4.7 
 0.5  0.35842  4.7 
 0.499617  0.36  4.7 
 0.498734  0.364  4.7 
 0.497826  0.368  4.7 
 0.497012  0.372  4.7 
 0.496392  0.376  4.7 
 0.496  0.378733  4.7 
 0.495811  0.38  4.7 
 0.495279  0.384  4.7 
 0.495081  0.388  4.7 
 0.4951  0.392  4.7 
 0.495154  0.396  4.7 


# Contour 3, label:      4.2
 0.34968  0.132  4.2 
 0.348726  0.128  4.2 
 0.348  0.125678  4.2 
 0.347745  0.124  4.2 
 0.347271  0.12  4.2 
 0.34693  0.116  4.2 
 0.346645  0.112  4.2 
 0.346446  0.108  4.2 
 0.346404  0.104  4.2 
 0.346065  0.1  4.2 
 0.345688  0.096  4.2 
 0.345357  0.092  4.2 
 0.344751  0.088  4.2 
 0.344  0.0846188  4.2 
 0.343926  0.084  4.2 
 0.343601  0.08  4.2 
 0.343313  0.076  4.2 
 0.343069  0.072  4.2 
 0.342855  0.068  4.2 
 0.342676  0.064  4.2 
 0.342578  0.06  4.2 
 0.342498  0.056  4.2 
 0.342384  0.052  4.2 
 0.342226  0.048  4.2 
 0.342062  0.044  4.2 
 0.341917  0.04  4.2 
 0.341797  0.036  4.2 
 0.341691  0.032  4.2 
 0.341579  0.028  4.2 
 0.341513  0.024  4.2 
 0.341431  0.02  4.2 
 0.341347  0.016  4.2 
 0.341355  0.012  4.2 
 0.341255  0.008  4.2 
 0.341159  0.004  4.2 
 0.341475  0  4.2 

 0.441992  0.432  4.2 
 0.44  0.429651  4.2 
 0.439258  0.428  4.2 
 0.437999  0.424  4.2 
 0.436  0.421637  4.2 
 0.43527  0.42  4.2 
 0.434101  0.416  4.2 
 0.432  0.413474  4.2 
 0.431327  0.412  4.2 
 0.430251  0.408  4.2 
 0.428  0.405149  4.2 
 0.427446  0.404  4.2 
 0.426426  0.4  4.2 
 0.424  0.396569  4.2 
 0.423702  0.396  4.2 
 0.422583  0.392  4.2 
 0.420646  0.388  4.2 
 0.42  0.387361  4.2 
 0.418827  0.384  4.2 
 0.417663  0.38  4.2 
 0.416  0.37814  4.2 
 0.415132  0.376  4.2 
 0.414291  0.372  4.2 
 0.412  0.369  4.2 
 0.411528  0.368  4.2 
 0.410527  0.364  4.2 
 0.409163  0.36  4.2 
 0.408  0.358769  4.2 
 0.406979  0.356  4.2 
 0.40621  0.352  4.2 
 0.404  0.349087  4.2 
 0.403513  0.348  4.2 
 0.402547  0.344  4.2 
 0.401551  0.34  4.2 
 0.4  0.338314  4.2 
 0.399098  0.336  4.2 
 0.398323  0.332  4.2 
 0.396628  0.328  4.2 
 0.396  0.327351  4.2 
 0.394894  0.324  4.2 
 0.394225  0.32  4.2 
 0.392  0.316384  4.2 
 0.391832  0.316  4.2 
 0.390758  0.312  4.2 
 0.390128  0.308  4.2 
 0.388  0.304613  4.2 
 0.387746  0.304  4.2 
 0.386743  0.3  4.2 
 0.386189  0.296  4.2 
 0.384  0.292264  4.2 
 0.38389  0.292  4.2 
 0.382823  0.288  4.2 
 0.382319  0.284  4.2 
 0.38068  0.28  4.2 
 0.38  0.279241  4.2 
 0.379054  0.276  4.2 
 0.378389  0.272  4.2 
 0.377744  0.268  4.2 
 0.376  0.265189  4.2 
 0.375593  0.264  4.2 
 0.374703  0.26  4.2 
 0.374316  0.256  4.2 
 0.372905  0.252  4.2 
 0.372  0.250737  4.2 
 0.371267  0.248  4.2 
 0.370526  0.244  4.2 
 0.370203  0.24  4.2 
 0.368716  0.236  4.2 
 0.368  0.234962  4.2 
 0.367262  0.232  4.2 
 0.366591  0.228  4.2 
 0.366303  0.224  4.2 
 0.36515  0.22  4.2 
 0.364  0.217955  4.2 
 0.363516  0.216  4.2 
 0.362798  0.212  4.2 
 0.362347  0.208  4.2 
 0.361987  0.204  4.2 
 0.360445  0.2  4.2 
 0.36  0.199268  4.2 
 0.359285  0.196  4.2 
 0.358708  0.192  4.2 
 0.358301  0.188  4.2 
 0.358004  0.184  4.2 
 0.356705  0.18  4.2 
 0.356  0.178588  4.2 
 0.355463  0.176  4.2 
 0.354908  0.172  4.2 
 0.354412  0.168  4.2 
 0.354299  0.164  4.2 
 0.353614  0.16  4.2 
 0.352339  0.156  4.2 
 0.352  0.15523  4.2 
 0.351455  0.152  4.2 
 0.350975  0.148  4.2 
 0.350547  0.144  4.2 
 0.350579  0.14  4.2 
 0.350023  0.136  4.2 
 0.34968  0.132  4.2 

 0.6  0.666465  4.2 
 0.598321  0.664  4.2 
 0.596  0.661664  4.2 
 0.594773  0.66  4.2 
 0.592  0.657007  4.2 
 0.591276  0.656  4.2 
 0.588  0.652551  4.2 
 0.587624  0.652  4.2 
 0.584  0.648076  4.2 
 0.583944  0.648  4.2 
 0.581582  0.644  4.2 
 0.58  0.642439  4.2 
 0.578334  0.64  4.2 
 0.576  0.637461  4.2 
 0.575013  0.636  4.2 
 0.572  0.632825  4.2 
 0.57147  0.632  4.2 
 0.568  0.62812  4.2 
 0.567914  0.628  4.2 
 0.565526  0.624  4.2 
 0.564  0.62242  4.2 
 0.562394  0.62  4.2 
 0.56  0.617345  4.2 
 0.559189  0.616  4.2 
 0.556  0.612569  4.2 
 0.555625  0.612  4.2 
 0.552897  0.608  4.2 
 0.552  0.607084  4.2 
 0.550055  0.604  4.2 
 0.548  0.601717  4.2 
 0.54703  0.6  4.2 
 0.544  0.596657  4.2 
 0.543578  0.596  4.2 
 0.54086  0.592  4.2 
 0.54  0.591067  4.2 
 0.538215  0.588  4.2 
 0.536  0.585666  4.2 
 0.535089  0.584  4.2 
 0.532  0.580326  4.2 
 0.531787  0.58  4.2 
 0.529277  0.576  4.2 
 0.528  0.574542  4.2 
 0.526731  0.572  4.2 
 0.524  0.568996  4.2 
 0.523405  0.568  4.2 
 0.520543  0.564  4.2 
 0.52  0.563361  4.2 
 0.518385  0.56  4.2 
 0.516  0.557479  4.2 
 0.515188  0.556  4.2 
 0.512017  0.552  4.2 
 0.512  0.55198  4.2 
 0.510186  0.548  4.2 
 0.508  0.545694  4.2 
 0.507114  0.544  4.2 
 0.504  0.540041  4.2 
 0.503973  0.54  4.2 
 0.502275  0.536  4.2 
 0.5  0.533544  4.2 
 0.499192  0.532  4.2 
 0.4962  0.528  4.2 
 0.496  0.527768  4.2 
 0.494483  0.524  4.2 
 0.492  0.521045  4.2 
 0.491434  0.52  4.2 
 0.489063  0.516  4.2 
 0.488  0.514881  4.2 
 0.486747  0.512  4.2 
 0.484  0.508448  4.2 
 0.483731  0.508  4.2 
 0.482107  0.504  4.2 
 0.48  0.501612  4.2 
 0.479206  0.5  4.2 
 0.476646  0.496  4.2 
 0.476  0.495336  4.2 
 0.474662  0.492  4.2 
 0.472  0.488531  4.2 
 0.471683  0.488  4.2 
 0.470187  0.484  4.2 
 0.468  0.481336  4.2 
 0.467335  0.48  4.2 
 0.465415  0.476  4.2 
 0.464  0.474491  4.2 
 0.462958  0.472  4.2 
 0.460219  0.468  4.2 
 0.46  0.467776  4.2 
 0.458664  0.464  4.2 
 0.456  0.460429  4.2 
 0.455747  0.46  4.2 
 0.45442  0.456  4.2 
 0.452  0.45282  4.2 
 0.45156  0.452  4.2 
 0.450229  0.448  4.2 
 0.448  0.445193  4.2 
 0.447413  0.444  4.2 
 0.446081  0.44  4.2 
 0.444  0.437499  4.2 
 0.443304  0.436  4.2 
 0.441992  0.432  4.2 

 0.565749  0.508  4.2 
 0.56703  0.512  4.2 
 0.568  0.514827  4.2 
 0.568391  0.516  4.2 
 0.569541  0.52  4.2 
 0.570468  0.524  4.2 
 0.571495  0.528  4.2 
 0.572  0.529664  4.2 
 0.572761  0.532  4.2 
 0.574199  0.536  4.2 
 0.575722  0.54  4.2 
 0.576  0.540658  4.2 
 0.577424  0.544  4.2 
 0.579265  0.548  4.2 
 0.58  0.549812  4.2 
 0.580852  0.552  4.2 
 0.582263  0.556  4.2 
 0.583847  0.56  4.2 
 0.584  0.560408  4.2 
 0.585336  0.564  4.2 
 0.586672  0.568  4.2 
 0.588  0.571153  4.2 
 0.588368  0.572  4.2 
 0.59041  0.576  4.2 
 0.592  0.579573  4.2 
 0.592193  0.58  4.2 
 0.593651  0.584  4.2 
 0.595484  0.588  4.2 
 0.596  0.58892  4.2 
 0.597725  0.592  4.2 
 0.599419  0.596  4.2 
 0.6  0.597669  4.2 

 0.6  0.196172  4.2 
 0.598516  0.196  4.2 
 0.596717  0.192  4.2 
 0.596  0.190088  4.2 
 0.592  0.190883  4.2 
 0.591596  0.192  4.2 
 0.589845  0.196  4.2 
 0.588  0.199087  4.2 
 0.587428  0.2  4.2 
 0.584907  0.204  4.2 
 0.584  0.206291  4.2 
 0.582884  0.208  4.2 
 0.581068  0.212  4.2 
 0.58  0.214855  4.2 
 0.579411  0.216  4.2 
 0.577681  0.22  4.2 
 0.576184  0.224  4.2 
 0.576  0.224572  4.2 
 0.574667  0.228  4.2 
 0.573325  0.232  4.2 
 0.572129  0.236  4.2 
 0.572  0.236488  4.2 
 0.57082  0.24  4.2 
 0.569524  0.244  4.2 
 0.568287  0.248  4.2 
 0.568  0.249014  4.2 
 0.567103  0.252  4.2 
 0.566045  0.256  4.2 
 0.565097  0.26  4.2 
 0.564199  0.264  4.2 
 0.564  0.264964  4.2 
 0.56325  0.268  4.2 
 0.562334  0.272  4.2 
 0.561476  0.276  4.2 
 0.560661  0.28  4.2 
 0.56  0.283424  4.2 
 0.559886  0.284  4.2 
 0.559191  0.288  4.2 
 0.558605  0.292  4.2 
 0.558016  0.296  4.2 
 0.557416  0.3  4.2 
 0.556782  0.304  4.2 
 0.556088  0.308  4.2 
 0.556  0.308485  4.2 
 0.555293  0.312  4.2 
 0.554523  0.316  4.2 
 0.553817  0.32  4.2 
 0.553182  0.324  4.2 
 0.552623  0.328  4.2 
 0.552147  0.332  4.2 
 0.552  0.333499  4.2 
 0.551746  0.336  4.2 
 0.551398  0.34  4.2 
 0.551054  0.344  4.2 
 0.550706  0.348  4.2 
 0.550346  0.352  4.2 
 0.550005  0.356  4.2 
 0.549684  0.36  4.2 
 0.549411  0.364  4.2 
 0.549202  0.368  4.2 
 0.549125  0.372  4.2 
 0.549134  0.376  4.2 
 0.549144  0.38  4.2 
 0.549112  0.384  4.2 
 0.548997  0.388  4.2 
 0.548875  0.392  4.2 
 0.548726  0.396  4.2 
 0.548578  0.4  4.2 
 0.54851  0.404  4.2 
 0.548532  0.408  4.2 
 0.548687  0.412  4.2 
 0.549017  0.416  4.2 
 0.549498  0.42  4.2 
 0.550031  0.424  4.2 
 0.550546  0.428  4.2 
 0.551024  0.432  4.2 
 0.551493  0.436  4.2 
 0.551975  0.44  4.2 
 0.552  0.440196  4.2 
 0.552488  0.444  4.2 
 0.553043  0.448  4.2 
 0.553627  0.452  4.2 
 0.554245  0.456  4.2 
 0.554918  0.46  4.2 
 0.555651  0.464  4.2 
 0.556  0.465771  4.2 
 0.556436  0.468  4.2 
 0.557225  0.472  4.2 
 0.558012  0.476  4.2 
 0.558806  0.48  4.2 
 0.559616  0.484  4.2 
 0.56  0.485769  4.2 
 0.56049  0.488  4.2 
 0.561437  0.492  4.2 
 0.562456  0.496  4.2 
 0.563535  0.5  4.2 
 0.564  0.501714  4.2 
 0.564612  0.504  4.2 
 0.565749  0.508  4.2 


# Contour 4, label:      3.7
 0.349288  0.136  3.7 
 0.348624  0.132  3.7 
 0.348  0.129774  3.7 
 0.347628  0.128  3.7 
 0.347076  0.124  3.7 
 0.346687  0.12  3.7 
 0.346407  0.116  3.7 
 0.346158  0.112  3.7 
 0.345876  0.108  3.7 
 0.345603  0.104  3.7 
 0.345152  0.1  3.7 
 0.344816  0.096  3.7 
 0.344233  0.092  3.7 
 0.344  0.0906855  3.7 
 0.343662  0.088  3.7 
 0.343225  0.084  3.7 
 0.342958  0.08  3.7 
 0.342721  0.076  3.7 
 0.342521  0.072  3.7 
 0.342345  0.068  3.7 
 0.34218  0.064  3.7 
 0.342024  0.06  3.7 
 0.341846  0.056  3.7 
 0.341636  0.052  3.7 
 0.341422  0.048  3.7 
 0.341226  0.044  3.7 
 0.34106  0.04  3.7 
 0.340915  0.036  3.7 
 0.340772  0.032  3.7 
 0.340661  0.028  3.7 
 0.340464  0.024  3.7 
 0.340486  0.02  3.7 
 0.34016  0.016  3.7 
 0.340388  0.012  3.7 
 0.340115  0.008  3.7 
 0.340002  0.004  3.7 
 0.340538  0  3.7 

 0.442548  0.436  3.7 
 0.44059  0.432  3.7 
 0.44  0.431305  3.7 
 0.438514  0.428  3.7 
 0.436621  0.424  3.7 
 0.436  0.423266  3.7 
 0.434544  0.42  3.7 
 0.432818  0.416  3.7 
 0.432  0.415017  3.7 
 0.430623  0.412  3.7 
 0.429123  0.408  3.7 
 0.428  0.406578  3.7 
 0.426758  0.404  3.7 
 0.425479  0.4  3.7 
 0.424  0.397908  3.7 
 0.423001  0.396  3.7 
 0.421812  0.392  3.7 
 0.42  0.3889  3.7 
 0.419463  0.388  3.7 
 0.418126  0.384  3.7 
 0.416209  0.38  3.7 
 0.416  0.379767  3.7 
 0.414472  0.376  3.7 
 0.413229  0.372  3.7 
 0.412  0.37039  3.7 
 0.410871  0.368  3.7 
 0.409826  0.364  3.7 
 0.408  0.360412  3.7 
 0.40775  0.36  3.7 
 0.406331  0.356  3.7 
 0.405112  0.352  3.7 
 0.404  0.350534  3.7 
 0.402866  0.348  3.7 
 0.401882  0.344  3.7 
 0.400129  0.34  3.7 
 0.4  0.33986  3.7 
 0.398495  0.336  3.7 
 0.397524  0.332  3.7 
 0.396  0.329016  3.7 
 0.395496  0.328  3.7 
 0.394283  0.324  3.7 
 0.393246  0.32  3.7 
 0.392  0.317976  3.7 
 0.391135  0.316  3.7 
 0.390147  0.312  3.7 
 0.389099  0.308  3.7 
 0.388  0.306251  3.7 
 0.387067  0.304  3.7 
 0.386143  0.3  3.7 
 0.385198  0.296  3.7 
 0.384  0.293956  3.7 
 0.383186  0.292  3.7 
 0.382244  0.288  3.7 
 0.381436  0.284  3.7 
 0.38  0.281089  3.7 
 0.379532  0.28  3.7 
 0.378488  0.276  3.7 
 0.377752  0.272  3.7 
 0.376568  0.268  3.7 
 0.376  0.267085  3.7 
 0.374944  0.264  3.7 
 0.374134  0.26  3.7 
 0.373427  0.256  3.7 
 0.372  0.252834  3.7 
 0.371663  0.252  3.7 
 0.370681  0.248  3.7 
 0.369957  0.244  3.7 
 0.369258  0.24  3.7 
 0.368  0.237183  3.7 
 0.367566  0.236  3.7 
 0.366676  0.232  3.7 
 0.366033  0.228  3.7 
 0.365423  0.224  3.7 
 0.364  0.220429  3.7 
 0.363838  0.22  3.7 
 0.362887  0.216  3.7 
 0.362282  0.212  3.7 
 0.361747  0.208  3.7 
 0.360964  0.204  3.7 
 0.36  0.201742  3.7 
 0.359454  0.2  3.7 
 0.358698  0.196  3.7 
 0.35821  0.192  3.7 
 0.357718  0.188  3.7 
 0.357009  0.184  3.7 
 0.356  0.181367  3.7 
 0.355589  0.18  3.7 
 0.354846  0.176  3.7 
 0.354393  0.172  3.7 
 0.353899  0.168  3.7 
 0.353505  0.164  3.7 
 0.35259  0.16  3.7 
 0.352  0.158311  3.7 
 0.351414  0.156  3.7 
 0.350839  0.152  3.7 
 0.350446  0.148  3.7 
 0.350029  0.144  3.7 
 0.349836  0.14  3.7 
 0.349288  0.136  3.7 

 0.6  0.669229  3.7 
 0.599016  0.668  3.7 
 0.596  0.664635  3.7 
 0.595474  0.664  3.7 
 0.592  0.660111  3.7 
 0.591906  0.66  3.7 
 0.588933  0.656  3.7 
 0.588  0.655017  3.7 
 0.585941  0.652  3.7 
 0.584  0.649898  3.7 
 0.582601  0.648  3.7 
 0.58  0.645016  3.7 
 0.579205  0.644  3.7 
 0.576  0.64035  3.7 
 0.575715  0.64  3.7 
 0.57271  0.636  3.7 
 0.572  0.635252  3.7 
 0.569909  0.632  3.7 
 0.568  0.629865  3.7 
 0.566665  0.628  3.7 
 0.564  0.624882  3.7 
 0.563324  0.624  3.7 
 0.56  0.620125  3.7 
 0.559898  0.62  3.7 
 0.557419  0.616  3.7 
 0.556  0.614473  3.7 
 0.554369  0.612  3.7 
 0.552  0.609177  3.7 
 0.551137  0.608  3.7 
 0.548  0.604311  3.7 
 0.547752  0.604  3.7 
 0.54533  0.6  3.7 
 0.544  0.598533  3.7 
 0.542374  0.596  3.7 
 0.54  0.593129  3.7 
 0.539188  0.592  3.7 
 0.536  0.588107  3.7 
 0.535915  0.588  3.7 
 0.533697  0.584  3.7 
 0.532  0.581982  3.7 
 0.530707  0.58  3.7 
 0.528  0.576743  3.7 
 0.527443  0.576  3.7 
 0.525032  0.572  3.7 
 0.524  0.570865  3.7 
 0.522287  0.568  3.7 
 0.52  0.565167  3.7 
 0.519184  0.564  3.7 
 0.516427  0.56  3.7 
 0.516  0.559549  3.7 
 0.514052  0.556  3.7 
 0.512  0.553421  3.7 
 0.51105  0.552  3.7 
 0.508179  0.548  3.7 
 0.508  0.547811  3.7 
 0.506005  0.544  3.7 
 0.504  0.54145  3.7 
 0.503047  0.54  3.7 
 0.500453  0.536  3.7 
 0.5  0.535511  3.7 
 0.498162  0.532  3.7 
 0.496  0.529234  3.7 
 0.495171  0.528  3.7 
 0.493015  0.524  3.7 
 0.492  0.522792  3.7 
 0.490487  0.52  3.7 
 0.488  0.51671  3.7 
 0.487499  0.516  3.7 
 0.485624  0.512  3.7 
 0.484  0.509901  3.7 
 0.482859  0.508  3.7 
 0.48044  0.504  3.7 
 0.48  0.503502  3.7 
 0.478275  0.5  3.7 
 0.476  0.496938  3.7 
 0.475368  0.496  3.7 
 0.473601  0.492  3.7 
 0.472  0.489914  3.7 
 0.470857  0.488  3.7 
 0.468758  0.484  3.7 
 0.468  0.483076  3.7 
 0.46647  0.48  3.7 
 0.464  0.476384  3.7 
 0.463731  0.476  3.7 
 0.462053  0.472  3.7 
 0.46  0.469153  3.7 
 0.459262  0.468  3.7 
 0.457692  0.464  3.7 
 0.456  0.461732  3.7 
 0.454979  0.46  3.7 
 0.453335  0.456  3.7 
 0.452  0.454245  3.7 
 0.450796  0.452  3.7 
 0.448995  0.448  3.7 
 0.448  0.446747  3.7 
 0.446648  0.444  3.7 
 0.444728  0.44  3.7 
 0.444  0.439125  3.7 
 0.442548  0.436  3.7 

 0.6  0.196796  3.7 
 0.596  0.196801  3.7 
 0.592  0.198253  3.7 
 0.590621  0.2  3.7 
 0.58883  0.204  3.7 
 0.588  0.207612  3.7 
 0.587855  0.208  3.7 
 0.586836  0.212  3.7 
 0.58603  0.216  3.7 
 0.58532  0.22  3.7 
 0.584618  0.224  3.7 
 0.584  0.22784  3.7 
 0.583968  0.228  3.7 
 0.583373  0.232  3.7 
 0.582919  0.236  3.7 
 0.582571  0.24  3.7 
 0.582314  0.244  3.7 
 0.582127  0.248  3.7 
 0.581977  0.252  3.7 
 0.581848  0.256  3.7 
 0.581739  0.26  3.7 
 0.581658  0.264  3.7 
 0.581617  0.268  3.7 
 0.581625  0.272  3.7 
 0.581678  0.276  3.7 
 0.581753  0.28  3.7 
 0.581869  0.284  3.7 
 0.581993  0.288  3.7 
 0.582098  0.292  3.7 
 0.582179  0.296  3.7 
 0.582251  0.3  3.7 
 0.582325  0.304  3.7 
 0.582415  0.308  3.7 
 0.582543  0.312  3.7 
 0.582703  0.316  3.7 
 0.582884  0.32  3.7 
 0.583093  0.324  3.7 
 0.583344  0.328  3.7 
 0.583648  0.332  3.7 
 0.584  0.335874  3.7 
 0.584012  0.336  3.7 
 0.584381  0.34  3.7 
 0.58474  0.344  3.7 
 0.585106  0.348  3.7 
 0.58551  0.352  3.7 
 0.58596  0.356  3.7 
 0.586445  0.36  3.7 
 0.586932  0.364  3.7 
 0.587415  0.368  3.7 
 0.587904  0.372  3.7 
 0.588  0.372785  3.7 
 0.588394  0.376  3.7 
 0.588897  0.38  3.7 
 0.58942  0.384  3.7 
 0.589995  0.388  3.7 
 0.590611  0.392  3.7 
 0.591267  0.396  3.7 
 0.591952  0.4  3.7 
 0.592  0.400278  3.7 
 0.592648  0.404  3.7 
 0.593364  0.408  3.7 
 0.594111  0.412  3.7 
 0.594885  0.416  3.7 
 0.595673  0.42  3.7 
 0.596  0.42167  3.7 
 0.596465  0.424  3.7 
 0.597264  0.428  3.7 
 0.598087  0.432  3.7 
 0.598951  0.436  3.7 
 0.599873  0.44  3.7 
 0.6  0.440522  3.7 


# Contour 5, label:      3.2
 0.348  0.133408  3.2 
 0.347592  0.132  3.2 
 0.34684  0.128  3.2 
 0.346407  0.124  3.2 
 0.346103  0.12  3.2 
 0.345883  0.116  3.2 
 0.345671  0.112  3.2 
 0.345306  0.108  3.2 
 0.344803  0.104  3.2 
 0.344238  0.1  3.2 
 0.344  0.0968036  3.2 
 0.343929  0.096  3.2 
 0.343279  0.092  3.2 
 0.342866  0.088  3.2 
 0.342524  0.084  3.2 
 0.342315  0.08  3.2 
 0.34213  0.076  3.2 
 0.341973  0.072  3.2 
 0.341834  0.068  3.2 
 0.341685  0.064  3.2 
 0.341469  0.06  3.2 
 0.341194  0.056  3.2 
 0.340887  0.052  3.2 
 0.340618  0.048  3.2 
 0.34039  0.044  3.2 
 0.340204  0.04  3.2 
 0.340033  0.036  3.2 
 0.34  0.0352383  3.2 
 0.33983  0.032  3.2 
 0.339712  0.028  3.2 
 0.339464  0.024  3.2 
 0.339525  0.02  3.2 
 0.339225  0.016  3.2 
 0.339429  0.012  3.2 
 0.3392  0.008  3.2 
 0.339132  0.004  3.2 
 0.339577  0  3.2 

 0.441792  0.436  3.2 
 0.44  0.432786  3.2 
 0.439422  0.432  3.2 
 0.437771  0.428  3.2 
 0.436  0.424749  3.2 
 0.435451  0.424  3.2 
 0.433818  0.42  3.2 
 0.432  0.416506  3.2 
 0.431624  0.416  3.2 
 0.429919  0.412  3.2 
 0.428  0.408006  3.2 
 0.426071  0.404  3.2 
 0.424532  0.4  3.2 
 0.424  0.399247  3.2 
 0.4223  0.396  3.2 
 0.42104  0.392  3.2 
 0.42  0.39022  3.2 
 0.418676  0.388  3.2 
 0.417425  0.384  3.2 
 0.416  0.381185  3.2 
 0.415213  0.38  3.2 
 0.413811  0.376  3.2 
 0.412167  0.372  3.2 
 0.412  0.371781  3.2 
 0.410213  0.368  3.2 
 0.409124  0.364  3.2 
 0.408  0.36179  3.2 
 0.406912  0.36  3.2 
 0.405683  0.356  3.2 
 0.404014  0.352  3.2 
 0.404  0.351982  3.2 
 0.402218  0.348  3.2 
 0.401216  0.344  3.2 
 0.4  0.34133  3.2 
 0.399186  0.34  3.2 
 0.397892  0.336  3.2 
 0.396725  0.332  3.2 
 0.396  0.330581  3.2 
 0.394719  0.328  3.2 
 0.393671  0.324  3.2 
 0.392267  0.32  3.2 
 0.392  0.319567  3.2 
 0.390439  0.316  3.2 
 0.389535  0.312  3.2 
 0.388069  0.308  3.2 
 0.388  0.30789  3.2 
 0.386388  0.304  3.2 
 0.385543  0.3  3.2 
 0.384207  0.296  3.2 
 0.384  0.295647  3.2 
 0.382482  0.292  3.2 
 0.381665  0.288  3.2 
 0.380554  0.284  3.2 
 0.38  0.282878  3.2 
 0.378762  0.28  3.2 
 0.377922  0.276  3.2 
 0.377115  0.272  3.2 
 0.376  0.268913  3.2 
 0.375497  0.268  3.2 
 0.374294  0.264  3.2 
 0.373564  0.26  3.2 
 0.372539  0.256  3.2 
 0.372  0.254804  3.2 
 0.370866  0.252  3.2 
 0.370094  0.248  3.2 
 0.369388  0.244  3.2 
 0.368313  0.24  3.2 
 0.368  0.239299  3.2 
 0.36679  0.236  3.2 
 0.36609  0.232  3.2 
 0.365475  0.228  3.2 
 0.364544  0.224  3.2 
 0.364  0.222636  3.2 
 0.363003  0.22  3.2 
 0.362259  0.216  3.2 
 0.361766  0.212  3.2 
 0.361148  0.208  3.2 
 0.36  0.204116  3.2 
 0.359938  0.204  3.2 
 0.358703  0.2  3.2 
 0.358111  0.196  3.2 
 0.357712  0.192  3.2 
 0.357135  0.188  3.2 
 0.356013  0.184  3.2 
 0.356  0.183966  3.2 
 0.354809  0.18  3.2 
 0.354228  0.176  3.2 
 0.353877  0.172  3.2 
 0.353385  0.168  3.2 
 0.352711  0.164  3.2 
 0.352  0.161284  3.2 
 0.351579  0.16  3.2 
 0.350672  0.156  3.2 
 0.350222  0.152  3.2 
 0.349918  0.148  3.2 
 0.349512  0.144  3.2 
 0.349093  0.14  3.2 
 0.348553  0.136  3.2 
 0.348  0.133408  3.2 

 0.6  0.670884  3.2 
 0.597691  0.668  3.2 
 0.596  0.666113  3.2 
 0.59425  0.664  3.2 
 0.592  0.661482  3.2 
 0.590745  0.66  3.2 
 0.588  0.656811  3.2 
 0.587295  0.656  3.2 
 0.584258  0.652  3.2 
 0.584  0.65172  3.2 
 0.581259  0.648  3.2 
 0.58  0.646555  3.2 
 0.578  0.644  3.2 
 0.576  0.641722  3.2 
 0.574595  0.64  3.2 
 0.572  0.636919  3.2 
 0.571218  0.636  3.2 
 0.568349  0.632  3.2 
 0.568  0.63161  3.2 
 0.565417  0.628  3.2 
 0.564  0.626343  3.2 
 0.562205  0.624  3.2 
 0.56  0.621429  3.2 
 0.558831  0.62  3.2 
 0.556  0.616278  3.2 
 0.555758  0.616  3.2 
 0.553114  0.612  3.2 
 0.552  0.610672  3.2 
 0.550041  0.608  3.2 
 0.548  0.6056  3.2 
 0.546723  0.604  3.2 
 0.544  0.600304  3.2 
 0.543737  0.6  3.2 
 0.541169  0.596  3.2 
 0.54  0.594586  3.2 
 0.538141  0.592  3.2 
 0.536  0.589386  3.2 
 0.534901  0.588  3.2 
 0.532305  0.584  3.2 
 0.532  0.583637  3.2 
 0.529626  0.58  3.2 
 0.528  0.578043  3.2 
 0.526469  0.576  3.2 
 0.524  0.572537  3.2 
 0.523554  0.572  3.2 
 0.521169  0.568  3.2 
 0.52  0.566552  3.2 
 0.518216  0.564  3.2 
 0.516  0.561018  3.2 
 0.515189  0.56  3.2 
 0.512915  0.556  3.2 
 0.512  0.554849  3.2 
 0.510096  0.552  3.2 
 0.508  0.549173  3.2 
 0.507086  0.548  3.2 
 0.504897  0.544  3.2 
 0.504  0.542859  3.2 
 0.502121  0.54  3.2 
 0.5  0.536988  3.2 
 0.499229  0.536  3.2 
 0.497132  0.532  3.2 
 0.496  0.530551  3.2 
 0.494285  0.528  3.2 
 0.492  0.524427  3.2 
 0.491654  0.524  3.2 
 0.48954  0.52  3.2 
 0.488  0.517962  3.2 
 0.486616  0.516  3.2 
 0.4845  0.512  3.2 
 0.484  0.511353  3.2 
 0.481987  0.508  3.2 
 0.48  0.504977  3.2 
 0.479256  0.504  3.2 
 0.477345  0.5  3.2 
 0.476  0.49819  3.2 
 0.474523  0.496  3.2 
 0.47254  0.492  3.2 
 0.472  0.491297  3.2 
 0.470032  0.488  3.2 
 0.468  0.484641  3.2 
 0.467504  0.484  3.2 
 0.465604  0.48  3.2 
 0.464  0.477652  3.2 
 0.462842  0.476  3.2 
 0.461147  0.472  3.2 
 0.46  0.470409  3.2 
 0.458459  0.468  3.2 
 0.45672  0.464  3.2 
 0.456  0.463035  3.2 
 0.454212  0.46  3.2 
 0.452251  0.456  3.2 
 0.452  0.45567  3.2 
 0.450032  0.452  3.2 
 0.448  0.448271  3.2 
 0.447788  0.448  3.2 
 0.445884  0.444  3.2 
 0.444  0.440632  3.2 
 0.443525  0.44  3.2 
 0.441792  0.436  3.2 

 0.6  0.197421  3.2 
 0.596  0.198302  3.2 
 0.593268  0.2  3.2 
 0.592  0.203204  3.2 
 0.591634  0.204  3.2 
 0.590912  0.208  3.2 
 0.590598  0.212  3.2 
 0.590452  0.216  3.2 
 0.590451  0.22  3.2 
 0.590566  0.224  3.2 
 0.590792  0.228  3.2 
 0.591095  0.232  3.2 
 0.591412  0.236  3.2 
 0.591776  0.24  3.2 
 0.592  0.242169  3.2 
 0.592176  0.244  3.2 
 0.592607  0.248  3.2 
 0.593111  0.252  3.2 
 0.593674  0.256  3.2 
 0.594287  0.26  3.2 
 0.594945  0.264  3.2 
 0.595636  0.268  3.2 
 0.596  0.270029  3.2 
 0.596346  0.272  3.2 
 0.597091  0.276  3.2 
 0.597889  0.28  3.2 
 0.598726  0.284  3.2 
 0.599598  0.288  3.2 
 0.6  0.289833  3.2 


# Contour 6, label:      2.7
 0.34835  0.14  2.7 
 0.348  0.13738  2.7 
 0.347652  0.136  2.7 
 0.346594  0.132  2.7 
 0.346051  0.128  2.7 
 0.345739  0.124  2.7 
 0.345519  0.12  2.7 
 0.345359  0.116  2.7 
 0.345183  0.112  2.7 
 0.344736  0.108  2.7 
 0.344003  0.104  2.7 
 0.344  0.103979  2.7 
 0.343114  0.1  2.7 
 0.342837  0.096  2.7 
 0.342368  0.092  2.7 
 0.34207  0.088  2.7 
 0.341823  0.084  2.7 
 0.341672  0.08  2.7 
 0.341538  0.076  2.7 
 0.341425  0.072  2.7 
 0.341323  0.068  2.7 
 0.341189  0.064  2.7 
 0.340915  0.06  2.7 
 0.340542  0.056  2.7 
 0.340139  0.052  2.7 
 0.34  0.0502173  2.7 
 0.339673  0.048  2.7 
 0.339319  0.044  2.7 
 0.339093  0.04  2.7 
 0.338919  0.036  2.7 
 0.338766  0.032  2.7 
 0.338681  0.028  2.7 
 0.338502  0.024  2.7 
 0.338546  0.02  2.7 
 0.338329  0.016  2.7 
 0.338477  0.012  2.7 
 0.338311  0.008  2.7 
 0.338262  0.004  2.7 
 0.338584  0  2.7 

 0.442496  0.44  2.7 
 0.441036  0.436  2.7 
 0.44  0.434142  2.7 
 0.438424  0.432  2.7 
 0.437028  0.428  2.7 
 0.436  0.426114  2.7 
 0.434451  0.424  2.7 
 0.433093  0.42  2.7 
 0.432  0.4179  2.7 
 0.430586  0.416  2.7 
 0.429215  0.412  2.7 
 0.428  0.409471  2.7 
 0.426867  0.408  2.7 
 0.425383  0.404  2.7 
 0.424  0.400715  2.7 
 0.423419  0.4  2.7 
 0.421598  0.396  2.7 
 0.420269  0.392  2.7 
 0.42  0.39154  2.7 
 0.417889  0.388  2.7 
 0.416725  0.384  2.7 
 0.416  0.382569  2.7 
 0.414294  0.38  2.7 
 0.413151  0.376  2.7 
 0.412  0.373303  2.7 
 0.411017  0.372  2.7 
 0.409556  0.368  2.7 
 0.408423  0.364  2.7 
 0.408  0.363168  2.7 
 0.406075  0.36  2.7 
 0.405036  0.356  2.7 
 0.404  0.353527  2.7 
 0.402896  0.352  2.7 
 0.401571  0.348  2.7 
 0.40055  0.344  2.7 
 0.4  0.342792  2.7 
 0.398291  0.34  2.7 
 0.39729  0.336  2.7 
 0.396  0.332166  2.7 
 0.395862  0.332  2.7 
 0.393943  0.328  2.7 
 0.393059  0.324  2.7 
 0.392  0.321183  2.7 
 0.391123  0.32  2.7 
 0.389743  0.316  2.7 
 0.388924  0.312  2.7 
 0.388  0.309526  2.7 
 0.386942  0.308  2.7 
 0.385708  0.304  2.7 
 0.384943  0.3  2.7 
 0.384  0.29734  2.7 
 0.383065  0.296  2.7 
 0.381779  0.292  2.7 
 0.381086  0.288  2.7 
 0.38  0.284663  2.7 
 0.379499  0.284  2.7 
 0.377992  0.28  2.7 
 0.377356  0.276  2.7 
 0.376477  0.272  2.7 
 0.376  0.270678  2.7 
 0.374524  0.268  2.7 
 0.373645  0.264  2.7 
 0.372995  0.26  2.7 
 0.372  0.256735  2.7 
 0.371475  0.256  2.7 
 0.370069  0.252  2.7 
 0.369508  0.248  2.7 
 0.368819  0.244  2.7 
 0.368  0.241269  2.7 
 0.367181  0.24  2.7 
 0.366014  0.236  2.7 
 0.365504  0.232  2.7 
 0.364917  0.228  2.7 
 0.364  0.224754  2.7 
 0.363488  0.224  2.7 
 0.362169  0.22  2.7 
 0.36163  0.216  2.7 
 0.361251  0.212  2.7 
 0.360548  0.208  2.7 
 0.36  0.206144  2.7 
 0.358844  0.204  2.7 
 0.357952  0.2  2.7 
 0.357524  0.196  2.7 
 0.357215  0.192  2.7 
 0.356553  0.188  2.7 
 0.356  0.186039  2.7 
 0.3549  0.184  2.7 
 0.354029  0.18  2.7 
 0.35361  0.176  2.7 
 0.353361  0.172  2.7 
 0.352872  0.168  2.7 
 0.352  0.164232  2.7 
 0.351845  0.164  2.7 
 0.350585  0.16  2.7 
 0.34993  0.156  2.7 
 0.349606  0.152  2.7 
 0.34939  0.148  2.7 
 0.348994  0.144  2.7 
 0.34835  0.14  2.7 

 0.6  0.672563  2.7 
 0.599476  0.672  2.7 
 0.596366  0.668  2.7 
 0.596  0.667592  2.7 
 0.593025  0.664  2.7 
 0.592  0.662852  2.7 
 0.589584  0.66  2.7 
 0.588  0.65816  2.7 
 0.586124  0.656  2.7 
 0.584  0.653273  2.7 
 0.582839  0.652  2.7 
 0.58  0.648116  2.7 
 0.579894  0.648  2.7 
 0.576795  0.644  2.7 
 0.576  0.643095  2.7 
 0.573475  0.64  2.7 
 0.572  0.638248  2.7 
 0.570087  0.636  2.7 
 0.568  0.633184  2.7 
 0.56693  0.632  2.7 
 0.564168  0.628  2.7 
 0.564  0.627804  2.7 
 0.561086  0.624  2.7 
 0.56  0.622734  2.7 
 0.557764  0.62  2.7 
 0.556  0.61768  2.7 
 0.554535  0.616  2.7 
 0.552  0.612206  2.7 
 0.551815  0.612  2.7 
 0.548945  0.608  2.7 
 0.548  0.606889  2.7 
 0.545694  0.604  2.7 
 0.544  0.601701  2.7 
 0.542531  0.6  2.7 
 0.54  0.596054  2.7 
 0.539952  0.596  2.7 
 0.537094  0.592  2.7 
 0.536  0.590664  2.7 
 0.533887  0.588  2.7 
 0.532  0.585182  2.7 
 0.530964  0.584  2.7 
 0.528546  0.58  2.7 
 0.528  0.579343  2.7 
 0.525495  0.576  2.7 
 0.524  0.573903  2.7 
 0.522417  0.572  2.7 
 0.520051  0.568  2.7 
 0.52  0.567937  2.7 
 0.517248  0.564  2.7 
 0.516  0.562321  2.7 
 0.514151  0.56  2.7 
 0.512  0.556343  2.7 
 0.511699  0.556  2.7 
 0.509141  0.552  2.7 
 0.508  0.55046  2.7 
 0.506083  0.548  2.7 
 0.504  0.544336  2.7 
 0.503707  0.544  2.7 
 0.501195  0.54  2.7 
 0.5  0.538303  2.7 
 0.498202  0.536  2.7 
 0.496103  0.532  2.7 
 0.496  0.531869  2.7 
 0.4934  0.528  2.7 
 0.492  0.525812  2.7 
 0.490534  0.524  2.7 
 0.488594  0.52  2.7 
 0.488  0.519215  2.7 
 0.485733  0.516  2.7 
 0.484  0.512881  2.7 
 0.483251  0.512  2.7 
 0.481115  0.508  2.7 
 0.48  0.506304  2.7 
 0.478246  0.504  2.7 
 0.476414  0.5  2.7 
 0.476  0.499443  2.7 
 0.473678  0.496  2.7 
 0.472  0.492793  2.7 
 0.471332  0.492  2.7 
 0.469206  0.488  2.7 
 0.468  0.486006  2.7 
 0.466446  0.484  2.7 
 0.464738  0.48  2.7 
 0.464  0.47892  2.7 
 0.461953  0.476  2.7 
 0.460242  0.472  2.7 
 0.46  0.471664  2.7 
 0.457656  0.468  2.7 
 0.456  0.464447  2.7 
 0.455627  0.464  2.7 
 0.453444  0.46  2.7 
 0.452  0.457161  2.7 
 0.451054  0.456  2.7 
 0.449267  0.452  2.7 
 0.448  0.449674  2.7 
 0.446688  0.448  2.7 
 0.445119  0.444  2.7 
 0.444  0.441999  2.7 
 0.442496  0.44  2.7 

 0.6  0.198046  2.7 
 0.596  0.199802  2.7 
 0.595681  0.2  2.7 
 0.593887  0.204  2.7 
 0.593505  0.208  2.7 
 0.593567  0.212  2.7 
 0.593897  0.216  2.7 
 0.594419  0.22  2.7 
 0.595065  0.224  2.7 
 0.595852  0.228  2.7 
 0.596  0.228728  2.7 
 0.596655  0.232  2.7 
 0.597552  0.236  2.7 
 0.598559  0.24  2.7 
 0.599653  0.244  2.7 
 0.6  0.245276  2.7 


# Contour 7, label:      2.2
 0.348  0.141461  2.2 
 0.347005  0.14  2.2 
 0.346247  0.136  2.2 
 0.345597  0.132  2.2 
 0.345262  0.128  2.2 
 0.34507  0.124  2.2 
 0.344935  0.12  2.2 
 0.344836  0.116  2.2 
 0.344696  0.112  2.2 
 0.344166  0.108  2.2 
 0.344  0.107095  2.2 
 0.342465  0.104  2.2 
 0.341916  0.1  2.2 
 0.341746  0.096  2.2 
 0.341457  0.092  2.2 
 0.341274  0.088  2.2 
 0.341122  0.084  2.2 
 0.341029  0.08  2.2 
 0.340946  0.076  2.2 
 0.340877  0.072  2.2 
 0.340812  0.068  2.2 
 0.340694  0.064  2.2 
 0.34036  0.06  2.2 
 0.34  0.0568229  2.2 
 0.339619  0.056  2.2 
 0.338651  0.052  2.2 
 0.338261  0.048  2.2 
 0.338042  0.044  2.2 
 0.337904  0.04  2.2 
 0.337796  0.036  2.2 
 0.337702  0.032  2.2 
 0.33765  0.028  2.2 
 0.33754  0.024  2.2 
 0.337567  0.02  2.2 
 0.337433  0.016  2.2 
 0.337524  0.012  2.2 
 0.337422  0.008  2.2 
 0.337392  0.004  2.2 
 0.33759  0  2.2 

 0.441468  0.44  2.2 
 0.44028  0.436  2.2 
 0.44  0.435498  2.2 
 0.437426  0.432  2.2 
 0.436284  0.428  2.2 
 0.436  0.427478  2.2 
 0.43345  0.424  2.2 
 0.432367  0.42  2.2 
 0.432  0.419295  2.2 
 0.429548  0.416  2.2 
 0.428511  0.412  2.2 
 0.428  0.410936  2.2 
 0.425739  0.408  2.2 
 0.424695  0.404  2.2 
 0.424  0.40235  2.2 
 0.422091  0.4  2.2 
 0.420897  0.396  2.2 
 0.42  0.39335  2.2 
 0.418834  0.392  2.2 
 0.417101  0.388  2.2 
 0.416024  0.384  2.2 
 0.416  0.383953  2.2 
 0.413375  0.38  2.2 
 0.412491  0.376  2.2 
 0.412  0.37485  2.2 
 0.40985  0.372  2.2 
 0.408899  0.368  2.2 
 0.408  0.364898  2.2 
 0.407202  0.364  2.2 
 0.405237  0.36  2.2 
 0.404388  0.356  2.2 
 0.404  0.355073  2.2 
 0.401777  0.352  2.2 
 0.400923  0.348  2.2 
 0.4  0.344434  2.2 
 0.399609  0.344  2.2 
 0.397397  0.34  2.2 
 0.396687  0.336  2.2 
 0.396  0.333958  2.2 
 0.394372  0.332  2.2 
 0.393166  0.328  2.2 
 0.392448  0.324  2.2 
 0.392  0.32281  2.2 
 0.389918  0.32  2.2 
 0.389046  0.316  2.2 
 0.388313  0.312  2.2 
 0.388  0.311162  2.2 
 0.385807  0.308  2.2 
 0.385029  0.304  2.2 
 0.384342  0.3  2.2 
 0.384  0.299034  2.2 
 0.381884  0.296  2.2 
 0.381075  0.292  2.2 
 0.380507  0.288  2.2 
 0.38  0.286441  2.2 
 0.378153  0.284  2.2 
 0.377223  0.28  2.2 
 0.376791  0.276  2.2 
 0.376  0.272609  2.2 
 0.375458  0.272  2.2 
 0.373551  0.268  2.2 
 0.372995  0.264  2.2 
 0.372425  0.26  2.2 
 0.372  0.258604  2.2 
 0.370138  0.256  2.2 
 0.369273  0.252  2.2 
 0.368921  0.248  2.2 
 0.36825  0.244  2.2 
 0.368  0.243167  2.2 
 0.365958  0.24  2.2 
 0.365239  0.236  2.2 
 0.364918  0.232  2.2 
 0.364359  0.228  2.2 
 0.364  0.226728  2.2 
 0.362146  0.224  2.2 
 0.361335  0.22  2.2 
 0.361001  0.216  2.2 
 0.360735  0.212  2.2 
 0.36  0.208226  2.2 
 0.359798  0.208  2.2 
 0.35775  0.204  2.2 
 0.357201  0.2  2.2 
 0.356937  0.196  2.2 
 0.356717  0.192  2.2 
 0.356  0.188138  2.2 
 0.355876  0.188  2.2 
 0.353784  0.184  2.2 
 0.353249  0.18  2.2 
 0.352992  0.176  2.2 
 0.352845  0.172  2.2 
 0.352359  0.168  2.2 
 0.352  0.166449  2.2 
 0.350366  0.164  2.2 
 0.349591  0.16  2.2 
 0.349188  0.156  2.2 
 0.34899  0.152  2.2 
 0.348861  0.148  2.2 
 0.348476  0.144  2.2 
 0.348  0.141461  2.2 

 0.6  0.674292  2.2 
 0.597866  0.672  2.2 
 0.596  0.669538  2.2 
 0.594575  0.668  2.2 
 0.592  0.664442  2.2 
 0.591591  0.664  2.2 
 0.588423  0.66  2.2 
 0.588  0.659509  2.2 
 0.584952  0.656  2.2 
 0.584  0.654778  2.2 
 0.581468  0.652  2.2 
 0.58  0.649992  2.2 
 0.578175  0.648  2.2 
 0.576  0.644847  2.2 
 0.575225  0.644  2.2 
 0.572356  0.64  2.2 
 0.572  0.639577  2.2 
 0.568957  0.636  2.2 
 0.568  0.634709  2.2 
 0.565553  0.632  2.2 
 0.564  0.629737  2.2 
 0.56243  0.628  2.2 
 0.56  0.624085  2.2 
 0.559923  0.624  2.2 
 0.556698  0.62  2.2 
 0.556  0.619083  2.2 
 0.553311  0.616  2.2 
 0.552  0.614037  2.2 
 0.550169  0.612  2.2 
 0.548  0.60838  2.2 
 0.547659  0.608  2.2 
 0.544665  0.604  2.2 
 0.544  0.603097  2.2 
 0.541325  0.6  2.2 
 0.54  0.597934  2.2 
 0.538275  0.596  2.2 
 0.536047  0.592  2.2 
 0.536  0.591943  2.2 
 0.532873  0.588  2.2 
 0.532  0.586697  2.2 
 0.529637  0.584  2.2 
 0.528  0.581145  2.2 
 0.526989  0.58  2.2 
 0.524521  0.576  2.2 
 0.524  0.57527  2.2 
 0.521281  0.572  2.2 
 0.52  0.569833  2.2 
 0.518385  0.568  2.2 
 0.51628  0.564  2.2 
 0.516  0.563623  2.2 
 0.513113  0.56  2.2 
 0.512  0.558107  2.2 
 0.510151  0.556  2.2 
 0.508187  0.552  2.2 
 0.508  0.551748  2.2 
 0.505079  0.548  2.2 
 0.504  0.546102  2.2 
 0.502168  0.544  2.2 
 0.500269  0.54  2.2 
 0.5  0.539619  2.2 
 0.497175  0.536  2.2 
 0.496  0.533762  2.2 
 0.49448  0.532  2.2 
 0.492514  0.528  2.2 
 0.492  0.527196  2.2 
 0.489413  0.524  2.2 
 0.488  0.520913  2.2 
 0.487215  0.52  2.2 
 0.48485  0.516  2.2 
 0.484  0.514471  2.2 
 0.481901  0.512  2.2 
 0.480243  0.508  2.2 
 0.48  0.50763  2.2 
 0.477235  0.504  2.2 
 0.476  0.501249  2.2 
 0.474937  0.5  2.2 
 0.472834  0.496  2.2 
 0.472  0.494407  2.2 
 0.469972  0.492  2.2 
 0.46838  0.488  2.2 
 0.468  0.487371  2.2 
 0.465389  0.484  2.2 
 0.464  0.480405  2.2 
 0.463653  0.48  2.2 
 0.461064  0.476  2.2 
 0.46  0.473518  2.2 
 0.458712  0.472  2.2 
 0.456852  0.468  2.2 
 0.456  0.466171  2.2 
 0.454186  0.464  2.2 
 0.452676  0.46  2.2 
 0.452  0.45867  2.2 
 0.449823  0.456  2.2 
 0.448503  0.452  2.2 
 0.448  0.451077  2.2 
 0.445589  0.448  2.2 
 0.444355  0.444  2.2 
 0.444  0.443366  2.2 
 0.441468  0.44  2.2 

 0.6  0.198671  2.2 
 0.597159  0.2  2.2 
 0.596038  0.204  2.2 
 0.596  0.205245  2.2 
 0.595862  0.208  2.2 
 0.596  0.209719  2.2 
 0.596139  0.212  2.2 
 0.596695  0.216  2.2 
 0.597509  0.22  2.2 
 0.598537  0.224  2.2 
 0.599802  0.228  2.2 
 0.6  0.228603  2.2 


# Contour 8, label:      1.7
 0.348  0.14445  1.7 
 0.347529  0.144  1.7 
 0.345127  0.14  1.7 
 0.344843  0.136  1.7 
 0.344599  0.132  1.7 
 0.344473  0.128  1.7 
 0.344401  0.124  1.7 
 0.34435  0.12  1.7 
 0.344312  0.116  1.7 
 0.344209  0.112  1.7 
 0.344  0.110491  1.7 
 0.341834  0.108  1.7 
 0.340924  0.104  1.7 
 0.340719  0.1  1.7 
 0.340655  0.096  1.7 
 0.340546  0.092  1.7 
 0.340478  0.088  1.7 
 0.340421  0.084  1.7 
 0.340386  0.08  1.7 
 0.340355  0.076  1.7 
 0.340329  0.072  1.7 
 0.340301  0.068  1.7 
 0.340198  0.064  1.7 
 0.34  0.0618691  1.7 
 0.338525  0.06  1.7 
 0.337357  0.056  1.7 
 0.336994  0.052  1.7 
 0.336848  0.048  1.7 
 0.336766  0.044  1.7 
 0.336714  0.04  1.7 
 0.336674  0.036  1.7 
 0.336638  0.032  1.7 
 0.336619  0.028  1.7 
 0.336577  0.024  1.7 
 0.336587  0.02  1.7 
 0.336537  0.016  1.7 
 0.336572  0.012  1.7 
 0.336533  0.008  1.7 
 0.336522  0.004  1.7 
 0.336596  0  1.7 

 0.442089  0.444  1.7 
 0.440439  0.44  1.7 
 0.44  0.438383  1.7 
 0.437928  0.436  1.7 
 0.436428  0.432  1.7 
 0.436  0.430361  1.7 
 0.433951  0.428  1.7 
 0.43245  0.424  1.7 
 0.432  0.422094  1.7 
 0.430179  0.42  1.7 
 0.42851  0.416  1.7 
 0.428  0.41343  1.7 
 0.426741  0.412  1.7 
 0.42461  0.408  1.7 
 0.424007  0.404  1.7 
 0.424  0.403984  1.7 
 0.420763  0.4  1.7 
 0.420196  0.396  1.7 
 0.42  0.395422  1.7 
 0.417043  0.392  1.7 
 0.416314  0.388  1.7 
 0.416  0.386831  1.7 
 0.413521  0.384  1.7 
 0.412456  0.38  1.7 
 0.412  0.377363  1.7 
 0.410801  0.376  1.7 
 0.408683  0.372  1.7 
 0.408242  0.368  1.7 
 0.408  0.367165  1.7 
 0.405189  0.364  1.7 
 0.404399  0.36  1.7 
 0.404  0.357826  1.7 
 0.402398  0.356  1.7 
 0.400659  0.352  1.7 
 0.400275  0.348  1.7 
 0.4  0.346936  1.7 
 0.39735  0.344  1.7 
 0.396502  0.34  1.7 
 0.396085  0.336  1.7 
 0.396  0.335749  1.7 
 0.392883  0.332  1.7 
 0.39239  0.328  1.7 
 0.392  0.325393  1.7 
 0.390764  0.324  1.7 
 0.388713  0.32  1.7 
 0.38835  0.316  1.7 
 0.388  0.31397  1.7 
 0.386206  0.312  1.7 
 0.384673  0.308  1.7 
 0.38435  0.304  1.7 
 0.384  0.301818  1.7 
 0.382331  0.3  1.7 
 0.380703  0.296  1.7 
 0.380371  0.292  1.7 
 0.38  0.288759  1.7 
 0.379318  0.288  1.7 
 0.376807  0.284  1.7 
 0.376453  0.28  1.7 
 0.376225  0.276  1.7 
 0.376  0.275036  1.7 
 0.373296  0.272  1.7 
 0.372578  0.268  1.7 
 0.372346  0.264  1.7 
 0.372  0.261287  1.7 
 0.370814  0.26  1.7 
 0.368802  0.256  1.7 
 0.368476  0.252  1.7 
 0.368335  0.248  1.7 
 0.368  0.245983  1.7 
 0.366067  0.244  1.7 
 0.364734  0.24  1.7 
 0.364463  0.236  1.7 
 0.364332  0.232  1.7 
 0.364  0.229545  1.7 
 0.362511  0.228  1.7 
 0.360805  0.224  1.7 
 0.3605  0.22  1.7 
 0.360372  0.216  1.7 
 0.360219  0.212  1.7 
 0.36  0.210876  1.7 
 0.357424  0.208  1.7 
 0.356656  0.204  1.7 
 0.35645  0.2  1.7 
 0.356349  0.196  1.7 
 0.356219  0.192  1.7 
 0.356  0.190819  1.7 
 0.353453  0.188  1.7 
 0.352669  0.184  1.7 
 0.352469  0.18  1.7 
 0.352375  0.176  1.7 
 0.35233  0.172  1.7 
 0.352  0.169279  1.7 
 0.350666  0.168  1.7 
 0.348887  0.164  1.7 
 0.348597  0.16  1.7 
 0.348446  0.156  1.7 
 0.348373  0.152  1.7 
 0.348333  0.148  1.7 
 0.348  0.14445  1.7 

 0.6  0.676085  1.7 
 0.599918  0.676  1.7 
 0.596256  0.672  1.7 
 0.596  0.671662  1.7 
 0.592607  0.668  1.7 
 0.592  0.667161  1.7 
 0.589073  0.664  1.7 
 0.588  0.662395  1.7 
 0.58577  0.66  1.7 
 0.584  0.657083  1.7 
 0.582969  0.656  1.7 
 0.580097  0.652  1.7 
 0.58  0.651867  1.7 
 0.576457  0.648  1.7 
 0.576  0.647338  1.7 
 0.572948  0.644  1.7 
 0.572  0.642484  1.7 
 0.569712  0.64  1.7 
 0.568  0.636926  1.7 
 0.567124  0.636  1.7 
 0.564175  0.632  1.7 
 0.564  0.631745  1.7 
 0.560617  0.628  1.7 
 0.56  0.627007  1.7 
 0.557277  0.624  1.7 
 0.556  0.62167  1.7 
 0.554439  0.62  1.7 
 0.552088  0.616  1.7 
 0.552  0.615868  1.7 
 0.548522  0.612  1.7 
 0.548  0.611129  1.7 
 0.545191  0.608  1.7 
 0.544  0.605691  1.7 
 0.542425  0.604  1.7 
 0.540119  0.6  1.7 
 0.54  0.599814  1.7 
 0.536598  0.596  1.7 
 0.536  0.594912  1.7 
 0.533399  0.592  1.7 
 0.532  0.588852  1.7 
 0.531207  0.588  1.7 
 0.52831  0.584  1.7 
 0.528  0.583459  1.7 
 0.524945  0.58  1.7 
 0.524  0.578007  1.7 
 0.522164  0.576  1.7 
 0.520145  0.572  1.7 
 0.52  0.571755  1.7 
 0.516693  0.568  1.7 
 0.516  0.566537  1.7 
 0.513732  0.564  1.7 
 0.512075  0.56  1.7 
 0.512  0.559872  1.7 
 0.508603  0.556  1.7 
 0.508  0.554695  1.7 
 0.505613  0.552  1.7 
 0.504076  0.548  1.7 
 0.504  0.547867  1.7 
 0.50063  0.544  1.7 
 0.5  0.542538  1.7 
 0.497748  0.54  1.7 
 0.496148  0.536  1.7 
 0.496  0.535718  1.7 
 0.492793  0.532  1.7 
 0.492  0.529886  1.7 
 0.490299  0.528  1.7 
 0.488293  0.524  1.7 
 0.488  0.52336  1.7 
 0.485113  0.52  1.7 
 0.484  0.516268  1.7 
 0.483755  0.516  1.7 
 0.480551  0.512  1.7 
 0.48  0.510555  1.7 
 0.477751  0.508  1.7 
 0.476225  0.504  1.7 
 0.476  0.503499  1.7 
 0.473021  0.5  1.7 
 0.472  0.496093  1.7 
 0.471916  0.496  1.7 
 0.468612  0.492  1.7 
 0.468  0.490181  1.7 
 0.466061  0.488  1.7 
 0.464331  0.484  1.7 
 0.464  0.483143  1.7 
 0.46131  0.48  1.7 
 0.460176  0.476  1.7 
 0.46  0.475591  1.7 
 0.456955  0.472  1.7 
 0.456049  0.468  1.7 
 0.456  0.467895  1.7 
 0.452746  0.464  1.7 
 0.452  0.460749  1.7 
 0.451328  0.46  1.7 
 0.448592  0.456  1.7 
 0.448  0.453661  1.7 
 0.446529  0.452  1.7 
 0.44449  0.448  1.7 
 0.444  0.446183  1.7 
 0.442089  0.444  1.7 

 0.6  0.199296  1.7 
 0.598494  0.2  1.7 
 0.597474  0.204  1.7 
 0.597255  0.208  1.7 
 0.597923  0.212  1.7 
 0.598911  0.216  1.7 
 0.6  0.219453  1.7 


# Contour 9, label:      1.2
 0.6  0.19992  1.2 
 0.59983  0.2  1.2 
 0.598911  0.204  1.2 
 0.598588  0.208  1.2 
 0.599708  0.212  1.2 
 0.6  0.212974  1.2 


# Contour 10, label:      0.7
 0.6  0.207213  0.7 
 0.599921  0.208  0.7 
 0.6  0.208264  0.7 

