\relax 
\@writefile{lot}{\contentsline {table}{\numberline {1}{\ignorespaces 1D Shock Problem Initial Conditions\relax }}{1}}
\providecommand*\caption@xref[2]{\@setref\relax\@undefined{#1}}
\newlabel{reltol}{{1}{1}}
\@writefile{lof}{\contentsline {figure}{\numberline {1}{\ignorespaces Test Case 1, time = 0.2\relax }}{1}}
\@writefile{lof}{\contentsline {figure}{\numberline {2}{\ignorespaces Test Case 2, time = 0.15\relax }}{2}}
\@writefile{lof}{\contentsline {figure}{\numberline {3}{\ignorespaces Test Case 3, time = 0.012\relax }}{2}}
\@writefile{lof}{\contentsline {figure}{\numberline {4}{\ignorespaces Test Case 4, time = 0.035\relax }}{3}}
\@writefile{lof}{\contentsline {figure}{\numberline {5}{\ignorespaces Test Case 5, time = 0.012\relax }}{3}}
\newlabel{LastPage}{{}{3}}
