GFORTRAN module version '6' created from ExtactRiemannSolver.f95 on Sun Jun 30 21:50:47 2013
MD5:cbe563cbb58910d35039ea396112e956 -- If you edit this, you'll get what you deserve.

(() () () () () () () () () () () () () () () () () () () () () () ()
() () () ())

()

()

()

()

()

(2 'a' 'exactriemannsolver' 'a' 1 ((VARIABLE UNKNOWN-INTENT UNKNOWN-PROC
UNKNOWN IMPLICIT-SAVE 0 0 DIMENSION) (REAL 4 0 0 REAL ()) 0 0 () (1 0
EXPLICIT (CONSTANT (INTEGER 4 0 0 INTEGER ()) 0 '1') (CONSTANT (INTEGER
4 0 0 INTEGER ()) 0 '3')) 0 () () () 0 0)
3 'al' 'exactriemannsolver' 'al' 1 ((VARIABLE UNKNOWN-INTENT
UNKNOWN-PROC UNKNOWN IMPLICIT-SAVE 0 0) (REAL 4 0 0 REAL ()) 0 0 () () 0
() () () 0 0)
4 'ar' 'exactriemannsolver' 'ar' 1 ((VARIABLE UNKNOWN-INTENT
UNKNOWN-PROC UNKNOWN IMPLICIT-SAVE 0 0) (REAL 4 0 0 REAL ()) 0 0 () () 0
() () () 0 0)
5 'b' 'exactriemannsolver' 'b' 1 ((VARIABLE UNKNOWN-INTENT UNKNOWN-PROC
UNKNOWN IMPLICIT-SAVE 0 0 DIMENSION) (REAL 4 0 0 REAL ()) 0 0 () (1 0
EXPLICIT (CONSTANT (INTEGER 4 0 0 INTEGER ()) 0 '1') (CONSTANT (INTEGER
4 0 0 INTEGER ()) 0 '3')) 0 () () () 0 0)
6 'calcf' 'exactriemannsolver' 'calcf' 1 ((PROCEDURE UNKNOWN-INTENT
MODULE-PROC DECL UNKNOWN 0 0 SUBROUTINE IMPLICIT_PURE) (UNKNOWN 0 0 0
UNKNOWN ()) 7 0 (8 9 10 11 12 13 14 15 16) () 0 () () () 0 0)
17 'calcpguess' 'exactriemannsolver' 'calcpguess' 1 ((PROCEDURE
UNKNOWN-INTENT MODULE-PROC DECL UNKNOWN 0 0 SUBROUTINE IMPLICIT_PURE) (
UNKNOWN 0 0 0 UNKNOWN ()) 18 0 (19 20 21 22 23 24 25 26) () 0 () () () 0
0)
27 'calcprop' 'exactriemannsolver' 'calcprop' 1 ((PROCEDURE
UNKNOWN-INTENT MODULE-PROC DECL UNKNOWN 0 0 SUBROUTINE IMPLICIT_PURE) (
UNKNOWN 0 0 0 UNKNOWN ()) 28 0 (29 30 31 32 33 34 35 36 37 38) () 0 () ()
() 0 0)
39 'calcpus' 'exactriemannsolver' 'calcpus' 1 ((PROCEDURE UNKNOWN-INTENT
MODULE-PROC DECL UNKNOWN 0 0 SUBROUTINE) (UNKNOWN 0 0 0 UNKNOWN ()) 40 0
(41 42 43 44 45 46 47 48 49) () 0 () () () 0 0)
50 'consta' 'exactriemannsolver' 'consta' 1 ((PROCEDURE UNKNOWN-INTENT
MODULE-PROC DECL UNKNOWN 0 0 FUNCTION) (REAL 4 0 0 REAL ()) 51 0 (52 53)
() 50 () () () 0 0)
54 'constb' 'exactriemannsolver' 'constb' 1 ((PROCEDURE UNKNOWN-INTENT
MODULE-PROC DECL UNKNOWN 0 0 FUNCTION) (REAL 4 0 0 REAL ()) 55 0 (56 57)
() 54 () () () 0 0)
58 'exactriemannsolver' 'exactriemannsolver' 'exactriemannsolver' 1 ((
MODULE UNKNOWN-INTENT UNKNOWN-PROC UNKNOWN UNKNOWN 0 0) (UNKNOWN 0 0 0
UNKNOWN ()) 0 0 () () 0 () () () 0 0)
59 'init' 'exactriemannsolver' 'init' 1 ((PROCEDURE UNKNOWN-INTENT
MODULE-PROC DECL UNKNOWN 0 0 SUBROUTINE) (UNKNOWN 0 0 0 UNKNOWN ()) 60 0
(61 62 63 64 65 66 67) () 0 () () () 0 0)
68 'ps' 'exactriemannsolver' 'ps' 1 ((VARIABLE UNKNOWN-INTENT
UNKNOWN-PROC UNKNOWN IMPLICIT-SAVE 0 0) (REAL 4 0 0 REAL ()) 0 0 () () 0
() () () 0 0)
69 'riemannsolver' 'exactriemannsolver' 'riemannsolver' 1 ((PROCEDURE
UNKNOWN-INTENT MODULE-PROC DECL UNKNOWN 0 0 SUBROUTINE) (UNKNOWN 0 0 0
UNKNOWN ()) 70 0 (71 72 73 74) () 0 () () () 0 0)
75 's' 'exactriemannsolver' 's' 1 ((VARIABLE UNKNOWN-INTENT UNKNOWN-PROC
UNKNOWN IMPLICIT-SAVE 0 0) (REAL 4 0 0 REAL ()) 0 0 () () 0 () () () 0 0)
76 'state' 'exactriemannsolver' 'state' 1 ((VARIABLE UNKNOWN-INTENT
UNKNOWN-PROC UNKNOWN IMPLICIT-SAVE 0 0 DIMENSION) (INTEGER 4 0 0 INTEGER
()) 0 0 () (1 0 EXPLICIT (CONSTANT (INTEGER 4 0 0 INTEGER ()) 0 '1') (
CONSTANT (INTEGER 4 0 0 INTEGER ()) 0 '2')) 0 () () () 0 0)
77 'us' 'exactriemannsolver' 'us' 1 ((VARIABLE UNKNOWN-INTENT
UNKNOWN-PROC UNKNOWN IMPLICIT-SAVE 0 0) (REAL 4 0 0 REAL ()) 0 0 () () 0
() () () 0 0)
78 'wl' 'exactriemannsolver' 'wl' 1 ((VARIABLE UNKNOWN-INTENT
UNKNOWN-PROC UNKNOWN IMPLICIT-SAVE 0 0 DIMENSION) (REAL 4 0 0 REAL ()) 0
0 () (1 0 EXPLICIT (CONSTANT (INTEGER 4 0 0 INTEGER ()) 0 '1') (
CONSTANT (INTEGER 4 0 0 INTEGER ()) 0 '3')) 0 () () () 0 0)
79 'wr' 'exactriemannsolver' 'wr' 1 ((VARIABLE UNKNOWN-INTENT
UNKNOWN-PROC UNKNOWN IMPLICIT-SAVE 0 0 DIMENSION) (REAL 4 0 0 REAL ()) 0
0 () (1 0 EXPLICIT (CONSTANT (INTEGER 4 0 0 INTEGER ()) 0 '1') (
CONSTANT (INTEGER 4 0 0 INTEGER ()) 0 '3')) 0 () () () 0 0)
80 'ws' 'exactriemannsolver' 'ws' 1 ((VARIABLE UNKNOWN-INTENT
UNKNOWN-PROC UNKNOWN IMPLICIT-SAVE 0 0 DIMENSION) (REAL 4 0 0 REAL ()) 0
0 () (1 0 EXPLICIT (CONSTANT (INTEGER 4 0 0 INTEGER ()) 0 '1') (
CONSTANT (INTEGER 4 0 0 INTEGER ()) 0 '3')) 0 () () () 0 0)
71 'wl' '' 'wl' 70 ((VARIABLE IN UNKNOWN-PROC UNKNOWN UNKNOWN 0 0
DIMENSION DUMMY) (REAL 4 0 0 REAL ()) 0 0 () (1 0 EXPLICIT (CONSTANT (
INTEGER 4 0 0 INTEGER ()) 0 '1') (CONSTANT (INTEGER 4 0 0 INTEGER ()) 0
'3')) 0 () () () 0 0)
72 'wr' '' 'wr' 70 ((VARIABLE IN UNKNOWN-PROC UNKNOWN UNKNOWN 0 0
DIMENSION DUMMY) (REAL 4 0 0 REAL ()) 0 0 () (1 0 EXPLICIT (CONSTANT (
INTEGER 4 0 0 INTEGER ()) 0 '1') (CONSTANT (INTEGER 4 0 0 INTEGER ()) 0
'3')) 0 () () () 0 0)
73 'gamma' '' 'gamma' 70 ((VARIABLE IN UNKNOWN-PROC UNKNOWN UNKNOWN 0 0
DUMMY) (REAL 4 0 0 REAL ()) 0 0 () () 0 () () () 0 0)
74 'ws' '' 'ws' 70 ((VARIABLE OUT UNKNOWN-PROC UNKNOWN UNKNOWN 0 0
DIMENSION DUMMY) (REAL 4 0 0 REAL ()) 0 0 () (1 0 EXPLICIT (CONSTANT (
INTEGER 4 0 0 INTEGER ()) 0 '1') (CONSTANT (INTEGER 4 0 0 INTEGER ()) 0
'3')) 0 () () () 0 0)
61 'wl' '' 'wl' 60 ((VARIABLE IN UNKNOWN-PROC UNKNOWN UNKNOWN 0 0
DIMENSION DUMMY) (REAL 4 0 0 REAL ()) 0 0 () (1 0 EXPLICIT (CONSTANT (
INTEGER 4 0 0 INTEGER ()) 0 '1') (CONSTANT (INTEGER 4 0 0 INTEGER ()) 0
'3')) 0 () () () 0 0)
62 'wr' '' 'wr' 60 ((VARIABLE IN UNKNOWN-PROC UNKNOWN UNKNOWN 0 0
DIMENSION DUMMY) (REAL 4 0 0 REAL ()) 0 0 () (1 0 EXPLICIT (CONSTANT (
INTEGER 4 0 0 INTEGER ()) 0 '1') (CONSTANT (INTEGER 4 0 0 INTEGER ()) 0
'3')) 0 () () () 0 0)
63 'gamma' '' 'gamma' 60 ((VARIABLE IN UNKNOWN-PROC UNKNOWN UNKNOWN 0 0
DUMMY) (REAL 4 0 0 REAL ()) 0 0 () () 0 () () () 0 0)
64 'al' '' 'al' 60 ((VARIABLE OUT UNKNOWN-PROC UNKNOWN UNKNOWN 0 0 DUMMY)
(REAL 4 0 0 REAL ()) 0 0 () () 0 () () () 0 0)
65 'ar' '' 'ar' 60 ((VARIABLE OUT UNKNOWN-PROC UNKNOWN UNKNOWN 0 0 DUMMY)
(REAL 4 0 0 REAL ()) 0 0 () () 0 () () () 0 0)
66 'a' '' 'a' 60 ((VARIABLE OUT UNKNOWN-PROC UNKNOWN UNKNOWN 0 0
DIMENSION DUMMY) (REAL 4 0 0 REAL ()) 0 0 () (1 0 EXPLICIT (CONSTANT (
INTEGER 4 0 0 INTEGER ()) 0 '1') (CONSTANT (INTEGER 4 0 0 INTEGER ()) 0
'2')) 0 () () () 0 0)
67 'b' '' 'b' 60 ((VARIABLE OUT UNKNOWN-PROC UNKNOWN UNKNOWN 0 0
DIMENSION DUMMY) (REAL 4 0 0 REAL ()) 0 0 () (1 0 EXPLICIT (CONSTANT (
INTEGER 4 0 0 INTEGER ()) 0 '1') (CONSTANT (INTEGER 4 0 0 INTEGER ()) 0
'2')) 0 () () () 0 0)
52 'rho' '' 'rho' 51 ((VARIABLE UNKNOWN-INTENT UNKNOWN-PROC UNKNOWN
UNKNOWN 0 0 DUMMY) (REAL 4 0 0 REAL ()) 0 0 () () 0 () () () 0 0)
53 'gamma' '' 'gamma' 51 ((VARIABLE UNKNOWN-INTENT UNKNOWN-PROC UNKNOWN
UNKNOWN 0 0 DUMMY) (REAL 4 0 0 REAL ()) 0 0 () () 0 () () () 0 0)
56 'p' '' 'p' 55 ((VARIABLE UNKNOWN-INTENT UNKNOWN-PROC UNKNOWN UNKNOWN
0 0 DUMMY) (REAL 4 0 0 REAL ()) 0 0 () () 0 () () () 0 0)
57 'gamma' '' 'gamma' 55 ((VARIABLE UNKNOWN-INTENT UNKNOWN-PROC UNKNOWN
UNKNOWN 0 0 DUMMY) (REAL 4 0 0 REAL ()) 0 0 () () 0 () () () 0 0)
41 'wl' '' 'wl' 40 ((VARIABLE IN UNKNOWN-PROC UNKNOWN UNKNOWN 0 0
DIMENSION DUMMY) (REAL 4 0 0 REAL ()) 0 0 () (1 0 EXPLICIT (CONSTANT (
INTEGER 4 0 0 INTEGER ()) 0 '1') (CONSTANT (INTEGER 4 0 0 INTEGER ()) 0
'3')) 0 () () () 0 0)
42 'wr' '' 'wr' 40 ((VARIABLE IN UNKNOWN-PROC UNKNOWN UNKNOWN 0 0
DIMENSION DUMMY) (REAL 4 0 0 REAL ()) 0 0 () (1 0 EXPLICIT (CONSTANT (
INTEGER 4 0 0 INTEGER ()) 0 '1') (CONSTANT (INTEGER 4 0 0 INTEGER ()) 0
'3')) 0 () () () 0 0)
43 'a' '' 'a' 40 ((VARIABLE IN UNKNOWN-PROC UNKNOWN UNKNOWN 0 0
DIMENSION DUMMY) (REAL 4 0 0 REAL ()) 0 0 () (1 0 EXPLICIT (CONSTANT (
INTEGER 4 0 0 INTEGER ()) 0 '1') (CONSTANT (INTEGER 4 0 0 INTEGER ()) 0
'2')) 0 () () () 0 0)
44 'b' '' 'b' 40 ((VARIABLE IN UNKNOWN-PROC UNKNOWN UNKNOWN 0 0
DIMENSION DUMMY) (REAL 4 0 0 REAL ()) 0 0 () (1 0 EXPLICIT (CONSTANT (
INTEGER 4 0 0 INTEGER ()) 0 '1') (CONSTANT (INTEGER 4 0 0 INTEGER ()) 0
'2')) 0 () () () 0 0)
45 'gamma' '' 'gamma' 40 ((VARIABLE IN UNKNOWN-PROC UNKNOWN UNKNOWN 0 0
DUMMY) (REAL 4 0 0 REAL ()) 0 0 () () 0 () () () 0 0)
46 'al' '' 'al' 40 ((VARIABLE IN UNKNOWN-PROC UNKNOWN UNKNOWN 0 0 DUMMY)
(REAL 4 0 0 REAL ()) 0 0 () () 0 () () () 0 0)
47 'ar' '' 'ar' 40 ((VARIABLE IN UNKNOWN-PROC UNKNOWN UNKNOWN 0 0 DUMMY)
(REAL 4 0 0 REAL ()) 0 0 () () 0 () () () 0 0)
48 'p' '' 'p' 40 ((VARIABLE OUT UNKNOWN-PROC UNKNOWN UNKNOWN 0 0 DUMMY)
(REAL 4 0 0 REAL ()) 0 0 () () 0 () () () 0 0)
49 'u' '' 'u' 40 ((VARIABLE OUT UNKNOWN-PROC UNKNOWN UNKNOWN 0 0 DUMMY)
(REAL 4 0 0 REAL ()) 0 0 () () 0 () () () 0 0)
19 'wl' '' 'wl' 18 ((VARIABLE IN UNKNOWN-PROC UNKNOWN UNKNOWN 0 0
DIMENSION DUMMY) (REAL 4 0 0 REAL ()) 0 0 () (1 0 EXPLICIT (CONSTANT (
INTEGER 4 0 0 INTEGER ()) 0 '1') (CONSTANT (INTEGER 4 0 0 INTEGER ()) 0
'3')) 0 () () () 0 0)
20 'wr' '' 'wr' 18 ((VARIABLE IN UNKNOWN-PROC UNKNOWN UNKNOWN 0 0
DIMENSION DUMMY) (REAL 4 0 0 REAL ()) 0 0 () (1 0 EXPLICIT (CONSTANT (
INTEGER 4 0 0 INTEGER ()) 0 '1') (CONSTANT (INTEGER 4 0 0 INTEGER ()) 0
'3')) 0 () () () 0 0)
22 'b' '' 'b' 18 ((VARIABLE IN UNKNOWN-PROC UNKNOWN UNKNOWN 0 0
DIMENSION DUMMY) (REAL 4 0 0 REAL ()) 0 0 () (1 0 EXPLICIT (CONSTANT (
INTEGER 4 0 0 INTEGER ()) 0 '1') (CONSTANT (INTEGER 4 0 0 INTEGER ()) 0
'2')) 0 () () () 0 0)
21 'a' '' 'a' 18 ((VARIABLE IN UNKNOWN-PROC UNKNOWN UNKNOWN 0 0
DIMENSION DUMMY) (REAL 4 0 0 REAL ()) 0 0 () (1 0 EXPLICIT (CONSTANT (
INTEGER 4 0 0 INTEGER ()) 0 '1') (CONSTANT (INTEGER 4 0 0 INTEGER ()) 0
'2')) 0 () () () 0 0)
23 'al' '' 'al' 18 ((VARIABLE IN UNKNOWN-PROC UNKNOWN UNKNOWN 0 0 DUMMY)
(REAL 4 0 0 REAL ()) 0 0 () () 0 () () () 0 0)
24 'ar' '' 'ar' 18 ((VARIABLE IN UNKNOWN-PROC UNKNOWN UNKNOWN 0 0 DUMMY)
(REAL 4 0 0 REAL ()) 0 0 () () 0 () () () 0 0)
25 'gamma' '' 'gamma' 18 ((VARIABLE IN UNKNOWN-PROC UNKNOWN UNKNOWN 0 0
DUMMY) (REAL 4 0 0 REAL ()) 0 0 () () 0 () () () 0 0)
26 'po' '' 'po' 18 ((VARIABLE OUT UNKNOWN-PROC UNKNOWN UNKNOWN 0 0 DUMMY)
(REAL 4 0 0 REAL ()) 0 0 () () 0 () () () 0 0)
29 'wl' '' 'wl' 28 ((VARIABLE IN UNKNOWN-PROC UNKNOWN UNKNOWN 0 0
DIMENSION DUMMY) (REAL 4 0 0 REAL ()) 0 0 () (1 0 EXPLICIT (CONSTANT (
INTEGER 4 0 0 INTEGER ()) 0 '1') (CONSTANT (INTEGER 4 0 0 INTEGER ()) 0
'3')) 0 () () () 0 0)
30 'wr' '' 'wr' 28 ((VARIABLE IN UNKNOWN-PROC UNKNOWN UNKNOWN 0 0
DIMENSION DUMMY) (REAL 4 0 0 REAL ()) 0 0 () (1 0 EXPLICIT (CONSTANT (
INTEGER 4 0 0 INTEGER ()) 0 '1') (CONSTANT (INTEGER 4 0 0 INTEGER ()) 0
'3')) 0 () () () 0 0)
31 'gamma' '' 'gamma' 28 ((VARIABLE IN UNKNOWN-PROC UNKNOWN UNKNOWN 0 0
DUMMY) (REAL 4 0 0 REAL ()) 0 0 () () 0 () () () 0 0)
32 'al' '' 'al' 28 ((VARIABLE IN UNKNOWN-PROC UNKNOWN UNKNOWN 0 0 DUMMY)
(REAL 4 0 0 REAL ()) 0 0 () () 0 () () () 0 0)
33 'ar' '' 'ar' 28 ((VARIABLE IN UNKNOWN-PROC UNKNOWN UNKNOWN 0 0 DUMMY)
(REAL 4 0 0 REAL ()) 0 0 () () 0 () () () 0 0)
34 's' '' 's' 28 ((VARIABLE IN UNKNOWN-PROC UNKNOWN UNKNOWN 0 0 DUMMY) (
REAL 4 0 0 REAL ()) 0 0 () () 0 () () () 0 0)
35 'us' '' 'us' 28 ((VARIABLE IN UNKNOWN-PROC UNKNOWN UNKNOWN 0 0 DUMMY)
(REAL 4 0 0 REAL ()) 0 0 () () 0 () () () 0 0)
36 'ps' '' 'ps' 28 ((VARIABLE IN UNKNOWN-PROC UNKNOWN UNKNOWN 0 0 DUMMY)
(REAL 4 0 0 REAL ()) 0 0 () () 0 () () () 0 0)
37 'state' '' 'state' 28 ((VARIABLE OUT UNKNOWN-PROC UNKNOWN UNKNOWN 0 0
DIMENSION DUMMY) (INTEGER 4 0 0 INTEGER ()) 0 0 () (1 0 EXPLICIT (
CONSTANT (INTEGER 4 0 0 INTEGER ()) 0 '1') (CONSTANT (INTEGER 4 0 0
INTEGER ()) 0 '2')) 0 () () () 0 0)
38 'ws' '' 'ws' 28 ((VARIABLE OUT UNKNOWN-PROC UNKNOWN UNKNOWN 0 0
DIMENSION DUMMY) (REAL 4 0 0 REAL ()) 0 0 () (1 0 EXPLICIT (CONSTANT (
INTEGER 4 0 0 INTEGER ()) 0 '1') (CONSTANT (INTEGER 4 0 0 INTEGER ()) 0
'3')) 0 () () () 0 0)
8 'gamma' '' 'gamma' 7 ((VARIABLE IN UNKNOWN-PROC UNKNOWN UNKNOWN 0 0
DUMMY) (REAL 4 0 0 REAL ()) 0 0 () () 0 () () () 0 0)
9 'ck' '' 'ck' 7 ((VARIABLE IN UNKNOWN-PROC UNKNOWN UNKNOWN 0 0 DUMMY) (
REAL 4 0 0 REAL ()) 0 0 () () 0 () () () 0 0)
10 'ak' '' 'ak' 7 ((VARIABLE IN UNKNOWN-PROC UNKNOWN UNKNOWN 0 0 DUMMY)
(REAL 4 0 0 REAL ()) 0 0 () () 0 () () () 0 0)
11 'bk' '' 'bk' 7 ((VARIABLE IN UNKNOWN-PROC UNKNOWN UNKNOWN 0 0 DUMMY)
(REAL 4 0 0 REAL ()) 0 0 () () 0 () () () 0 0)
12 'pk' '' 'pk' 7 ((VARIABLE IN UNKNOWN-PROC UNKNOWN UNKNOWN 0 0 DUMMY)
(REAL 4 0 0 REAL ()) 0 0 () () 0 () () () 0 0)
13 'rhok' '' 'rhok' 7 ((VARIABLE IN UNKNOWN-PROC UNKNOWN UNKNOWN 0 0
DUMMY) (REAL 4 0 0 REAL ()) 0 0 () () 0 () () () 0 0)
14 'p' '' 'p' 7 ((VARIABLE IN UNKNOWN-PROC UNKNOWN UNKNOWN 0 0 DUMMY) (
REAL 4 0 0 REAL ()) 0 0 () () 0 () () () 0 0)
15 'fk' '' 'fk' 7 ((VARIABLE OUT UNKNOWN-PROC UNKNOWN UNKNOWN 0 0 DUMMY)
(REAL 4 0 0 REAL ()) 0 0 () () 0 () () () 0 0)
16 'dfk' '' 'dfk' 7 ((VARIABLE OUT UNKNOWN-PROC UNKNOWN UNKNOWN 0 0
DUMMY) (REAL 4 0 0 REAL ()) 0 0 () () 0 () () () 0 0)
)

('a' 0 2 'al' 0 3 'ar' 0 4 'b' 0 5 'calcf' 0 6 'calcpguess' 0 17
'calcprop' 0 27 'calcpus' 0 39 'consta' 0 50 'constb' 0 54
'exactriemannsolver' 0 58 'init' 0 59 'ps' 0 68 'riemannsolver' 0 69 's'
0 75 'state' 0 76 'us' 0 77 'wl' 0 78 'wr' 0 79 'ws' 0 80)
