
# Surface 0 of 1 surfaces

# Curve title: ""output_t1.0_A.dat""
# Contour 0, label:      5.7
 0.549201  0  5.7 
 0.548541  0.0125  5.7 
 0.545542  0.025  5.7 
 0.545985  0.0375  5.7 
 0.546649  0.05  5.7 
 0.547361  0.0625  5.7 
 0.547409  0.075  5.7 
 0.546646  0.0875  5.7 
 0.545041  0.1  5.7 
 0.542159  0.1125  5.7 
 0.537545  0.125  5.7 
 0.5375  0.125088  5.7 
 0.525  0.130415  5.7 
 0.5125  0.132641  5.7 
 0.5  0.135984  5.7 
 0.494725  0.1375  5.7 
 0.4875  0.139535  5.7 
 0.475004  0.1375  5.7 
 0.468301  0.125  5.7 
 0.462975  0.1125  5.7 
 0.4625  0.111308  5.7 
 0.455505  0.1  5.7 
 0.45  0.0924511  5.7 
 0.4375  0.0901037  5.7 
 0.425  0.0919838  5.7 
 0.4125  0.0909757  5.7 
 0.407533  0.0875  5.7 
 0.4  0.079477  5.7 
 0.398412  0.075  5.7 
 0.397436  0.0625  5.7 
 0.397809  0.05  5.7 
 0.396757  0.0375  5.7 
 0.39841  0.025  5.7 
 0.395627  0.0125  5.7 
 0.390796  0  5.7 


# Contour 1, label:      5.2
 0.406265  0.325  5.2 
 0.4  0.320703  5.2 
 0.3875  0.319662  5.2 
 0.386967  0.325  5.2 
 0.3875  0.327534  5.2 
 0.4  0.33213  5.2 
 0.406265  0.325  5.2 

 0.566059  0  5.2 
 0.5625  0.00845883  5.2 
 0.562434  0.0125  5.2 
 0.561534  0.025  5.2 
 0.561691  0.0375  5.2 
 0.561937  0.05  5.2 
 0.562274  0.0625  5.2 
 0.5625  0.0707716  5.2 
 0.564734  0.075  5.2 
 0.567877  0.0875  5.2 
 0.567289  0.1  5.2 
 0.564168  0.1125  5.2 
 0.5625  0.115615  5.2 
 0.562135  0.125  5.2 
 0.561241  0.1375  5.2 
 0.55973  0.15  5.2 
 0.557254  0.1625  5.2 
 0.553182  0.175  5.2 
 0.55  0.182447  5.2 
 0.543512  0.1875  5.2 
 0.5375  0.192111  5.2 
 0.525  0.199978  5.2 
 0.524968  0.2  5.2 
 0.5125  0.209616  5.2 
 0.508786  0.2125  5.2 
 0.5  0.21988  5.2 
 0.493369  0.225  5.2 
 0.4875  0.229698  5.2 
 0.475  0.237392  5.2 
 0.47474  0.2375  5.2 
 0.4625  0.244276  5.2 
 0.451391  0.25  5.2 
 0.45  0.253688  5.2 
 0.44769  0.2625  5.2 
 0.438111  0.275  5.2 
 0.4375  0.275486  5.2 
 0.425  0.281425  5.2 
 0.416462  0.2875  5.2 
 0.4125  0.295417  5.2 
 0.408588  0.3  5.2 
 0.4  0.302061  5.2 
 0.3875  0.302845  5.2 
 0.386011  0.3  5.2 
 0.375  0.292611  5.2 
 0.373999  0.2875  5.2 
 0.375  0.277937  5.2 
 0.3875  0.275223  5.2 
 0.388167  0.275  5.2 
 0.3875  0.274712  5.2 
 0.375  0.268189  5.2 
 0.374002  0.2625  5.2 
 0.3625  0.251708  5.2 
 0.362079  0.25  5.2 
 0.362402  0.2375  5.2 
 0.3625  0.230622  5.2 
 0.365249  0.225  5.2 
 0.3625  0.223151  5.2 
 0.361247  0.2125  5.2 
 0.354831  0.2  5.2 
 0.35  0.197571  5.2 
 0.348432  0.1875  5.2 
 0.349799  0.175  5.2 
 0.349457  0.1625  5.2 
 0.348167  0.15  5.2 
 0.346727  0.1375  5.2 
 0.343481  0.125  5.2 
 0.3375  0.116843  5.2 
 0.337038  0.1125  5.2 
 0.336473  0.1  5.2 
 0.336322  0.0875  5.2 
 0.337429  0.075  5.2 
 0.336991  0.0625  5.2 
 0.336696  0.05  5.2 
 0.335824  0.0375  5.2 
 0.336384  0.025  5.2 
 0.336145  0.0125  5.2 
 0.335741  0  5.2 

 0.5875  0.179013  5.2 
 0.585842  0.175  5.2 
 0.581648  0.1625  5.2 
 0.578984  0.15  5.2 
 0.577331  0.1375  5.2 
 0.576329  0.125  5.2 
 0.575762  0.1125  5.2 
 0.575496  0.1  5.2 
 0.575419  0.0875  5.2 
 0.575544  0.075  5.2 
 0.575817  0.0625  5.2 
 0.576097  0.05  5.2 
 0.576298  0.0375  5.2 
 0.576429  0.025  5.2 
 0.575525  0.0125  5.2 
 0.575348  0  5.2 


# Contour 2, label:      4.7
 0.491531  0.5125  4.7 
 0.4875  0.508456  4.7 
 0.486259  0.5125  4.7 
 0.4875  0.517027  4.7 
 0.491531  0.5125  4.7 

 0.5875  0.188948  4.7 
 0.575901  0.1875  4.7 
 0.575  0.185497  4.7 
 0.570314  0.1875  4.7 
 0.5625  0.188723  4.7 
 0.553927  0.2  4.7 
 0.55  0.208365  4.7 
 0.545721  0.2125  4.7 
 0.53817  0.225  4.7 
 0.5375  0.226501  4.7 
 0.530178  0.2375  4.7 
 0.525  0.247504  4.7 
 0.523361  0.25  4.7 
 0.517022  0.2625  4.7 
 0.513464  0.275  4.7 
 0.5125  0.278433  4.7 
 0.50903  0.2875  4.7 
 0.503489  0.3  4.7 
 0.5  0.306597  4.7 
 0.496255  0.3125  4.7 
 0.489152  0.325  4.7 
 0.4875  0.329452  4.7 
 0.484334  0.3375  4.7 
 0.481455  0.35  4.7 
 0.479948  0.3625  4.7 
 0.477033  0.375  4.7 
 0.475  0.385405  4.7 
 0.474576  0.3875  4.7 
 0.472027  0.4  4.7 
 0.471306  0.4125  4.7 
 0.471179  0.425  4.7 
 0.472298  0.4375  4.7 
 0.473329  0.45  4.7 
 0.475  0.459994  4.7 
 0.475427  0.4625  4.7 
 0.475  0.46636  4.7 
 0.474036  0.475  4.7 
 0.475  0.476199  4.7 
 0.482167  0.4875  4.7 
 0.475  0.496678  4.7 
 0.469583  0.4875  4.7 
 0.4625  0.481158  4.7 
 0.46105  0.475  4.7 
 0.45  0.464222  4.7 
 0.449378  0.4625  4.7 
 0.445964  0.45  4.7 
 0.4375  0.441496  4.7 
 0.436326  0.4375  4.7 
 0.431467  0.425  4.7 
 0.425  0.418357  4.7 
 0.423495  0.4125  4.7 
 0.419126  0.4  4.7 
 0.4125  0.394051  4.7 
 0.410663  0.3875  4.7 
 0.409401  0.375  4.7 
 0.4  0.365879  4.7 
 0.398817  0.3625  4.7 
 0.398062  0.35  4.7 
 0.387674  0.3375  4.7 
 0.3875  0.33737  4.7 
 0.384899  0.325  4.7 
 0.384657  0.3125  4.7 
 0.375  0.30125  4.7 
 0.37454  0.3  4.7 
 0.372078  0.2875  4.7 
 0.372018  0.275  4.7 
 0.366537  0.2625  4.7 
 0.3625  0.258712  4.7 
 0.360352  0.25  4.7 
 0.359946  0.2375  4.7 
 0.358699  0.225  4.7 
 0.35458  0.2125  4.7 
 0.35  0.206589  4.7 
 0.348705  0.2  4.7 
 0.346818  0.1875  4.7 
 0.347347  0.175  4.7 
 0.346162  0.1625  4.7 
 0.343834  0.15  4.7 
 0.340476  0.1375  4.7 
 0.3375  0.131117  4.7 
 0.336692  0.125  4.7 
 0.335442  0.1125  4.7 
 0.334852  0.1  4.7 
 0.334487  0.0875  4.7 
 0.335019  0.075  4.7 
 0.334442  0.0625  4.7 
 0.334026  0.05  4.7 
 0.333335  0.0375  4.7 
 0.333634  0.025  4.7 
 0.333389  0.0125  4.7 
 0.333326  0  4.7 


# Contour 3, label:      4.2
 0.5875  0.65776  4.2 
 0.583006  0.65  4.2 
 0.575  0.642853  4.2 
 0.571474  0.6375  4.2 
 0.5625  0.629047  4.2 
 0.559616  0.625  4.2 
 0.55  0.61489  4.2 
 0.548531  0.6125  4.2 
 0.5375  0.601013  4.2 
 0.536838  0.6  4.2 
 0.529557  0.5875  4.2 
 0.525  0.583135  4.2 
 0.52024  0.575  4.2 
 0.5125  0.56733  4.2 
 0.510008  0.5625  4.2 
 0.5  0.550634  4.2 
 0.499601  0.55  4.2 
 0.493037  0.5375  4.2 
 0.4875  0.531983  4.2 
 0.484269  0.525  4.2 
 0.475  0.513519  4.2 
 0.474387  0.5125  4.2 
 0.469353  0.5  4.2 
 0.4625  0.49272  4.2 
 0.460061  0.4875  4.2 
 0.452317  0.475  4.2 
 0.45  0.47274  4.2 
 0.446303  0.4625  4.2 
 0.4375  0.450865  4.2 
 0.436991  0.45  4.2 
 0.433151  0.4375  4.2 
 0.425  0.426752  4.2 
 0.424048  0.425  4.2 
 0.420559  0.4125  4.2 
 0.4125  0.401243  4.2 
 0.411826  0.4  4.2 
 0.40827  0.3875  4.2 
 0.40313  0.375  4.2 
 0.4  0.371963  4.2 
 0.396688  0.3625  4.2 
 0.394152  0.35  4.2 
 0.3875  0.342088  4.2 
 0.385573  0.3375  4.2 
 0.382831  0.325  4.2 
 0.380313  0.3125  4.2 
 0.375  0.306311  4.2 
 0.372677  0.3  4.2 
 0.370157  0.2875  4.2 
 0.368469  0.275  4.2 
 0.3625  0.265181  4.2 
 0.361545  0.2625  4.2 
 0.358626  0.25  4.2 
 0.35749  0.2375  4.2 
 0.35477  0.225  4.2 
 0.35  0.215062  4.2 
 0.349339  0.2125  4.2 
 0.347013  0.2  4.2 
 0.345204  0.1875  4.2 
 0.344896  0.175  4.2 
 0.342867  0.1625  4.2 
 0.3395  0.15  4.2 
 0.3375  0.144145  4.2 
 0.336431  0.1375  4.2 
 0.33492  0.125  4.2 
 0.333846  0.1125  4.2 
 0.33323  0.1  4.2 
 0.332653  0.0875  4.2 
 0.332608  0.075  4.2 
 0.331894  0.0625  4.2 
 0.331356  0.05  4.2 
 0.330845  0.0375  4.2 
 0.330885  0.025  4.2 
 0.330633  0.0125  4.2 
 0.330911  0  4.2 

 0.5875  0.190806  4.2 
 0.575  0.191416  4.2 
 0.562907  0.2  4.2 
 0.5625  0.201668  4.2 
 0.557962  0.2125  4.2 
 0.555097  0.225  4.2 
 0.552591  0.2375  4.2 
 0.550301  0.25  4.2 
 0.55  0.251634  4.2 
 0.546542  0.2625  4.2 
 0.543829  0.275  4.2 
 0.542245  0.2875  4.2 
 0.540586  0.3  4.2 
 0.538521  0.3125  4.2 
 0.5375  0.317905  4.2 
 0.5359  0.325  4.2 
 0.533248  0.3375  4.2 
 0.531271  0.35  4.2 
 0.52998  0.3625  4.2 
 0.529252  0.375  4.2 
 0.528719  0.3875  4.2 
 0.52861  0.4  4.2 
 0.529084  0.4125  4.2 
 0.529567  0.425  4.2 
 0.531004  0.4375  4.2 
 0.532281  0.45  4.2 
 0.53435  0.4625  4.2 
 0.536539  0.475  4.2 
 0.5375  0.478678  4.2 
 0.539779  0.4875  4.2 
 0.542825  0.5  4.2 
 0.547699  0.5125  4.2 
 0.55  0.520599  4.2 
 0.551246  0.525  4.2 
 0.555548  0.5375  4.2 
 0.561249  0.55  4.2 
 0.5625  0.554733  4.2 
 0.564573  0.5625  4.2 
 0.569961  0.575  4.2 
 0.575  0.583873  4.2 
 0.577042  0.5875  4.2 
 0.582386  0.6  4.2 
 0.5875  0.611328  4.2 


# Contour 4, label:      3.7
 0.5875  0.668093  3.7 
 0.583314  0.6625  3.7 
 0.575  0.653378  3.7 
 0.572364  0.65  3.7 
 0.5625  0.638984  3.7 
 0.561311  0.6375  3.7 
 0.550684  0.625  3.7 
 0.55  0.624281  3.7 
 0.542758  0.6125  3.7 
 0.5375  0.607025  3.7 
 0.532911  0.6  3.7 
 0.525  0.590692  3.7 
 0.522701  0.5875  3.7 
 0.5125  0.57525  3.7 
 0.512305  0.575  3.7 
 0.505788  0.5625  3.7 
 0.5  0.555637  3.7 
 0.49645  0.55  3.7 
 0.4875  0.538802  3.7 
 0.486539  0.5375  3.7 
 0.480458  0.525  3.7 
 0.475  0.51824  3.7 
 0.471546  0.5125  3.7 
 0.463425  0.5  3.7 
 0.4625  0.499017  3.7 
 0.457118  0.4875  3.7 
 0.45  0.477912  3.7 
 0.448102  0.475  3.7 
 0.443227  0.4625  3.7 
 0.4375  0.45493  3.7 
 0.434597  0.45  3.7 
 0.429976  0.4375  3.7 
 0.425  0.430939  3.7 
 0.421772  0.425  3.7 
 0.417623  0.4125  3.7 
 0.4125  0.405344  3.7 
 0.409602  0.4  3.7 
 0.405877  0.3875  3.7 
 0.4  0.377118  3.7 
 0.398741  0.375  3.7 
 0.394558  0.3625  3.7 
 0.390243  0.35  3.7 
 0.3875  0.346738  3.7 
 0.383619  0.3375  3.7 
 0.380763  0.325  3.7 
 0.375968  0.3125  3.7 
 0.375  0.311372  3.7 
 0.370814  0.3  3.7 
 0.368236  0.2875  3.7 
 0.364919  0.275  3.7 
 0.3625  0.27102  3.7 
 0.359464  0.2625  3.7 
 0.356899  0.25  3.7 
 0.355035  0.2375  3.7 
 0.350841  0.225  3.7 
 0.35  0.223248  3.7 
 0.347226  0.2125  3.7 
 0.345322  0.2  3.7 
 0.343589  0.1875  3.7 
 0.342445  0.175  3.7 
 0.339573  0.1625  3.7 
 0.3375  0.155765  3.7 
 0.33619  0.15  3.7 
 0.334389  0.1375  3.7 
 0.333149  0.125  3.7 
 0.332249  0.1125  3.7 
 0.331609  0.1  3.7 
 0.330819  0.0875  3.7 
 0.330197  0.075  3.7 
 0.329346  0.0625  3.7 
 0.328686  0.05  3.7 
 0.328356  0.0375  3.7 
 0.328135  0.025  3.7 
 0.327876  0.0125  3.7 
 0.328496  0  3.7 

 0.5875  0.192664  3.7 
 0.575  0.195584  3.7 
 0.568779  0.2  3.7 
 0.565606  0.2125  3.7 
 0.564795  0.225  3.7 
 0.564068  0.2375  3.7 
 0.563498  0.25  3.7 
 0.562928  0.2625  3.7 
 0.562547  0.275  3.7 
 0.562962  0.2875  3.7 
 0.56378  0.3  3.7 
 0.564823  0.3125  3.7 
 0.565732  0.325  3.7 
 0.566336  0.3375  3.7 
 0.566741  0.35  3.7 
 0.567324  0.3625  3.7 
 0.568798  0.375  3.7 
 0.570612  0.3875  3.7 
 0.572435  0.4  3.7 
 0.574534  0.4125  3.7 
 0.575  0.415168  3.7 
 0.57653  0.425  3.7 
 0.578842  0.4375  3.7 
 0.581464  0.45  3.7 
 0.584726  0.4625  3.7 
 0.5875  0.472603  3.7 


# Contour 5, label:      3.2
 0.5875  0.674458  3.2 
 0.57855  0.6625  3.2 
 0.575  0.658604  3.2 
 0.568284  0.65  3.2 
 0.5625  0.64354  3.2 
 0.557662  0.6375  3.2 
 0.55  0.628819  3.2 
 0.546835  0.625  3.2 
 0.5375  0.612897  3.2 
 0.537153  0.6125  3.2 
 0.528983  0.6  3.2 
 0.525  0.595313  3.2 
 0.519372  0.5875  3.2 
 0.5125  0.579247  3.2 
 0.509176  0.575  3.2 
 0.501568  0.5625  3.2 
 0.5  0.560641  3.2 
 0.493299  0.55  3.2 
 0.4875  0.542745  3.2 
 0.483628  0.5375  3.2 
 0.476647  0.525  3.2 
 0.475  0.52296  3.2 
 0.468705  0.5125  3.2 
 0.4625  0.503484  3.2 
 0.459917  0.5  3.2 
 0.454175  0.4875  3.2 
 0.45  0.481876  3.2 
 0.445518  0.475  3.2 
 0.440151  0.4625  3.2 
 0.4375  0.458995  3.2 
 0.432202  0.45  3.2 
 0.426801  0.4375  3.2 
 0.425  0.435125  3.2 
 0.419497  0.425  3.2 
 0.414687  0.4125  3.2 
 0.4125  0.409446  3.2 
 0.407379  0.4  3.2 
 0.403483  0.3875  3.2 
 0.4  0.381346  3.2 
 0.396226  0.375  3.2 
 0.392429  0.3625  3.2 
 0.3875  0.351427  3.2 
 0.386541  0.35  3.2 
 0.381666  0.3375  3.2 
 0.378694  0.325  3.2 
 0.375  0.31629  3.2 
 0.372777  0.3125  3.2 
 0.36895  0.3  3.2 
 0.366314  0.2875  3.2 
 0.3625  0.276728  3.2 
 0.361483  0.275  3.2 
 0.357384  0.2625  3.2 
 0.355172  0.25  3.2 
 0.352579  0.2375  3.2 
 0.35  0.230351  3.2 
 0.34776  0.225  3.2 
 0.345112  0.2125  3.2 
 0.34363  0.2  3.2 
 0.341975  0.1875  3.2 
 0.339993  0.175  3.2 
 0.3375  0.16584  3.2 
 0.336332  0.1625  3.2 
 0.333758  0.15  3.2 
 0.332348  0.1375  3.2 
 0.331377  0.125  3.2 
 0.330653  0.1125  3.2 
 0.329988  0.1  3.2 
 0.328984  0.0875  3.2 
 0.327786  0.075  3.2 
 0.326797  0.0625  3.2 
 0.326017  0.05  3.2 
 0.325866  0.0375  3.2 
 0.325385  0.025  3.2 
 0.32512  0.0125  3.2 
 0.326082  0  3.2 

 0.5875  0.194523  3.2 
 0.575  0.199753  3.2 
 0.574652  0.2  3.2 
 0.571253  0.2125  3.2 
 0.571313  0.225  3.2 
 0.572533  0.2375  3.2 
 0.574569  0.25  3.2 
 0.575  0.25268  3.2 
 0.576235  0.2625  3.2 
 0.578042  0.275  3.2 
 0.580335  0.2875  3.2 
 0.583008  0.3  3.2 
 0.585909  0.3125  3.2 
 0.5875  0.320026  3.2 


# Contour 6, label:      2.7
 0.5875  0.67923  2.7 
 0.583611  0.675  2.7 
 0.575  0.663896  2.7 
 0.573708  0.6625  2.7 
 0.564205  0.65  2.7 
 0.5625  0.648096  2.7 
 0.554012  0.6375  2.7 
 0.55  0.632954  2.7 
 0.543408  0.625  2.7 
 0.5375  0.61734  2.7 
 0.533266  0.6125  2.7 
 0.525056  0.6  2.7 
 0.525  0.599935  2.7 
 0.516043  0.5875  2.7 
 0.5125  0.583245  2.7 
 0.506048  0.575  2.7 
 0.5  0.565566  2.7 
 0.497337  0.5625  2.7 
 0.490147  0.55  2.7 
 0.4875  0.546687  2.7 
 0.480718  0.5375  2.7 
 0.475  0.527803  2.7 
 0.472605  0.525  2.7 
 0.465864  0.5125  2.7 
 0.4625  0.507612  2.7 
 0.456857  0.5  2.7 
 0.451233  0.4875  2.7 
 0.45  0.485839  2.7 
 0.442935  0.475  2.7 
 0.4375  0.463269  2.7 
 0.436856  0.4625  2.7 
 0.429808  0.45  2.7 
 0.425  0.439716  2.7 
 0.423187  0.4375  2.7 
 0.417221  0.425  2.7 
 0.4125  0.413869  2.7 
 0.411375  0.4125  2.7 
 0.405155  0.4  2.7 
 0.40109  0.3875  2.7 
 0.4  0.385575  2.7 
 0.393712  0.375  2.7 
 0.390299  0.3625  2.7 
 0.3875  0.356211  2.7 
 0.383325  0.35  2.7 
 0.379712  0.3375  2.7 
 0.376626  0.325  2.7 
 0.375  0.321166  2.7 
 0.369917  0.3125  2.7 
 0.367087  0.3  2.7 
 0.364393  0.2875  2.7 
 0.3625  0.282154  2.7 
 0.358291  0.275  2.7 
 0.355304  0.2625  2.7 
 0.353446  0.25  2.7 
 0.350123  0.2375  2.7 
 0.35  0.237159  2.7 
 0.34491  0.225  2.7 
 0.342999  0.2125  2.7 
 0.341939  0.2  2.7 
 0.340361  0.1875  2.7 
 0.337542  0.175  2.7 
 0.3375  0.174845  2.7 
 0.333184  0.1625  2.7 
 0.331325  0.15  2.7 
 0.330307  0.1375  2.7 
 0.329605  0.125  2.7 
 0.329057  0.1125  2.7 
 0.328366  0.1  2.7 
 0.32715  0.0875  2.7 
 0.325375  0.075  2.7 
 0.325  0.0706815  2.7 
 0.323727  0.0625  2.7 
 0.322596  0.05  2.7 
 0.322494  0.0375  2.7 
 0.321894  0.025  2.7 
 0.321638  0.0125  2.7 
 0.322811  0  2.7 

 0.5875  0.196381  2.7 
 0.579071  0.2  2.7 
 0.576319  0.2125  2.7 
 0.576505  0.225  2.7 
 0.578488  0.2375  2.7 
 0.581324  0.25  2.7 
 0.584901  0.2625  2.7 
 0.5875  0.270858  2.7 


# Contour 7, label:      2.2
 0.5875  0.683854  2.2 
 0.579361  0.675  2.2 
 0.575  0.669377  2.2 
 0.568633  0.6625  2.2 
 0.5625  0.654063  2.2 
 0.55878  0.65  2.2 
 0.550363  0.6375  2.2 
 0.55  0.637089  2.2 
 0.539981  0.625  2.2 
 0.5375  0.621783  2.2 
 0.529378  0.6125  2.2 
 0.525  0.605834  2.2 
 0.519768  0.6  2.2 
 0.512715  0.5875  2.2 
 0.5125  0.587242  2.2 
 0.50292  0.575  2.2 
 0.5  0.570446  2.2 
 0.493099  0.5625  2.2 
 0.4875  0.551349  2.2 
 0.48632  0.55  2.2 
 0.477807  0.5375  2.2 
 0.475  0.532739  2.2 
 0.468388  0.525  2.2 
 0.463023  0.5125  2.2 
 0.4625  0.51174  2.2 
 0.453797  0.5  2.2 
 0.45  0.491487  2.2 
 0.446594  0.4875  2.2 
 0.440352  0.475  2.2 
 0.4375  0.468845  2.2 
 0.432189  0.4625  2.2 
 0.427414  0.45  2.2 
 0.425  0.444836  2.2 
 0.418998  0.4375  2.2 
 0.414945  0.425  2.2 
 0.4125  0.419234  2.2 
 0.406967  0.4125  2.2 
 0.402931  0.4  2.2 
 0.4  0.391155  2.2 
 0.39681  0.3875  2.2 
 0.391197  0.375  2.2 
 0.38817  0.3625  2.2 
 0.3875  0.360995  2.2 
 0.38011  0.35  2.2 
 0.377759  0.3375  2.2 
 0.375  0.326642  2.2 
 0.373527  0.325  2.2 
 0.367057  0.3125  2.2 
 0.365224  0.3  2.2 
 0.3625  0.287624  2.2 
 0.362387  0.2875  2.2 
 0.355099  0.275  2.2 
 0.353224  0.2625  2.2 
 0.351719  0.25  2.2 
 0.35  0.243603  2.2 
 0.345344  0.2375  2.2 
 0.34206  0.225  2.2 
 0.340886  0.2125  2.2 
 0.340248  0.2  2.2 
 0.338746  0.1875  2.2 
 0.3375  0.182  2.2 
 0.332744  0.175  2.2 
 0.330037  0.1625  2.2 
 0.328892  0.15  2.2 
 0.328266  0.1375  2.2 
 0.327834  0.125  2.2 
 0.327461  0.1125  2.2 
 0.326745  0.1  2.2 
 0.325315  0.0875  2.2 
 0.325  0.0853853  2.2 
 0.320682  0.075  2.2 
 0.319409  0.0625  2.2 
 0.318713  0.05  2.2 
 0.31865  0.0375  2.2 
 0.318281  0.025  2.2 
 0.318124  0.0125  2.2 
 0.318845  0  2.2 

 0.5875  0.198239  2.2 
 0.583399  0.2  2.2 
 0.580242  0.2125  2.2 
 0.579968  0.225  2.2 
 0.58341  0.2375  2.2 
 0.5875  0.249139  2.2 


# Contour 8, label:      1.7
 0.5875  0.691196  1.7 
 0.583963  0.6875  1.7 
 0.57511  0.675  1.7 
 0.575  0.674858  1.7 
 0.563559  0.6625  1.7 
 0.5625  0.661044  1.7 
 0.552389  0.65  1.7 
 0.55  0.646334  1.7 
 0.541942  0.6375  1.7 
 0.5375  0.629466  1.7 
 0.533324  0.625  1.7 
 0.525491  0.6125  1.7 
 0.525  0.611753  1.7 
 0.51446  0.6  1.7 
 0.5125  0.596462  1.7 
 0.504509  0.5875  1.7 
 0.5  0.576403  1.7 
 0.498699  0.575  1.7 
 0.488861  0.5625  1.7 
 0.4875  0.559789  1.7 
 0.478937  0.55  1.7 
 0.475  0.538281  1.7 
 0.474282  0.5375  1.7 
 0.464172  0.525  1.7 
 0.4625  0.520912  1.7 
 0.455116  0.5125  1.7 
 0.450736  0.5  1.7 
 0.45  0.498349  1.7 
 0.440731  0.4875  1.7 
 0.437768  0.475  1.7 
 0.4375  0.474421  1.7 
 0.427521  0.4625  1.7 
 0.42502  0.45  1.7 
 0.425  0.449957  1.7 
 0.414809  0.4375  1.7 
 0.41267  0.425  1.7 
 0.4125  0.424599  1.7 
 0.402558  0.4125  1.7 
 0.400708  0.4  1.7 
 0.4  0.397864  1.7 
 0.390954  0.3875  1.7 
 0.388683  0.375  1.7 
 0.3875  0.369913  1.7 
 0.380831  0.3625  1.7 
 0.376895  0.35  1.7 
 0.375806  0.3375  1.7 
 0.375  0.334329  1.7 
 0.366633  0.325  1.7 
 0.364197  0.3125  1.7 
 0.363361  0.3  1.7 
 0.3625  0.296088  1.7 
 0.354644  0.2875  1.7 
 0.351906  0.275  1.7 
 0.351143  0.2625  1.7 
 0.35  0.250098  1.7 
 0.34991  0.25  1.7 
 0.340441  0.2375  1.7 
 0.33921  0.225  1.7 
 0.338773  0.2125  1.7 
 0.338556  0.2  1.7 
 0.3375  0.190842  1.7 
 0.334059  0.1875  1.7 
 0.327904  0.175  1.7 
 0.326889  0.1625  1.7 
 0.32646  0.15  1.7 
 0.326225  0.1375  1.7 
 0.326062  0.125  1.7 
 0.325865  0.1125  1.7 
 0.325123  0.1  1.7 
 0.325  0.0989493  1.7 
 0.317752  0.0875  1.7 
 0.315568  0.075  1.7 
 0.315091  0.0625  1.7 
 0.31483  0.05  1.7 
 0.314806  0.0375  1.7 
 0.314668  0.025  1.7 
 0.314609  0.0125  1.7 
 0.314879  0  1.7 

 0.5875  0.200725  1.7 
 0.584165  0.2125  1.7 
 0.583431  0.225  1.7 
 0.5875  0.235927  1.7 


# Contour 9, label:      1.2
 0.5875  0.218272  1.2 
 0.586894  0.225  1.2 
 0.5875  0.226626  1.2 

