   0.0000000000000000        0.0000000000000000        1.3999999999999999        2.9999999999999996        0.0000000000000000        1.0000000000000009       0.62433941058390829     
   0.0000000000000000       5.00000000000000028E-002   1.3999999999999999        2.9999999999999996        0.0000000000000000        1.0000000000000009       0.62433941058390829     
   0.0000000000000000       0.10000000000000001        1.3999999999999999        2.9999999999999996        0.0000000000000000        1.0000000000000009       0.62433941058390829     
   0.0000000000000000       0.15000000000000002        1.3999999999999999        2.9999999999999996        0.0000000000000000        1.0000000000000009       0.62433941058390829     
   0.0000000000000000       0.20000000000000001        1.3999999999999999        2.9999999999999996        0.0000000000000000        1.0000000000000009       0.62433941058390829     
   0.0000000000000000       0.25000000000000000        1.3999999999999999        2.9999999999999996        0.0000000000000000        1.0000000000000009       0.62433941058390829     
   0.0000000000000000       0.30000000000000004        1.3999999999999999        2.9999999999999996        0.0000000000000000        1.0000000000000009       0.62433941058390829     
   0.0000000000000000       0.35000000000000003        1.3999999999999999        2.9999999999999996        0.0000000000000000        1.0000000000000009       0.62433941058390829     
   0.0000000000000000       0.40000000000000002        1.3999999999999999        2.9999999999999996        0.0000000000000000        1.0000000000000009       0.62433941058390829     
   0.0000000000000000       0.45000000000000001        1.3999999999999999        2.9999999999999996        0.0000000000000000        1.0000000000000009       0.62433941058390829     
   0.0000000000000000       0.50000000000000000        1.3999999999999999        2.9999999999999996        0.0000000000000000        1.0000000000000009       0.62433941058390829     
   0.0000000000000000       0.55000000000000004        1.3999999999999999        2.9999999999999996        0.0000000000000000        1.0000000000000009       0.62433941058390829     
   0.0000000000000000       0.60000000000000009        1.3999999999999999        2.9999999999999996        0.0000000000000000        1.0000000000000009       0.62433941058390829     
   0.0000000000000000       0.65000000000000002        1.3999999999999999        2.9999999999999996        0.0000000000000000        1.0000000000000009       0.62433941058390829     
   0.0000000000000000       0.70000000000000007        1.3999999999999999        2.9999999999999996        0.0000000000000000        1.0000000000000009       0.62433941058390829     
   0.0000000000000000       0.75000000000000000        1.3999999999999999        2.9999999999999996        0.0000000000000000        1.0000000000000009       0.62433941058390829     
   0.0000000000000000       0.80000000000000004        1.3999999999999999        2.9999999999999996        0.0000000000000000        1.0000000000000009       0.62433941058390829     
   0.0000000000000000       0.85000000000000009        1.3999999999999999        2.9999999999999996        0.0000000000000000        1.0000000000000009       0.62433941058390829     
   0.0000000000000000       0.90000000000000002        1.3999999999999999        2.9999999999999996        0.0000000000000000        1.0000000000000009       0.62433941058390829     
   0.0000000000000000       0.95000000000000007        1.3999999999999999        2.9999999999999996        0.0000000000000000        1.0000000000000009       0.62433941058390829     
   0.0000000000000000        1.0000000000000000        1.3999999999999999        2.9999999999999996        0.0000000000000000        1.0000000000000009       0.62433941058390829     

  5.00000000000000028E-002   0.0000000000000000        1.3999999999999999        2.9999999999999996        0.0000000000000000        1.0000000000000009       0.62433941058390829     
  5.00000000000000028E-002  5.00000000000000028E-002   1.3999999999999999        2.9999999999999996        0.0000000000000000        1.0000000000000009       0.62433941058390829     
  5.00000000000000028E-002  0.10000000000000001        1.3999999999999999        2.9999999999999996        0.0000000000000000        1.0000000000000009       0.62433941058390829     
  5.00000000000000028E-002  0.15000000000000002        1.3999999999999999        2.9999999999999996        0.0000000000000000        1.0000000000000009       0.62433941058390829     
  5.00000000000000028E-002  0.20000000000000001        1.3999999999999999        2.9999999999999996        0.0000000000000000        1.0000000000000009       0.62433941058390829     
  5.00000000000000028E-002  0.25000000000000000        1.3999999999999999        2.9999999999999996        0.0000000000000000        1.0000000000000009       0.62433941058390829     
  5.00000000000000028E-002  0.30000000000000004        1.3999999999999999        2.9999999999999996        0.0000000000000000        1.0000000000000009       0.62433941058390829     
  5.00000000000000028E-002  0.35000000000000003        1.3999999999999999        2.9999999999999996        0.0000000000000000        1.0000000000000009       0.62433941058390829     
  5.00000000000000028E-002  0.40000000000000002        1.3999999999999999        2.9999999999999996        0.0000000000000000        1.0000000000000009       0.62433941058390829     
  5.00000000000000028E-002  0.45000000000000001        1.3999999999999999        2.9999999999999996        0.0000000000000000        1.0000000000000009       0.62433941058390829     
  5.00000000000000028E-002  0.50000000000000000        1.3999999999999999        2.9999999999999996        0.0000000000000000        1.0000000000000009       0.62433941058390829     
  5.00000000000000028E-002  0.55000000000000004        1.3999999999999999        2.9999999999999996        0.0000000000000000        1.0000000000000009       0.62433941058390829     
  5.00000000000000028E-002  0.60000000000000009        1.3999999999999999        2.9999999999999996        0.0000000000000000        1.0000000000000009       0.62433941058390829     
  5.00000000000000028E-002  0.65000000000000002        1.3999999999999999        2.9999999999999996        0.0000000000000000        1.0000000000000009       0.62433941058390829     
  5.00000000000000028E-002  0.70000000000000007        1.3999999999999999        2.9999999999999996        0.0000000000000000        1.0000000000000009       0.62433941058390829     
  5.00000000000000028E-002  0.75000000000000000        1.3999999999999999        2.9999999999999996        0.0000000000000000        1.0000000000000009       0.62433941058390829     
  5.00000000000000028E-002  0.80000000000000004        1.3999999999999999        2.9999999999999996        0.0000000000000000        1.0000000000000009       0.62433941058390829     
  5.00000000000000028E-002  0.85000000000000009        1.3999999999999999        2.9999999999999996        0.0000000000000000        1.0000000000000009       0.62433941058390829     
  5.00000000000000028E-002  0.90000000000000002        1.3999999999999999        2.9999999999999996        0.0000000000000000        1.0000000000000009       0.62433941058390829     
  5.00000000000000028E-002  0.95000000000000007        1.3999999999999999        2.9999999999999996        0.0000000000000000        1.0000000000000009       0.62433941058390829     
  5.00000000000000028E-002   1.0000000000000000        1.3999999999999999        2.9999999999999996        0.0000000000000000        1.0000000000000009       0.62433941058390829     

  0.10000000000000001        0.0000000000000000        1.4000000024462393        2.9999999935875068      -1.32542459024137558E-009   1.0000000031308709       0.62433941101135015     
  0.10000000000000001       5.00000000000000028E-002   1.4000000001812876        2.9999999967437567      -4.67727718683606755E-010   1.0000000016524064       0.62433941150238514     
  0.10000000000000001       0.10000000000000001        1.4000000001582715        2.9999999967439579       5.68278470121963784E-010   1.0000000016293908       0.62433941150238548     
  0.10000000000000001       0.15000000000000002        1.4000000023411625        2.9999999935884261       1.47693133005979680E-009   1.0000000030257938       0.62433941101134993     
  0.10000000000000001       0.20000000000000001        1.4000000037107110        2.9999999939965392       2.29017389910860677E-009   1.0000000048521636       0.62433941129656156     
  0.10000000000000001       0.25000000000000000        1.4000000050826786        2.9999999932401491       1.44832402608950405E-009   1.0000000051402873       0.62433941061987508     
  0.10000000000000001       0.30000000000000004        1.4000000043770919        2.9999999936604707       1.86555963619960343E-009   1.0000000043557891       0.62433941057060749     
  0.10000000000000001       0.35000000000000003        1.4000000007180313        2.9999999998016920       1.55560200751613331E-009   1.0000000006895811       0.62433941056614506     
  0.10000000000000001       0.40000000000000002        1.3999999990240133        3.0000000001371347       2.41715491449701809E-009  0.99999999896981295       0.62433941055006825     
  0.10000000000000001       0.45000000000000001        1.4000000005530158        2.9999999998634514       1.27718026052325465E-009   1.0000000002700533       0.62433941040724306     
  0.10000000000000001       0.50000000000000000        1.4000000014377953        2.9999999998807381       9.18547716682828907E-010   1.0000000006585155       0.62433941009737248     
  0.10000000000000001       0.55000000000000004        1.4000000035947622        2.9999999990194408      -7.57090220552151192E-010   1.0000000011486390       0.62433940905669660     
  0.10000000000000001       0.60000000000000009        1.4000000044585676        2.9999999935665826       1.37813542689993662E-009   1.0000000046499276       0.62433941070338117     
  0.10000000000000001       0.65000000000000002        1.4000000039531684        2.9999999934244608       3.26798073242464573E-009   1.0000000042364434       0.62433941076076749     
  0.10000000000000001       0.70000000000000007        1.4000000014123024        2.9999999997826707       5.36837129392935472E-010   1.0000000014118109       0.62433941058360087     
  0.10000000000000001       0.75000000000000000        1.4000000026459745        2.9999999987483563      -9.12860548818639031E-012   1.0000000016702293       0.62433940997471149     
  0.10000000000000001       0.80000000000000004        1.4000000019132148        3.0000000000910796       9.25395730625110556E-010  0.99999999902195480       0.62433940877878014     
  0.10000000000000001       0.85000000000000009        1.3999999996814305        2.9999999997957376       1.43475708667366892E-009  0.99999999988382571       0.62433941071027099     
  0.10000000000000001       0.90000000000000002        1.4000000001548794        2.9999999999221716       5.91019666643489434E-010   1.0000000001076079       0.62433941055439424     
  0.10000000000000001       0.95000000000000007        1.4000000000645350        2.9999999999229621      -5.13921411767318936E-010   1.0000000000172646       0.62433941055439490     
  0.10000000000000001        1.0000000000000000        1.3999999998669810        2.9999999997941136      -1.30403593139168986E-009   1.0000000000693772       0.62433941071027166     

  0.15000000000000002        0.0000000000000000        1.3999999985488454        2.9999999930086658       4.76832630820813315E-010   1.0000000030474572       0.62433941339256827     
  0.15000000000000002       5.00000000000000028E-002   1.3999999987803413        3.0000000028461367       1.67650101925679305E-009  0.99999999913426563       0.62433941080487654     
  0.15000000000000002       0.10000000000000001        1.3999999989698029        3.0000000028466696      -1.65371955329852043E-009  0.99999999933418537       0.62433941081140609     
  0.15000000000000002       0.15000000000000002        1.3999999983647220        2.9999999933035522      -5.18187508344688674E-010   1.0000000027265659       0.62433941330717868     
  0.15000000000000002       0.20000000000000001        1.4000000019942078        2.9999999910896915       1.79127828716513156E-009   1.0000000058915985       0.62433941301720230     
  0.15000000000000002       0.25000000000000000        1.4000000049053638        2.9999999885592374       4.19904844676518264E-009   1.0000000067317825       0.62433941172421281     
  0.15000000000000002       0.30000000000000004        1.4000000045416894        2.9999999887442388       6.50987011275182461E-009   1.0000000062402379       0.62433941164437845     
  0.15000000000000002       0.35000000000000003        1.4000000031215027        2.9999999991618447       5.66292318653478704E-009   1.0000000026868980       0.62433941031256679     
  0.15000000000000002       0.40000000000000002        1.3999999996579837        3.0000000036390584       2.47788322148852682E-009  0.99999999812127571       0.62433940962448031     
  0.15000000000000002       0.45000000000000001        1.4000000050578716        2.9999999977835348      -1.14132037064324308E-009   1.0000000036743821       0.62433940972014068     
  0.15000000000000002       0.50000000000000000        1.4000000083852790        2.9999999934944159      -1.28675283350926176E-009   1.0000000065708408       0.62433940945108235     
  0.15000000000000002       0.55000000000000004        1.4000000077704371        2.9999999886403428      -9.28494583173655021E-011   1.0000000085738376       0.62433941108550239     
  0.15000000000000002       0.60000000000000009        1.4000000041154321        2.9999999889169260       1.61015190391164246E-009   1.0000000059457987       0.62433941172667773     
  0.15000000000000002       0.65000000000000002        1.4000000002602924        2.9999999872191117       4.39503714294056941E-009   1.0000000044900614       0.62433941322471920     
  0.15000000000000002       0.70000000000000007        1.4000000044537468        2.9999999968067841       2.75489989155730047E-009   1.0000000042775232       0.62433941047388430     
  0.15000000000000002       0.75000000000000000        1.4000000094513860        2.9999999900313123      -1.93093711292508735E-009   1.0000000089394456       0.62433941026428308     
  0.15000000000000002       0.80000000000000004        1.4000000063407338        2.9999999904534080       2.00549805293157023E-009   1.0000000056414342       0.62433941014730732     
  0.15000000000000002       0.85000000000000009        1.4000000043214462        2.9999999968911304       3.26015512695340618E-009   1.0000000026939739       0.62433940956781264     
  0.15000000000000002       0.90000000000000002        1.4000000036636844        2.9999999973083415       1.29888358388596030E-009   1.0000000028834597       0.62433941009678262     
  0.15000000000000002       0.95000000000000007        1.4000000036890157        2.9999999973059461      -1.30193114367194612E-009   1.0000000029028862       0.62433941009309613     
  0.15000000000000002        1.0000000000000000        1.4000000043861787        2.9999999968922473      -3.12152770214018401E-009   1.0000000027587073       0.62433940956781320     

  0.20000000000000001        0.0000000000000000        1.3999999981479130        3.0000000017102808      -5.34086161198875688E-010  0.99999999894636260       0.62433941108241131     
  0.20000000000000001       5.00000000000000028E-002   1.4000000052536830        2.9999999974354106      -1.00822821386508313E-009   1.0000000029617289       0.62433940915295039     
  0.20000000000000001       0.10000000000000001        1.4000000052403219        2.9999999974348568       1.04678379515244487E-009   1.0000000029379088       0.62433940914642050     
  0.20000000000000001       0.15000000000000002        1.3999999983788611        3.0000000016920931       5.93498298411289871E-010  0.99999999918326288       0.62433941108612745     
  0.20000000000000001       0.20000000000000001        1.3999999979081139        3.0000000017783575      -1.30589439722386945E-009  0.99999999817742680       0.62433941075205035     
  0.20000000000000001       0.25000000000000000        1.3999999934997975        2.9999999973933620       4.02874727813279533E-009  0.99999999397630945       0.62433941088141287     
  0.20000000000000001       0.30000000000000004        1.3999999965960488        2.9999999983126950       5.89877008419338574E-009  0.99999999825905883       0.62433941162219042     
  0.20000000000000001       0.35000000000000003        1.4000000099939205        2.9999999915892257       5.37243370285515468E-009   1.0000000094728383       0.62433941025857553     
  0.20000000000000001       0.40000000000000002        1.4000000102347230        2.9999999926484207      -8.52033531954539188E-010   1.0000000097618722       0.62433941028868833     
  0.20000000000000001       0.45000000000000001        1.4000000120920413        2.9999999886648760      -3.34277021316565963E-010   1.0000000108665346       0.62433940981877556     
  0.20000000000000001       0.50000000000000000        1.4000000091478844        2.9999999867341143       2.37739096641100454E-009   1.0000000100011996       0.62433941111666602     
  0.20000000000000001       0.55000000000000004        1.4000000018581276        2.9999999850964203       6.55067604281279345E-009   1.0000000076295310       0.62433941418722227     
  0.20000000000000001       0.60000000000000009        1.3999999979055306        3.0000000001395626       1.28651801749292629E-009  0.99999999994186073       0.62433941185526876     
  0.20000000000000001       0.65000000000000002        1.3999999934955711        2.9999999976591178      -5.70141549328373220E-011  0.99999999682300367       0.62433941266135495     
  0.20000000000000001       0.70000000000000007        1.4000000015495870        2.9999999988243875       4.94303180038814871E-010   1.0000000020108610       0.62433941087189926     
  0.20000000000000001       0.75000000000000000        1.4000000064442366        2.9999999873105549       6.31635338765483834E-010   1.0000000087688468       0.62433941203525334     
  0.20000000000000001       0.80000000000000004        1.4000000025319643        2.9999999849156658       2.82902700627284267E-009   1.0000000069191961       0.62433941332302945     
  0.20000000000000001       0.85000000000000009        1.4000000078932537        2.9999999866919178       5.26172827053940792E-009   1.0000000084495881       0.62433941093124923     
  0.20000000000000001       0.90000000000000002        1.4000000142507911        2.9999999908443264       3.51358902530139045E-009   1.0000000131285216       0.62433940988323056     
  0.20000000000000001       0.95000000000000007        1.4000000140553073        2.9999999908476500      -3.61566239297371347E-009   1.0000000129389410       0.62433940988691627     
  0.20000000000000001        1.0000000000000000        1.4000000079282899        2.9999999866924214      -5.31647771553901993E-009   1.0000000084858660       0.62433941093202439     

  0.25000000000000000        0.0000000000000000        1.4000000046373708        3.0000000012289187      -4.53535743849749395E-009   1.0000000035599219       0.62433940991121384     
  0.25000000000000000       5.00000000000000028E-002   1.4000000052545549        2.9999999919073641      -2.70744353917651519E-009   1.0000000044668573       0.62433941009211713     
  0.25000000000000000       0.10000000000000001        1.4000000052730630        2.9999999919070173       2.77584089589831376E-009   1.0000000044853641       0.62433941009211624     
  0.25000000000000000       0.15000000000000002        1.4000000046562084        3.0000000009600463       4.66729912154390243E-009   1.0000000037060119       0.62433940999066251     
  0.25000000000000000       0.20000000000000001        1.4000000029287323        3.0000000040011785       1.24470108673496980E-009  0.99999999937123840       0.62433940836282409     
  0.25000000000000000       0.25000000000000000        1.3999999939551504        3.0000000015262862      -1.58052960885478353E-010  0.99999999311749777       0.62433941006092808     
  0.25000000000000000       0.30000000000000004        1.3999999972578840        3.0000000034843812      -2.20920474747069142E-009  0.99999999626634783       0.62433940996485260     
  0.25000000000000000       0.35000000000000003        1.4000000083083555        2.9999999911435475      -1.82712602845590213E-009   1.0000000075861022       0.62433941013297656     
  0.25000000000000000       0.40000000000000002        1.4000000102877508        2.9999999909458079      -6.41199411999039401E-010   1.0000000100320021       0.62433941042423369     
  0.25000000000000000       0.45000000000000001        1.4000000068678220        2.9999999897956751       2.86421395273238063E-009   1.0000000073810424       0.62433941090433143     
  0.25000000000000000       0.50000000000000000        1.3999999978313653        2.9999999927532839       5.33267898562493926E-009  0.99999999942488937       0.62433941157880757     
  0.25000000000000000       0.55000000000000004        1.3999999919160855        2.9999999955953780       7.27459888710541080E-009  0.99999999617917168       0.62433941324552045     
  0.25000000000000000       0.60000000000000009        1.4000000016722176        3.0000000011402594       4.66315836064788838E-009   1.0000000017328039       0.62433941062173415     
  0.25000000000000000       0.65000000000000002        1.4000000024079133        2.9999999985214933       1.91514756753010738E-010   1.0000000034178271       0.62433941121443670     
  0.25000000000000000       0.70000000000000007        1.4000000052170452        2.9999999947679932       1.90758246433340271E-009   1.0000000058983896       0.62433941100929791     
  0.25000000000000000       0.75000000000000000        1.3999999949014628        2.9999999958508607       5.66312343006241735E-009  0.99999999769699643       0.62433941232926948     
  0.25000000000000000       0.80000000000000004        1.3999999913709713        2.9999999972431106       3.34012863662386178E-009  0.99999999421995811       0.62433941236264245     
  0.25000000000000000       0.85000000000000009        1.4000000000818629        2.9999999860246951       4.19706226745327215E-009   1.0000000051521527       0.62433941374948942     
  0.25000000000000000       0.90000000000000002        1.4000000158145696        2.9999999851707360       3.35070696860492665E-009   1.0000000165628156       0.62433941105106716     
  0.25000000000000000       0.95000000000000007        1.4000000156870949        2.9999999851700689      -3.50180204661104587E-009   1.0000000164353413       0.62433941105106738     
  0.25000000000000000        1.0000000000000000        1.4000000001873600        2.9999999860237856      -4.42687115521844673E-009   1.0000000052564091       0.62433941374871482     

  0.30000000000000004        0.0000000000000000        2.9264520465493389        1.6086598665314320      -0.17729442884539942        4.5942768250709101        1.0217371462652232     
  0.30000000000000004       5.00000000000000028E-002   3.1593332248453478        1.4734921533605043      -4.48022330825008364E-002   5.1821334683420641        1.0353209105890042     
  0.30000000000000004       0.10000000000000001        3.1491322492285634        1.4736552537336332       4.63605470109353518E-002   5.1588500680924305        1.0353463265854115     
  0.30000000000000004       0.15000000000000002        2.9168376824094455        1.6078526691993067       0.18403387899478235        4.5742180091476676        1.0219736366665502     
  0.30000000000000004       0.20000000000000001        2.4051239123914363        2.0195628520345856       0.33196052806920628        3.2239801732883797       0.94362605435741653     
  0.30000000000000004       0.25000000000000000        1.6626749916118424        2.8327508009397868       0.20573985616555610        1.4022933518831615       0.68819032805165892     
  0.30000000000000004       0.30000000000000004        1.4287766359425182        2.9930177655785277       1.87400652825517218E-002   1.0287351472062303       0.62424274296241000     
  0.30000000000000004       0.35000000000000003        1.4031130913271892        2.9992748184198277       2.05536142697726985E-003   1.0031254086116612       0.62434621555675895     
  0.30000000000000004       0.40000000000000002        1.4003269931557381        2.9999272527233090       2.16572746317680208E-004   1.0003271286253321       0.62433948560208596     
  0.30000000000000004       0.45000000000000001        1.4000327971091533        2.9999930620756836       2.19034384190545260E-005   1.0000327998210137       0.62433941218103839     
  0.30000000000000004       0.50000000000000000        1.4000030641704604        2.9999994133548213       2.09608727366938815E-006   1.0000030656052206       0.62433941147884486     
  0.30000000000000004       0.55000000000000004        1.4000002273109415        2.9999999769024099       1.78482747536142772E-007   1.0000002301074653       0.62433941232988266     
  0.30000000000000004       0.60000000000000009        1.3999999997844876        3.0000000131344988       5.59114423720331151E-009  0.99999999816703578       0.62433940957406875     
  0.30000000000000004       0.65000000000000002        1.3999999945886972        3.0000000023207596      -6.25087867220172307E-009  0.99999999493366665       0.62433941079928568     
  0.30000000000000004       0.70000000000000007        1.4000000023700916        2.9999999933192707       1.53386683854275357E-011   1.0000000018440198       0.62433941025546036     
  0.30000000000000004       0.75000000000000000        1.3999999925389868        3.0000000029064475       4.59023672092051216E-009  0.99999999260312378       0.62433941062395104     
  0.30000000000000004       0.80000000000000004        1.3999999914661985        3.0000000029549541       4.95407691598640329E-009  0.99999999134250084       0.62433941050667840     
  0.30000000000000004       0.85000000000000009        1.3999999948856594        3.0000000011944903      -3.98832414962984300E-010  0.99999999569324249       0.62433941108811364     
  0.30000000000000004       0.90000000000000002        1.4000000037643638        2.9999999898158158      -8.04272526167410580E-010   1.0000000058350660       0.62433941187672859     
  0.30000000000000004       0.95000000000000007        1.4000000038770890        2.9999999898196164       6.72557903413024605E-010   1.0000000059449807       0.62433941187497399     
  0.30000000000000004        1.0000000000000000        1.3999999946744761        3.0000000012009171       1.51673146154162657E-010  0.99999999549790264       0.62433941109800528     

  0.35000000000000003        0.0000000000000000        5.1636972108851369       0.64536919963225547      -0.27930121171129207        10.133293987027177        1.0176667078539356     
  0.35000000000000003       5.00000000000000028E-002   5.3329762474451359       0.63005694418295377      -8.74092685088013188E-002   10.467907464591674        1.0048526119456667     
  0.35000000000000003       0.10000000000000001        5.3086325123691580       0.63010806802152719       8.79030615726355269E-002   10.401302565387519        1.0048749088243765     
  0.35000000000000003       0.15000000000000002        5.1393916893090275       0.64531722705557493       0.28008058813568243        10.066634270495445        1.0176721404542919     
  0.35000000000000003       0.20000000000000001        5.1615400461042347       0.72588597604430005       0.46329615635850252        9.9565765575148770        1.0005044296531305     
  0.35000000000000003       0.25000000000000000        4.7120643997572138        1.1120692558175993       0.53719746250020617        8.3468367496697287       0.95285367925516806     
  0.35000000000000003       0.30000000000000004        3.6335651601454826        1.3925810313719384       0.61613324470678554        5.8825746747315906       0.96627627201803346     
  0.35000000000000003       0.35000000000000003        2.4103882750060088        2.3430125441714815       0.56188960152825973        2.6837644264963050       0.78310966401444337     
  0.35000000000000003       0.40000000000000002        1.5793286907800137        2.9401051334226729       0.11528392482797252        1.1891336351678792       0.62714668132801643     
  0.35000000000000003       0.45000000000000001        1.4225755198015975        2.9939498727929341       1.50111423677809792E-002   1.0232543417872615       0.62470953228101900     
  0.35000000000000003       0.50000000000000000        1.4025973651132146        2.9993740892255820       1.70204089611324908E-003   1.0026062447279716       0.62434434017968321     
  0.35000000000000003       0.55000000000000004        1.4002853450818737        2.9999328516648811       1.86998431832350085E-004   1.0002854476262706       0.62433946732839829     
  0.35000000000000003       0.60000000000000009        1.4000307060220285        2.9999928926510306       2.01641785216550448E-005   1.0000307054686250       0.62433941015431471     
  0.35000000000000003       0.65000000000000002        1.4000032384979524        2.9999992604155041       2.12822020650059567E-006   1.0000032384313713       0.62433941054140329     
  0.35000000000000003       0.70000000000000007        1.4000003378213133        2.9999999165207458       2.21415575993221804E-007   1.0000003366368189       0.62433940984437131     
  0.35000000000000003       0.75000000000000000        1.4000000345858585        2.9999999898240879       2.67315403393042857E-008   1.0000000330399073       0.62433940961870937     
  0.35000000000000003       0.80000000000000004        1.4000000050637138        2.9999999969641680       8.70627307811592414E-009   1.0000000045231887       0.62433941024643658     
  0.35000000000000003       0.85000000000000009        1.3999999993626802        3.0000000058623328      -2.82577898319405593E-010  0.99999999781006832       0.62433940961455092     
  0.35000000000000003       0.90000000000000002        1.3999999909090741        2.9999999988128900      -3.19663604009722802E-009  0.99999999214336210       0.62433941135452231     
  0.35000000000000003       0.95000000000000007        1.3999999910721523        2.9999999988066546       3.30786933317192682E-009  0.99999999230925107       0.62433941135627724     
  0.35000000000000003        1.0000000000000000        1.3999999991708096        3.0000000058573377       4.36531194278939360E-010  0.99999999760279912       0.62433940960493695     

  0.40000000000000002        0.0000000000000000        5.2426883738320296       0.41942632594815482      -0.32365401564939655        10.521218737769860        1.0344044690605319     
  0.40000000000000002       5.00000000000000028E-002   5.3455221964340671       0.40622573765769082      -0.10564700909367586        10.786369420980568        1.0320223392888495     
  0.40000000000000002       0.10000000000000001        5.3173259932267092       0.40626176446126838       0.10578903101428534        10.707056748262168        1.0320470648308857     
  0.40000000000000002       0.15000000000000002        5.2163487999088956       0.41934698259979247       0.32418971140405423        10.447364889828242        1.0344118579459374     
  0.40000000000000002       0.20000000000000001        5.1135745133701258       0.59602792634201995       0.51975245330020681        9.9643798468545377        1.0144621558427036     
  0.40000000000000002       0.25000000000000000        5.0667047056481147       0.93215985758907371       0.63099585463401997        9.3460845915766146       0.96385981964382650     
  0.40000000000000002       0.30000000000000004        4.7239733883267006       0.99319216376890440       0.71686030850572002        8.5219474334758818       0.96941208971493653     
  0.40000000000000002       0.35000000000000003        4.8117045517142651        1.0818626436003740       0.75716591976380343        8.4791494345831637       0.94001277353066537     
  0.40000000000000002       0.40000000000000002        4.0000676727721389        1.4769900328796641       0.74790609014042853        6.3976680043923242       0.91860208146193834     
  0.40000000000000002       0.45000000000000001        2.6809961720986064        2.2171795893145592       0.67451849748701698        3.2201009521897164       0.80957076350440760     
  0.40000000000000002       0.50000000000000000        1.6572915763329794        2.9053851433516864       0.17186568581286391        1.2926370742538400       0.63726213715847102     
  0.40000000000000002       0.55000000000000004        1.4341224461670634        2.9907671370043412       2.31447052469876124E-002   1.0357819198388758       0.62524121648196296     
  0.40000000000000002       0.60000000000000009        1.4038374630058004        2.9991094720034353       2.53551346111114588E-003   1.0038571691986313       0.62435035917549475     
  0.40000000000000002       0.65000000000000002        1.4004065401290151        2.9999075616843216       2.67826518756056483E-004   1.0004067433630182       0.62433952268509663     
  0.40000000000000002       0.70000000000000007        1.4000425837127271        2.9999903459821486       2.80481751109886026E-005   1.0000425847216301       0.62433941105204949     
  0.40000000000000002       0.75000000000000000        1.4000044532617970        2.9999989844189590       2.93194578401383109E-006   1.0000044521153879       0.62433940986639369     
  0.40000000000000002       0.80000000000000004        1.4000004745178616        2.9999998897133113       3.12536098072217975E-007   1.0000004730543872       0.62433940967018331     
  0.40000000000000002       0.85000000000000009        1.4000000566906279        2.9999999893388307       3.63323326080524122E-008   1.0000000554105630       0.62433940978471247     
  0.40000000000000002       0.90000000000000002        1.4000000001646562        2.9999999965998296       1.46838705760681539E-009   1.0000000008722094       0.62433941102566104     
  0.40000000000000002       0.95000000000000007        1.3999999995668131        2.9999999966333992      -1.00262852952211475E-009   1.0000000002633798       0.62433941101880175     
  0.40000000000000002        1.0000000000000000        1.4000000519416371        2.9999999893993974      -3.25970127949045887E-008   1.0000000506611260       0.62433940978443392     

  0.45000000000000001        0.0000000000000000        5.2128365669417152       0.15371900916441752      -0.41580608118697876        10.692621508752927        1.0596939171765511     
  0.45000000000000001       5.00000000000000028E-002   5.3053714700986241       0.14597328397024495      -0.13297871604367473        10.904165753382822        1.0543634145490102     
  0.45000000000000001       0.10000000000000001        5.2692555735694802       0.14600833834964269       0.13336649352525606        10.801009187873943        1.0544242040894167     
  0.45000000000000001       0.15000000000000002        5.1768193379967897       0.15363568780293702       0.41675250052254675        10.590006618855346        1.0597612090356725     
  0.45000000000000001       0.20000000000000001        4.7413495547880737       0.49470040764076406       0.66313522695662219        9.2370581984934859        1.0453721247195891     
  0.45000000000000001       0.25000000000000000        4.6575316159878062       0.95833328262981066       0.72869055512057568        8.4926794971037243       0.98543185784123888     
  0.45000000000000001       0.30000000000000004        4.4033816786776692        1.0809946617881472       0.76767134304904716        7.8020668331890830       0.97928432424630141     
  0.45000000000000001       0.35000000000000003        4.3784662250747761        1.1764749175802423       0.78045281919426956        7.5826398796971928       0.95933353260703991     
  0.45000000000000001       0.40000000000000002        4.3713996184057136        1.2847760842661935       0.81174008680244414        7.3760906385426077       0.93531420612640148     
  0.45000000000000001       0.45000000000000001        4.2383312351155551        1.3865545792144471       0.88661757770661775        6.8761527820277477       0.91048472693554738     
  0.45000000000000001       0.50000000000000000        3.5482927417145196        1.8168167522295058       0.79940392660433479        5.0872589198380567       0.86388636994592127     
  0.45000000000000001       0.55000000000000004        2.2415525418607558        2.4849478050369860       0.50940551266766143        2.4011962235630930       0.77563814534724740     
  0.45000000000000001       0.60000000000000009        1.5770855843427400        2.9166861957947572       0.13026490347847522        1.2334933018762197       0.65183763065489109     
  0.45000000000000001       0.65000000000000002        1.4263958789604232        2.9928173847088551       1.78429826474788833E-002   1.0276658195018997       0.62505150668655973     
  0.45000000000000001       0.70000000000000007        1.4030490647391101        2.9992796427984811       2.00564781982316871E-003   1.0030613485011810       0.62434623018537150     
  0.45000000000000001       0.75000000000000000        1.4003333763479426        2.9999224418019534       2.18814070138009450E-004   1.0003335104273974       0.62433948435816455     
  0.45000000000000001       0.80000000000000004        1.4000361151854885        2.9999916283615553       2.37160293680716728E-005   1.0000361156401198       0.62433941075141364     
  0.45000000000000001       0.85000000000000009        1.4000039005401559        2.9999990967101069       2.57101896787033007E-006   1.0000038988961226       0.62433940955612000     
  0.45000000000000001       0.90000000000000002        1.4000004926887659        2.9999998811862767       2.25867818828523527E-007   1.0000004928423387       0.62433941067976750     
  0.45000000000000001       0.95000000000000007        1.4000004464428688        2.9999998817542926      -2.02321467660175734E-007   1.0000004466074046       0.62433941068661603     
  0.45000000000000001        1.0000000000000000        1.4000035354985332        2.9999991013882417      -2.30240198123128283E-006   1.0000035338526947       0.62433940955523470     

  0.50000000000000000        0.0000000000000000        5.1941755731970343      -0.15355095760435131      -0.41605058431584696        10.639364524162406        1.0597231289569786     
  0.50000000000000000       5.00000000000000028E-002   5.2871387551352607      -0.14574576217451571      -0.13304155713926702        10.852054748146065        1.0543941427237602     
  0.50000000000000000       0.10000000000000001        5.2510485386015233      -0.14574576216801602       0.13343122559909029        10.749105121725266        1.0544545478759173     
  0.50000000000000000       0.15000000000000002        5.1582111455441959      -0.15344078220203294       0.41699993787002498        10.537093659718364        1.0597955182413343     
  0.50000000000000000       0.20000000000000001        3.6912957710423036       0.58787800576003713       0.81350123679815389        7.1451996574564740        1.1480584132525273     
  0.50000000000000000       0.25000000000000000        3.7305172321183928        1.1854116381868063       0.80463164763684158        6.5432039050718842        1.0358903414498379     
  0.50000000000000000       0.30000000000000004        3.6923292140692840        1.3143596737860797       0.81208008770962536        6.2383450197328809        1.0019563620556111     
  0.50000000000000000       0.35000000000000003        3.7232521177036801        1.3803963469340810       0.80117376425668219        6.1778131838174284       0.98071619687920830     
  0.50000000000000000       0.40000000000000002        3.7788831943411827        1.4532284852672308       0.81254525542142353        6.1364943870728208       0.95413864465469977     
  0.50000000000000000       0.45000000000000001        3.8349173773387863        1.4976767884828996       0.86430934246477831        6.0764287821972092       0.92552892484825688     
  0.50000000000000000       0.50000000000000000        4.0058007497954371        1.5817084951227265       0.86053340747825913        6.2051769049312133       0.88917877319653649     
  0.50000000000000000       0.55000000000000004        3.6328414790778658        1.7945821567690932       0.86344830860775823        5.2288940376800417       0.85914173080026868     
  0.50000000000000000       0.60000000000000009        2.7207791983928531        2.2984712295665037       0.72269825742236760        3.2034545320758463       0.78894721288234226     
  0.50000000000000000       0.65000000000000002        1.7217242183264900        2.8825586041631381       0.22260841153163144        1.3925670667035790       0.65082929992998073     
  0.50000000000000000       0.70000000000000007        1.4484505229262759        2.9868443415795780       3.33116044190788912E-002   1.0516184703367906       0.62602701459237087     
  0.50000000000000000       0.75000000000000000        1.4058129533910786        2.9986691614605361       3.86015615993593169E-003   1.0058540161089196       0.62436190547169679     
  0.50000000000000000       0.80000000000000004        1.4006483882782033        2.9998544670306844       4.28672662661085948E-004   1.0006488512553127       0.62433966198251922     
  0.50000000000000000       0.85000000000000009        1.4000715609670027        2.9999839132943271       4.74429260045362380E-005   1.0000715650802385       0.62433941269507021     
  0.50000000000000000       0.90000000000000002        1.4000093162285498        2.9999978864814891       4.22945121237244924E-006   1.0000093162678600       0.62433941060070930     
  0.50000000000000000       0.95000000000000007        1.4000084608661401        2.9999978968090852      -3.79794208767127401E-006   1.0000084608976849       0.62433941059721743     
  0.50000000000000000        1.0000000000000000        1.4000649649725589        2.9999839930963281      -4.25968556087977097E-005   1.0000649684992757       0.62433941240923352     

  0.55000000000000004        0.0000000000000000        5.2289229510204800      -0.41909749706730365      -0.32387483243619519        10.483279809250357        1.0344750920223760     
  0.55000000000000004       5.00000000000000028E-002   5.3312108209942979      -0.40574245487054172      -0.10573293579243201        10.746976052070684        1.0321197332339882     
  0.55000000000000004       0.10000000000000001        5.3031285389703386      -0.40574245486557531       0.10587342172485577        10.668070692572838        1.0321453719281359     
  0.55000000000000004       0.15000000000000002        5.2027193206398472      -0.41895406581700773       0.32440963978148468        10.409840858610051        1.0344786561094461     
  0.55000000000000004       0.20000000000000001        2.4677408525742175        1.8825382318128676      -0.67432870898064268        3.6156461504872217        1.0208608527129981     
  0.55000000000000004       0.25000000000000000        1.9990394588714893        2.0039995783451463      -0.55998109256487583        2.8330705638671114        1.0742552339837461     
  0.55000000000000004       0.30000000000000004        1.9749221155942296        2.0077742744421267       0.59221340610559259        2.7616756732610876        1.0651302328888079     
  0.55000000000000004       0.35000000000000003        2.4805087613848036        1.8984941802949113       0.69525795913149935        3.6008134316189220        1.0093540929687443     
  0.55000000000000004       0.40000000000000002        2.8737560620207496        1.7973100308643595       0.75469577417593614        4.2736912160086415       0.97492965243007068     
  0.55000000000000004       0.45000000000000001        3.1651554280578234        1.7376556785211945       0.79194116423833749        4.7458978704487738       0.94572600310639743     
  0.55000000000000004       0.50000000000000000        3.4968349599084489        1.7141202472835326       0.83170327377927655        5.2545233983784891       0.91072685024960964     
  0.55000000000000004       0.55000000000000004        3.6102643087264052        1.7761576970049286       0.88093474197238519        5.2371659981047047       0.86804400590486408     
  0.55000000000000004       0.60000000000000009        3.4590800514156768        1.8994475457432753       0.89980164090373083        4.7716033420053137       0.83969095726950005     
  0.55000000000000004       0.65000000000000002        2.8633547785966988        2.3052276437519370       0.72974607213178244        3.3687570952545149       0.77240392273463498     
  0.55000000000000004       0.70000000000000007        1.8308935587498489        2.8175248775098525       0.29458619085298010        1.5701278067983562       0.67329698461227183     
  0.55000000000000004       0.75000000000000000        1.4736087353822849        2.9777604020026986       5.13503430464592459E-002   1.0812955279144754       0.62836117709552675     
  0.55000000000000004       0.80000000000000004        1.4094506530074553        2.9977840665188382       6.29161913503659045E-003   1.0095636445660141       0.62440141352386158     
  0.55000000000000004       0.85000000000000009        1.4010845332302733        2.9997546869748013       7.19586921527761250E-004   1.0010858176050137       0.62434010682275498     
  0.55000000000000004       0.90000000000000002        1.4001443385301586        2.9999674281207116       6.52699527921631886E-005   1.0001443554775706       0.62433941930544656     
  0.55000000000000004       0.95000000000000007        1.4001313006507607        2.9999675839410536      -5.87328875036011340E-005   1.0001313157937226       0.62433941849959873     
  0.55000000000000004        1.0000000000000000        1.4009869104241663        2.9997559216876968      -6.47762852479922559E-004   1.0009880626450831       0.62434004247769714     

