\relax 
\select@language{english}
\@writefile{toc}{\select@language{english}}
\@writefile{lof}{\select@language{english}}
\@writefile{lot}{\select@language{english}}
\@writefile{toc}{\contentsline {section}{\numberline {1}Introduction}{1}}
\@writefile{toc}{\contentsline {subsection}{\numberline {1.1}Governing Equations}{1}}
\@writefile{toc}{\contentsline {subsection}{\numberline {1.2}Numerical Method}{2}}
\@writefile{toc}{\contentsline {section}{\numberline {2}Problem Background}{3}}
\@writefile{toc}{\contentsline {subsection}{\numberline {2.1}Overview}{3}}
\@writefile{lof}{\contentsline {figure}{\numberline {2.1}{\ignorespaces Test Case Overview\relax }}{3}}
\@writefile{toc}{\contentsline {subsection}{\numberline {2.2}Previous Studies}{3}}
\@writefile{lof}{\contentsline {figure}{\numberline {2.2}{\ignorespaces Pressure contours produced by Emery (1968)\relax }}{4}}
\@writefile{lof}{\contentsline {figure}{\numberline {2.3}{\ignorespaces Pressure contours produced by van-Leer (1978)\relax }}{4}}
\@writefile{toc}{\contentsline {section}{\numberline {3}Results and Discussion}{4}}
\@writefile{toc}{\contentsline {subsection}{\numberline {3.1}Previous Studies}{4}}
\@writefile{lof}{\contentsline {figure}{\numberline {2.4}{\ignorespaces Density contours produced by Woodward and Colella (1983)\relax }}{5}}
\@writefile{toc}{\contentsline {section}{\numberline {4}References}{5}}
\@writefile{lof}{\contentsline {figure}{\numberline {3.1}{\ignorespaces Time progression of flow field\relax }}{6}}
\@writefile{lof}{\contentsline {figure}{\numberline {3.2}{\ignorespaces Pressure contours at t = 4.0 units\relax }}{7}}
\@writefile{lof}{\contentsline {figure}{\numberline {3.3}{\ignorespaces Density contours at t = 4.0 units\relax }}{7}}
\@writefile{lof}{\contentsline {figure}{\numberline {3.4}{\ignorespaces Contours of $A=p/{\rho }^{\gamma }$ at t = 4.0 units\relax }}{7}}
