\contentsline {section}{\numberline {0.1}Introduction}{3}
\contentsline {section}{\numberline {0.2}Background}{3}
\contentsline {subsection}{\numberline {0.2.1}Problem Overview}{3}
\contentsline {subsection}{\numberline {0.2.2}Literature Review}{3}
\contentsline {section}{\numberline {0.3}Results}{3}
\contentsline {chapter}{\numberline {A}An Appendix may not be necessary}{4}
\contentsline {section}{\numberline {A.1}Appendix section}{4}
