\relax 
\@writefile{lof}{\contentsline {figure}{\numberline {1}{\ignorespaces Staggered Grid Arrangement\relax }}{2}}
\@writefile{lof}{\contentsline {figure}{\numberline {2}{\ignorespaces Cavity Driven Flow, Grid\relax }}{3}}
\newlabel{LastPage}{{}{5}}
