GFORTRAN module version '6' created from ROE.f95 on Mon Jul  1 20:13:21 2013
MD5:90ce2578179de0d338734fecc8f9e0f7 -- If you edit this, you'll get what you deserve.

(() () () () () () () () () () () () () () () () () () () () () () ()
() () () ())

()

()

()

()

()

(2 'computenumericalflux' 'roe' 'computenumericalflux' 1 ((PROCEDURE
UNKNOWN-INTENT MODULE-PROC DECL UNKNOWN 0 0 SUBROUTINE IMPLICIT_PURE) (
UNKNOWN 0 0 0 UNKNOWN ()) 3 0 (4 5 6 7) () 0 () () () 0 0)
8 'computeroeflux' 'roe' 'computeroeflux' 1 ((PROCEDURE UNKNOWN-INTENT
MODULE-PROC DECL UNKNOWN 0 0 SUBROUTINE) (UNKNOWN 0 0 0 UNKNOWN ()) 9 0
(10 11 12 13) () 0 () () () 0 0)
14 'computestarvalues' 'roe' 'computestarvalues' 1 ((PROCEDURE
UNKNOWN-INTENT MODULE-PROC DECL UNKNOWN 0 0 SUBROUTINE IMPLICIT_PURE) (
UNKNOWN 0 0 0 UNKNOWN ()) 15 0 (16 17 18 19 20 21 22 23 24 25) () 0 () ()
() 0 0)
26 'roe' 'roe' 'roe' 1 ((MODULE UNKNOWN-INTENT UNKNOWN-PROC UNKNOWN
UNKNOWN 0 0) (UNKNOWN 0 0 0 UNKNOWN ()) 0 0 () () 0 () () () 0 0)
10 'uil' '' 'uil' 9 ((VARIABLE IN UNKNOWN-PROC UNKNOWN UNKNOWN 0 0
DIMENSION DUMMY) (REAL 4 0 0 REAL ()) 0 0 () (1 0 EXPLICIT (CONSTANT (
INTEGER 4 0 0 INTEGER ()) 0 '1') (CONSTANT (INTEGER 4 0 0 INTEGER ()) 0
'3')) 0 () () () 0 0)
11 'uir' '' 'uir' 9 ((VARIABLE IN UNKNOWN-PROC UNKNOWN UNKNOWN 0 0
DIMENSION DUMMY) (REAL 4 0 0 REAL ()) 0 0 () (1 0 EXPLICIT (CONSTANT (
INTEGER 4 0 0 INTEGER ()) 0 '1') (CONSTANT (INTEGER 4 0 0 INTEGER ()) 0
'3')) 0 () () () 0 0)
12 'dt' '' 'dt' 9 ((VARIABLE IN UNKNOWN-PROC UNKNOWN UNKNOWN 0 0 DUMMY)
(REAL 4 0 0 REAL ()) 0 0 () () 0 () () () 0 0)
13 'flux' '' 'flux' 9 ((VARIABLE OUT UNKNOWN-PROC UNKNOWN UNKNOWN 0 0
DIMENSION DUMMY) (REAL 4 0 0 REAL ()) 0 0 () (1 0 EXPLICIT (CONSTANT (
INTEGER 4 0 0 INTEGER ()) 0 '1') (CONSTANT (INTEGER 4 0 0 INTEGER ()) 0
'3')) 0 () () () 0 0)
16 'si' '' 'si' 15 ((VARIABLE IN UNKNOWN-PROC UNKNOWN UNKNOWN 0 0 DUMMY)
(REAL 4 0 0 REAL ()) 0 0 () () 0 () () () 0 0)
17 'rho' '' 'rho' 15 ((VARIABLE IN UNKNOWN-PROC UNKNOWN UNKNOWN 0 0
DUMMY) (REAL 4 0 0 REAL ()) 0 0 () () 0 () () () 0 0)
18 'u' '' 'u' 15 ((VARIABLE IN UNKNOWN-PROC UNKNOWN UNKNOWN 0 0 DUMMY) (
REAL 4 0 0 REAL ()) 0 0 () () 0 () () () 0 0)
19 'e' '' 'e' 15 ((VARIABLE IN UNKNOWN-PROC UNKNOWN UNKNOWN 0 0 DUMMY) (
REAL 4 0 0 REAL ()) 0 0 () () 0 () () () 0 0)
20 'ak' '' 'ak' 15 ((VARIABLE IN UNKNOWN-PROC UNKNOWN UNKNOWN 0 0 DUMMY)
(REAL 4 0 0 REAL ()) 0 0 () () 0 () () () 0 0)
21 'um' '' 'um' 15 ((VARIABLE IN UNKNOWN-PROC UNKNOWN UNKNOWN 0 0 DUMMY)
(REAL 4 0 0 REAL ()) 0 0 () () 0 () () () 0 0)
22 'am' '' 'am' 15 ((VARIABLE IN UNKNOWN-PROC UNKNOWN UNKNOWN 0 0 DUMMY)
(REAL 4 0 0 REAL ()) 0 0 () () 0 () () () 0 0)
23 'hm' '' 'hm' 15 ((VARIABLE IN UNKNOWN-PROC UNKNOWN UNKNOWN 0 0 DUMMY)
(REAL 4 0 0 REAL ()) 0 0 () () 0 () () () 0 0)
24 'umm' '' 'umm' 15 ((VARIABLE OUT UNKNOWN-PROC UNKNOWN UNKNOWN 0 0
DUMMY) (REAL 4 0 0 REAL ()) 0 0 () () 0 () () () 0 0)
25 'amm' '' 'amm' 15 ((VARIABLE OUT UNKNOWN-PROC UNKNOWN UNKNOWN 0 0
DUMMY) (REAL 4 0 0 REAL ()) 0 0 () () 0 () () () 0 0)
4 'rho' '' 'rho' 3 ((VARIABLE IN UNKNOWN-PROC UNKNOWN UNKNOWN 0 0 DUMMY)
(REAL 4 0 0 REAL ()) 0 0 () () 0 () () () 0 0)
5 'vel' '' 'vel' 3 ((VARIABLE IN UNKNOWN-PROC UNKNOWN UNKNOWN 0 0 DUMMY)
(REAL 4 0 0 REAL ()) 0 0 () () 0 () () () 0 0)
6 'p' '' 'p' 3 ((VARIABLE IN UNKNOWN-PROC UNKNOWN UNKNOWN 0 0 DUMMY) (
REAL 4 0 0 REAL ()) 0 0 () () 0 () () () 0 0)
7 'numericalflux' '' 'numericalflux' 3 ((VARIABLE OUT UNKNOWN-PROC
UNKNOWN UNKNOWN 0 0 DIMENSION DUMMY) (REAL 4 0 0 REAL ()) 0 0 () (1 0
EXPLICIT (CONSTANT (INTEGER 4 0 0 INTEGER ()) 0 '1') (CONSTANT (INTEGER
4 0 0 INTEGER ()) 0 '3')) 0 () () () 0 0)
)

('computenumericalflux' 0 2 'computeroeflux' 0 8 'computestarvalues' 0
14 'roe' 0 26)
